{
  "count": 547,
  "next": "https://goriva.si/api/v1/search/?format=json&franchise=&name=&o=&page=17&position=&radius=",
  "previous": "https://goriva.si/api/v1/search/?format=json&franchise=&name=&o=&page=15&position=&radius=",
  "results": [
    {
      "pk": 2242,
      "franchise": 3,
      "name": "BS MAXEN ČRNOMELJ",
      "address": "Ulica heroja Stariha bš",
      "lat": 45.5729152,
      "lng": 15.1853056,
      "prices": {
        "95": 1.234,
        "dizel": 1.299,
        "98": null,
        "100": null,
        "dizel-premium": null,
        "avtoplin-lpg": null,
        "KOEL": null
      },
      "distance": null,
      "direction": "",
      "open_hours": "24/7",
      "zip_code": "8340"
    },
    {
      "pk": 2243,
      "franchise": 3,
      "name": "BS MAXEN GRAD",
      "address": "Grad bš",
      "lat": 46.7978208,
      "lng": 16.0886368,
      "prices": {
        "95": 1.234,
        "dizel": 1.299,
        "98": null,
        "100": null,
        "dizel-premium": null,
        "avtoplin-lpg": null,
        "KOEL": null
      },
      "distance": null,
      "direction": "",
      "open_hours": "24/7",
      "zip_code": "9264"
    },
    {
      "pk": 2244,
      "franchise": 3,
      "name": "BS MAXEN DOLNJI LAKOŠ",
      "address": "Glavna ulica bš",
      "lat": 46.5525523,
      "lng": 16.430912,
      "prices": {
        "95": 1.234,
        "dizel": 1.299,
        "98": null,
        "100": null,
        "dizel-premium": null,
        "avtoplin-lpg": null,
        "KOEL": null
      },
      "distance": null,
      "direction": "",
      "open_hours": "24/7",
      "zip_code": "9220"
    },
    {
      "pk": 2245,
      "franchise": 3,
      "name": "BS MAXEN SELNICA OB DRAVI",
      "address": "Spodnja Selnica bš",
      "lat": 46.5546048,
      "lng": 15.5078896,
      "prices": {
        "95": 1.234,
        "dizel": 1.299,
        "98": null,
        "100": null,
        "dizel-premium": null,
        "avtoplin-lpg": null,
        "KOEL": null
      },
      "distance": null,
      "direction": "",
      "open_hours": "24/7",
      "zip_code": "2352"
    },
    {
      "pk": 2246,
      "franchise": 3,
      "name": "BS MAXEN LJUBLJANA-BTC",
      "address": "Argentinska ulica bš",
      "lat": 46.0665824,
      "lng": 14.5488544,
      "prices": {
        "95": 1.234,
        "dizel": 1.299,
        "98": null,
        "100": null,
        "dizel-premium": null,
        "avtoplin-lpg": null,
        "KOEL": null
      },
      "distance": null,
      "direction": "",
      "open_hours": "24/7",
      "zip_code": "1000"
    },
    {
      "pk": 2247,
      "franchise": 3,
      "name": "BS MAXEN METLIKA",
      "address": "Mestni log bš",
      "lat": 45.6406592,
      "lng": 15.3216016,
      "prices": {
        "95": 1.234,
        "dizel": 1.299,
        "98": null,
        "100": null,
        "dizel-premium": null,
        "avtoplin-lpg": null,
        "KOEL": null
      },
      "distance": null,
      "direction": "",
      "open_hours": "24/7",
      "zip_code": "8330"
    },
    {
      "pk": 2248,
      "franchise": 3,
      "name": "BS MAXEN PREDGRAD",
      "address": "Paka pri Predgradu bš",
      "lat": 45.5025792,
      "lng": 15.0603264,
      "prices": {
        "95": 1.234,
        "dizel": 1.299,
        "98": null,
        "100": null,
        "dizel-premium": null,
        "avtoplin-lpg": null,
        "KOEL": null
      },
      "distance": null,
      "direction": "",
      "open_hours": "24/7",
      "zip_code": "8342"
    },
    {
      "pk": 2249,
      "franchise": 3,
      "name": "BS MAXEN MEŽICA",
      "address": "Mariborska cesta bš",
      "lat": 46.5236096,
      "lng": 14.8536976,
      "prices": {
        "95": 1.234,
        "dizel": 1.299,
        "98": null,
        "100": null,
        "dizel-premium": null,
        "avtoplin-lpg": null,
        "KOEL": null
      },
      "distance": null,
      "direction": "",
      "open_hours": "24/7",
      "zip_code": "2392"
    },
    {
      "pk": 2250,
      "franchise": 3,
      "name": "BS MAXEN KOČEVJE",
      "address": "Mrtvice bš",
      "lat": 45.6768128,
      "lng": 14.827288,
      "prices": {
        "95": 1.234,
        "dizel": 1.299,
        "98": null,
        "100": null,
        "dizel-premium": null,
        "avtoplin-lpg": null,
        "KOEL": null
      },
      "distance": null,
      "direction": "",
      "open_hours": "24/7",
      "zip_code": "1332"
    },
    {
      "pk": 2251,
      "franchise": 3,
      "name": "BS MAXEN ŽUŽEMBERK",
      "address": "Grajski trg bš",
      "lat": 45.8333056,
      "lng": 14.9274912,
      "prices": {
        "95": 1.234,
        "dizel": 1.299,
        "98": null,
        "100": null,
        "dizel-premium": null,
        "avtoplin-lpg": null,
        "KOEL": null
      },
      "distance": null,
      "direction": "",
      "open_hours": "24/7",
      "zip_code": "8360"
    },
    {
      "pk": 2252,
      "franchise": 3,
      "name": "BS MAXEN VELENJE",
      "address": "Črnova bš",
      "lat": 46.347808,
      "lng": 15.1495248,
      "prices": {
        "95": 1.234,
        "dizel": 1.299,
        "98": null,
        "100": null,
        "dizel-premium": null,
        "avtoplin-lpg": null,
        "KOEL": null
      },
      "distance": null,
      "direction": "",
      "open_hours": "24/7",
      "zip_code": "3320"
    },
    {
      "pk": 2253,
      "franchise": 3,
      "name": "BS MAXEN LOGATEC",
      "address": "Tržaška cesta bš",
      "lat": 45.9388,
      "lng": 14.2365616,
      "prices": {
        "95": 1.234,
        "dizel": 1.299,
        "98": null,
        "100": null,
        "dizel-premium": null,
        "avtoplin-lpg": null,
        "KOEL": null
      },
      "distance": null,
      "direction": "",
      "open_hours": "24/7",
      "zip_code": "1370"
    },
    {
      "pk": 2254,
      "franchise": 3,
      "name": "BS MAXEN RIBNICA",
      "address": "Gorenjska cesta bš",
      "lat": 45.7490272,
      "lng": 14.7190224,
      "prices": {
        "95": 1.234,
        "dizel": 1.299,
        "98": null,
        "100": null,
        "dizel-premium": null,
        "avtoplin-lpg": null,
        "KOEL": null
      },
      "distance": null,
      "direction": "",
      "open_hours": "24/7",
      "zip_code": "1310"
    },
    {
      "pk": 2255,
      "franchise": 3,
      "name": "BS MAXEN NOVO MESTO",
      "address": "Mirnopeška cesta bš",
      "lat": 45.8202208,
      "lng": 15.1490384,
      "prices": {
        "95": 1.234,
        "dizel": 1.299,
        "98": null,
        "100": null,
        "dizel-premium": null,
        "avtoplin-lpg": null,
        "KOEL": null
      },
      "distance": null,
      "direction": "",
      "open_hours": "24/7",
      "zip_code": "8000"
    },
    {
      "pk": 2256,
      "franchise": 3,
      "name": "BS MAXEN KRANJ",
      "address": "Cesta Staneta Žagarja bš",
      "lat": 46.24224,
      "lng": 14.3774704,
      "prices": {
        "95": 1.234,
        "dizel": 1.299,
        "98": null,
        "100": null,
        "dizel-premium": null,
        "avtoplin-lpg": null,
        "KOEL": null
      },
      "distance": null,
      "direction": "",
      "open_hours": "24/7",
      "zip_code": "4000"
    },
    {
      "pk": 2257,
      "franchise": 3,
      "name": "BS MAXEN AJDOVŠČINA",
      "address": "Vipavska cesta bš",
      "lat": 45.8809344,
      "lng": 13.9107888,
      "prices": {
        "95": 1.234,
        "dizel": 1.299,
        "98": null,
        "100": null,
        "dizel-premium": null,
        "avtoplin-lpg": null,
        "KOEL": null
      },
      "distance": null,
      "direction": "",
      "open_hours": "24/7",
      "zip_code": "5270"
    },
    {
      "pk": 771,
      "franchise": 2,
      "name": "OMV BREŽICE",
      "address": "C.Svobode 35",
      "lat": 45.913737,
      "lng": 15.595365,
      "prices": {
        "95": 1.244,
        "dizel": 1.287,
        "98": null,
        "100": 1.399,
        "dizel-premium": 1.464,
        "avtoplin-lpg": null,
        "KOEL": 1.027
      },
      "distance": null,
      "direction": "",
      "open_hours": "Pon-Ned 06:00-22:00",
      "zip_code": "8250"
    },
    {
      "pk": 773,
      "franchise": 2,
      "name": "OMV CELJE EMO",
      "address": "Mariborska c. 84",
      "lat": 46.23923,
      "lng": 15.27456,
      "prices": {
        "95": 1.244,
        "dizel": 1.287,
        "98": null,
        "100": 1.399,
        "dizel-premium": null,
        "avtoplin-lpg": null,
        "KOEL": 1.027
      },
      "distance": null,
      "direction": "",
      "open_hours": "Sep-Maj: Pon-Ned 05:00-22:00; Jun-Avg: Pon-Ned 05:00-23:00",
      "zip_code": "3000"
    },
    {
      "pk": 774,
      "franchise": 2,
      "name": "OMV CELJE MEDLOG",
      "address": "Ljubljanska cesta 110",
      "lat": 46.238118,
      "lng": 15.235194,
      "prices": {
        "95": 1.244,
        "dizel": 1.287,
        "98": null,
        "100": 1.399,
        "dizel-premium": null,
        "avtoplin-lpg": null,
        "KOEL": null
      },
      "distance": null,
      "direction": "",
      "open_hours": "Pon-Pet 05:00-22:00, Sob/Ned/Praz 06:00-21:00",
      "zip_code": "3000"
    },
    {
      "pk": 775,
      "franchise": 2,
      "name": "OMV ČRNOMELJ",
      "address": "Belokranjska c. 18a",
      "lat": 45.57995,
      "lng": 15.19583,
      "prices": {
        "95": 1.244,
        "dizel": 1.287,
        "98": null,
        "100": 1.399,
        "dizel-premium": 1.464,
        "avtoplin-lpg": null,
        "KOEL": null
      },
      "distance": null,
      "direction": "",
      "open_hours": "Pon-Ned 06:00-22:00",
      "zip_code": "8340"
    },
    {
      "pk": 776,
      "franchise": 2,
      "name": "OMV DIVAČA",
      "address": "Kolodvorska 1",
      "lat": 45.681494,
      "lng": 13.968687,
      "prices": {
        "95": 1.244,
        "dizel": 1.287,
        "98": null,
        "100": 1.399,
        "dizel-premium": null,
        "avtoplin-lpg": null,
        "KOEL": 1.027
      },
      "distance": null,
      "direction": "",
      "open_hours": "Okt-Maj: Pon-Sob 06:00-20:00, Ned/Praz. zaprto; Jun-Sep: Pon-Sob 06:00-21:00, Ned/Praz. 9-18",
      "zip_code": "6215"
    },
    {
      "pk": 779,
      "franchise": 2,
      "name": "OMV DOL PRI LJUBLJANI",
      "address": "Podgora pri Dolskem 40",
      "lat": 46.090168,
      "lng": 14.650805,
      "prices": {
        "95": 1.244,
        "dizel": 1.287,
        "98": null,
        "100": 1.399,
        "dizel-premium": null,
        "avtoplin-lpg": null,
        "KOEL": 1.027
      },
      "distance": null,
      "direction": "",
      "open_hours": "Pon-Ned 05:00-22:00",
      "zip_code": "1262"
    },
    {
      "pk": 780,
      "franchise": 2,
      "name": "OMV DRAVOGRAD",
      "address": "Koroška c. 49",
      "lat": 46.59033,
      "lng": 15.01542,
      "prices": {
        "95": 1.244,
        "dizel": 1.287,
        "98": null,
        "100": 1.399,
        "dizel-premium": null,
        "avtoplin-lpg": null,
        "KOEL": 1.027
      },
      "distance": null,
      "direction": "",
      "open_hours": "Okt-Maj: Pon-Ned 06:00-20:00; Jun-Sep: Pon-Sob 06:00-21:00, Ned/Praz 07:00-20:00",
      "zip_code": "2370"
    },
    {
      "pk": 783,
      "franchise": 2,
      "name": "OMV DUTOVLJE",
      "address": "Dutovlje 3b",
      "lat": 45.755992,
      "lng": 13.835896,
      "prices": {
        "95": 1.244,
        "dizel": 1.287,
        "98": null,
        "100": 1.399,
        "dizel-premium": null,
        "avtoplin-lpg": null,
        "KOEL": 1.027
      },
      "distance": null,
      "direction": "",
      "open_hours": "Okt-Mar: Pon-Ned 07:00-20:00; Apr-Sep: Pon-Ned 07:00-21:00",
      "zip_code": "6221"
    },
    {
      "pk": 2323,
      "franchise": 2,
      "name": "OMV KOPER LUKA",
      "address": "Vojkovo nabrežje 38",
      "lat": 45.55757,
      "lng": 13.75353,
      "prices": {
        "95": 1.244,
        "dizel": 1.287,
        "98": null,
        "100": null,
        "dizel-premium": null,
        "avtoplin-lpg": null,
        "KOEL": null
      },
      "distance": null,
      "direction": "Koper",
      "open_hours": "Pon-Ned 06:00-21:00",
      "zip_code": "6000"
    }
  ],
  "position": null
}
