{
  "count": 551,
  "next": "https://goriva.si/api/v1/search/?format=json&franchise=&name=&o=&page=18&position=&radius=",
  "previous": "https://goriva.si/api/v1/search/?format=json&franchise=&name=&o=&page=16&position=&radius=",
  "results": [
    {
      "pk": 2255,
      "franchise": 3,
      "name": "BS MAXEN NOVO MESTO",
      "address": "Mirnopeška cesta bš",
      "lat": 45.8202208,
      "lng": 15.1490384,
      "prices": {
        "95": 1.649,
        "dizel": 1.855,
        "98": null,
        "100": null,
        "dizel-premium": null,
        "avtoplin-lpg": null,
        "KOEL": null,
        "hvo": null,
        "cng": null,
        "lng": null
      },
      "distance": null,
      "direction": "",
      "open_hours": "24/7",
      "zip_code": "8000"
    },
    {
      "pk": 2256,
      "franchise": 3,
      "name": "BS MAXEN KRANJ",
      "address": "Cesta Staneta Žagarja bš",
      "lat": 46.24224,
      "lng": 14.3774704,
      "prices": {
        "95": 1.649,
        "dizel": 1.855,
        "98": null,
        "100": null,
        "dizel-premium": null,
        "avtoplin-lpg": null,
        "KOEL": null,
        "hvo": null,
        "cng": null,
        "lng": null
      },
      "distance": null,
      "direction": "",
      "open_hours": "24/7",
      "zip_code": "4000"
    },
    {
      "pk": 2257,
      "franchise": 3,
      "name": "BS MAXEN AJDOVŠČINA",
      "address": "Vipavska cesta bš",
      "lat": 45.8809344,
      "lng": 13.9107888,
      "prices": {
        "95": 1.649,
        "dizel": 1.855,
        "98": null,
        "100": null,
        "dizel-premium": null,
        "avtoplin-lpg": null,
        "KOEL": null,
        "hvo": null,
        "cng": null,
        "lng": null
      },
      "distance": null,
      "direction": "",
      "open_hours": "24/7",
      "zip_code": "5270"
    },
    {
      "pk": 2266,
      "franchise": 5,
      "name": "SHELL FRAM MARIBOR RETAIL",
      "address": "TURNEJEVA ULICA 35",
      "lat": 46.449892,
      "lng": 15.651698,
      "prices": {
        "95": 1.649,
        "dizel": 1.855,
        "98": null,
        "100": 2.009,
        "dizel-premium": 2.109,
        "avtoplin-lpg": null,
        "KOEL": null,
        "hvo": null,
        "cng": null,
        "lng": null
      },
      "distance": null,
      "direction": "",
      "open_hours": "24 ur - črpalka z osebjem",
      "zip_code": "2313"
    },
    {
      "pk": 2267,
      "franchise": 6,
      "name": "EKO-NAFTA d.o.o.",
      "address": "Trimlini 65A, 9220 Lendava - Lendva",
      "lat": 46.5429019,
      "lng": 16.4429144,
      "prices": {
        "95": 1.649,
        "dizel": 1.855,
        "98": null,
        "100": 2.016,
        "dizel-premium": null,
        "avtoplin-lpg": null,
        "KOEL": 1.464,
        "hvo": null,
        "cng": null,
        "lng": null
      },
      "distance": null,
      "direction": "",
      "open_hours": "Maj / Junij / Julij / Avgust / September\nPonedeljek, Torek, Sreda, Četrtek, Petek\n06:00-19:00\n\nJanuar / Februar / Marec / April / Oktober / November / December\nPonedeljek, Torek, Sreda, Četrtek\n06:00-18:00\n\nSobota, Nedelja, Praznik\nZaprto cel dan\n",
      "zip_code": "9220"
    },
    {
      "pk": 2268,
      "franchise": 9,
      "name": "BS Pesniška vrata",
      "address": "Pesnica pri Mariboru 32e",
      "lat": 46.601243,
      "lng": 15.674333,
      "prices": {
        "95": 1.649,
        "dizel": 1.855,
        "98": 1.903,
        "100": 1.978,
        "dizel-premium": 1.723,
        "avtoplin-lpg": null,
        "KOEL": 1.464,
        "hvo": null,
        "cng": null,
        "lng": null
      },
      "distance": null,
      "direction": "",
      "open_hours": "ponedeljek - petek: 6-22\r\nsobota: 7-22\r\nnedelja in praznik: 8-20",
      "zip_code": "2211"
    },
    {
      "pk": 2271,
      "franchise": 2,
      "name": "BS MOL MARIBOR STUDENCI",
      "address": "Ulica heroja Šercerja 60",
      "lat": 46.548645,
      "lng": 15.620617,
      "prices": {
        "95": 1.649,
        "dizel": 1.855,
        "98": null,
        "100": 1.998,
        "dizel-premium": 2.098,
        "avtoplin-lpg": 0.928,
        "KOEL": null,
        "hvo": null,
        "cng": null,
        "lng": null
      },
      "distance": null,
      "direction": "Maribor",
      "open_hours": "05:00-23:00\n",
      "zip_code": "2000"
    },
    {
      "pk": 2272,
      "franchise": 1,
      "name": "PETROL BLED - SELIŠKA",
      "address": "SELIŠKA CESTA 4C",
      "lat": 46.370163,
      "lng": 14.116395,
      "prices": {
        "95": 1.649,
        "dizel": 1.855,
        "98": null,
        "100": 2.016,
        "dizel-premium": 2.213,
        "avtoplin-lpg": 0.933,
        "KOEL": null,
        "hvo": null,
        "cng": null,
        "lng": null
      },
      "distance": null,
      "direction": "",
      "open_hours": "Ponedeljek, Torek, Sreda, Četrtek, Petek\n06:00-22:00\n\nSobota\n06:00-22:00\n\nNedelja, Praznik\n06:00-22:00\n",
      "zip_code": "4260"
    },
    {
      "pk": 2283,
      "franchise": 2,
      "name": "BS MOL ŠALOVCI",
      "address": "Šalovci 168",
      "lat": 46.821993,
      "lng": 16.278851,
      "prices": {
        "95": 1.649,
        "dizel": 1.855,
        "98": null,
        "100": 1.998,
        "dizel-premium": 2.098,
        "avtoplin-lpg": null,
        "KOEL": 1.464,
        "hvo": null,
        "cng": null,
        "lng": null
      },
      "distance": null,
      "direction": "",
      "open_hours": "April / Maj / Junij / Julij / Avgust / September\nSobota\n07:00-21:00\n\nNedelja, Praznik\n08:00-20:00\n\nJanuar / Februar / Marec / Oktober / November / December\nPonedeljek, Torek, Sreda, Četrtek, Petek, Sobota\n07:00-20:00\n\nApril / Maj / Junij / Julij / Avgust / September\nPonedeljek, Torek, Sreda, Četrtek, Petek\n06:00-21:00\n",
      "zip_code": "9204"
    },
    {
      "pk": 2284,
      "franchise": 2,
      "name": "BS MOL HOTIZA",
      "address": "Ložič 1",
      "lat": 46.551502,
      "lng": 16.344579,
      "prices": {
        "95": 1.649,
        "dizel": 1.855,
        "98": null,
        "100": 1.998,
        "dizel-premium": 2.098,
        "avtoplin-lpg": null,
        "KOEL": 1.464,
        "hvo": null,
        "cng": null,
        "lng": null
      },
      "distance": null,
      "direction": "",
      "open_hours": "April / Maj / Junij / Julij / Avgust / September\nPonedeljek, Torek, Sreda, Četrtek, Petek\n06:00-21:00\n\nApril / Maj / Junij / Julij / Avgust / September\nSobota\n07:00-21:00\n\nJanuar / Februar / Marec / Oktober / November / December\nPonedeljek, Torek, Sreda, Četrtek, Petek\n06:00-20:00\n\nJanuar / Februar / Marec / Oktober / November / December\nSobota\n07:00-20:00\n\nNedelja, Praznik\n08:00-20:00\n",
      "zip_code": "9220"
    },
    {
      "pk": 2285,
      "franchise": 2,
      "name": "BS MOL LENART",
      "address": "Kraigherjeva ulica 19",
      "lat": 46.579295,
      "lng": 15.834392,
      "prices": {
        "95": 1.649,
        "dizel": 1.855,
        "98": null,
        "100": 1.998,
        "dizel-premium": 2.098,
        "avtoplin-lpg": null,
        "KOEL": 1.464,
        "hvo": null,
        "cng": null,
        "lng": null
      },
      "distance": null,
      "direction": "",
      "open_hours": "Januar / Februar / Marec / Oktober / November / December\nPonedeljek, Torek, Sreda, Četrtek, Petek\n05:30-21:00\n\nJanuar / Februar / Marec / Oktober / November / December\nSobota\n06:00-21:00\n\nApril / Maj / Junij / Julij / Avgust / September\nPonedeljek, Torek, Sreda, Četrtek, Petek\n05:00-22:00\n\nApril / Maj / Junij / Julij / Avgust / September\nSobota\n06:00-22:00\n\nNedelja, Praznik\n08:00-20:00\n",
      "zip_code": "2230"
    },
    {
      "pk": 2286,
      "franchise": 2,
      "name": "BS MOL RADLJE OB DRAVI",
      "address": "Mariborska cesta 60",
      "lat": 46.612815,
      "lng": 15.232126,
      "prices": {
        "95": 1.649,
        "dizel": 1.855,
        "98": null,
        "100": 1.998,
        "dizel-premium": 2.098,
        "avtoplin-lpg": 0.928,
        "KOEL": 1.464,
        "hvo": null,
        "cng": null,
        "lng": null
      },
      "distance": null,
      "direction": "",
      "open_hours": "Ponedeljek, Torek, Sreda, Četrtek, Petek\n05:00-22:00\n\nSobota\n06:00-22:00\n\nNedelja, Praznik\n07:00-20:00\n",
      "zip_code": "2360"
    },
    {
      "pk": 2287,
      "franchise": 2,
      "name": "BS MOL LAŠKO",
      "address": "Celjska cesta 2",
      "lat": 46.162431,
      "lng": 15.23171,
      "prices": {
        "95": 1.649,
        "dizel": 1.855,
        "98": null,
        "100": 1.998,
        "dizel-premium": 2.098,
        "avtoplin-lpg": null,
        "KOEL": 1.464,
        "hvo": null,
        "cng": null,
        "lng": null
      },
      "distance": null,
      "direction": "",
      "open_hours": "Ponedeljek, Torek, Sreda, Četrtek, Petek, Sobota\n06:00-20:00\n\nNedelja, Praznik\n07:00-19:00\n",
      "zip_code": "3270"
    },
    {
      "pk": 2296,
      "franchise": 15,
      "name": "DISCONT OiL - BS Maribor",
      "address": "Tržaška cesta 35",
      "lat": 46.529195,
      "lng": 15.646512,
      "prices": {
        "95": 1.649,
        "dizel": 1.855,
        "98": null,
        "100": null,
        "dizel-premium": null,
        "avtoplin-lpg": 0.899,
        "KOEL": null,
        "hvo": null,
        "cng": null,
        "lng": null
      },
      "distance": null,
      "direction": "",
      "open_hours": "Odpiralni čas:\r\nPonedeljek - petek: 07:00 - 20:00\r\nSobota: 07:00 - 19:00\r\nNedelja in prazniki: 08:00 - 13:00",
      "zip_code": "2000"
    },
    {
      "pk": 2297,
      "franchise": 16,
      "name": "Agas Maribor",
      "address": "Perhavčeva ulica 15",
      "lat": 46.525107,
      "lng": 15.667885,
      "prices": {
        "95": 1.649,
        "dizel": 1.855,
        "98": null,
        "100": null,
        "dizel-premium": null,
        "avtoplin-lpg": 0.899,
        "KOEL": 1.464,
        "hvo": null,
        "cng": null,
        "lng": null
      },
      "distance": null,
      "direction": "Maribor Center",
      "open_hours": "Pon do Pet 7:00 - 20:00\r\nSob             8:00 - 13:00",
      "zip_code": "2000"
    },
    {
      "pk": 2299,
      "franchise": 16,
      "name": "Agas Slovenska Bistrica",
      "address": "Žolgarjeva ulica 25",
      "lat": 46.385204,
      "lng": 15.576529,
      "prices": {
        "95": 1.649,
        "dizel": 1.855,
        "98": null,
        "100": null,
        "dizel-premium": null,
        "avtoplin-lpg": 0.899,
        "KOEL": 1.464,
        "hvo": null,
        "cng": null,
        "lng": null
      },
      "distance": null,
      "direction": "Izvoz Slovenska Bistrica jug",
      "open_hours": "Pon do Pet 7:00 - 20:00\r\nSob             8:00 - 13:00",
      "zip_code": "2310"
    },
    {
      "pk": 2302,
      "franchise": 19,
      "name": "LOGO BENCINSKI SERVISI d.o.o. PE BREZOVICA",
      "address": "Tržaška cesta 358",
      "lat": 46.026026,
      "lng": 14.4284534,
      "prices": {
        "95": 1.649,
        "dizel": 1.855,
        "98": null,
        "100": null,
        "dizel-premium": null,
        "avtoplin-lpg": null,
        "KOEL": 1.464,
        "hvo": null,
        "cng": null,
        "lng": null
      },
      "distance": null,
      "direction": "",
      "open_hours": "6.00-22.30",
      "zip_code": "1351"
    },
    {
      "pk": 2303,
      "franchise": 19,
      "name": "Bencinski servis Tupaliče",
      "address": "Tupaliče 35a",
      "lat": 46.2955877,
      "lng": 14.4297645,
      "prices": {
        "95": 1.649,
        "dizel": 1.855,
        "98": null,
        "100": null,
        "dizel-premium": null,
        "avtoplin-lpg": null,
        "KOEL": 1.464,
        "hvo": null,
        "cng": null,
        "lng": null
      },
      "distance": null,
      "direction": "",
      "open_hours": "Vsak dan od 6.00-21.00\r\nNedelja od 7.00-22.00",
      "zip_code": "4205"
    },
    {
      "pk": 2304,
      "franchise": 19,
      "name": "Bencinski servis Velika Pirešica",
      "address": "Velika Pirešica 60",
      "lat": 46.28633117675781,
      "lng": 15.176063537597656,
      "prices": {
        "95": 1.649,
        "dizel": 1.855,
        "98": null,
        "100": 1.688,
        "dizel-premium": null,
        "avtoplin-lpg": null,
        "KOEL": 1.464,
        "hvo": null,
        "cng": null,
        "lng": null
      },
      "distance": null,
      "direction": "",
      "open_hours": "6.00-22.00",
      "zip_code": "3310"
    },
    {
      "pk": 2305,
      "franchise": 19,
      "name": "Bencinski servis Škofja Loka",
      "address": "Grenc 57",
      "lat": 46.1730598,
      "lng": 14.3212867,
      "prices": {
        "95": 1.649,
        "dizel": 1.855,
        "98": null,
        "100": null,
        "dizel-premium": null,
        "avtoplin-lpg": 0.89,
        "KOEL": 1.464,
        "hvo": null,
        "cng": null,
        "lng": null
      },
      "distance": null,
      "direction": "",
      "open_hours": "6.00-22.00",
      "zip_code": "4220"
    },
    {
      "pk": 2306,
      "franchise": 33,
      "name": "Bencinski servis Stella",
      "address": "Juršinci 81a",
      "lat": 46.4832476,
      "lng": 15.965107,
      "prices": {
        "95": 1.649,
        "dizel": 1.855,
        "98": null,
        "100": null,
        "dizel-premium": null,
        "avtoplin-lpg": null,
        "KOEL": 1.464,
        "hvo": null,
        "cng": null,
        "lng": null
      },
      "distance": null,
      "direction": "",
      "open_hours": "Vsak dan od 6.00 do 21.00\r\nNedelja 7.00 do 17.00",
      "zip_code": "2256"
    },
    {
      "pk": 2307,
      "franchise": 19,
      "name": "Bencinski servis Sodražica",
      "address": "cesta Notranjskega odreda 56",
      "lat": 45.76375961303711,
      "lng": 14.63137435913086,
      "prices": {
        "95": 1.649,
        "dizel": 1.855,
        "98": null,
        "100": null,
        "dizel-premium": null,
        "avtoplin-lpg": null,
        "KOEL": 1.464,
        "hvo": null,
        "cng": null,
        "lng": null
      },
      "distance": null,
      "direction": "",
      "open_hours": "5.30-22.00",
      "zip_code": "1317"
    },
    {
      "pk": 2315,
      "franchise": 21,
      "name": "Bencinski servis STRANICE",
      "address": "Osredek 33",
      "lat": 46.36054099833075,
      "lng": 15.385325730057207,
      "prices": {
        "95": 1.649,
        "dizel": 1.855,
        "98": null,
        "100": null,
        "dizel-premium": null,
        "avtoplin-lpg": null,
        "KOEL": 1.464,
        "hvo": null,
        "cng": null,
        "lng": null
      },
      "distance": null,
      "direction": "",
      "open_hours": "ponedeljek-sobota  6-22 ure\r\nnedelja in prazniki   7-22 ure",
      "zip_code": "3214"
    },
    {
      "pk": 2316,
      "franchise": 23,
      "name": "BS Žihlava",
      "address": "Žihlava 15",
      "lat": 46.55,
      "lng": 16.0396,
      "prices": {
        "95": 1.649,
        "dizel": 1.855,
        "98": null,
        "100": null,
        "dizel-premium": null,
        "avtoplin-lpg": null,
        "KOEL": null,
        "hvo": null,
        "cng": null,
        "lng": null
      },
      "distance": null,
      "direction": "Gornja Radgona - Ljutomer",
      "open_hours": "ponedeljek: 6.00 - 19.00\r\ntorek:          6.00 - 19.00\r\nsreda:          6.00 - 19.00\r\nčetrtek:        6.00 - 19.00\r\npetek:          6.00 - 19.00\r\nsobota:        6.00 - 19.00\r\nnedelja:       7.00 - 16.00\r\nprazniki:      7.00 - 16.00",
      "zip_code": "9244"
    },
    {
      "pk": 2317,
      "franchise": 23,
      "name": "BS Lemerje",
      "address": "Lemerje 2",
      "lat": 46.7094,
      "lng": 16.1102,
      "prices": {
        "95": 1.649,
        "dizel": 1.855,
        "98": null,
        "100": null,
        "dizel-premium": null,
        "avtoplin-lpg": null,
        "KOEL": null,
        "hvo": null,
        "cng": null,
        "lng": null
      },
      "distance": null,
      "direction": "Murska Sobota - Grad (Kuzma)",
      "open_hours": "ponedeljek: 6.00 - 19.00\r\ntorek:          6.00 - 19.00\r\nsreda:          6.00 - 19.00\r\nčetrtek:        6.00 - 19.00\r\npetek:          6.00 - 19.00\r\nsobota:        6.00 - 19.00\r\nnedelja:       7.00 - 16.00\r\nprazniki:      7.00 - 16.00",
      "zip_code": "9201"
    }
  ],
  "position": null
}
