{
  "count": 552,
  "next": "https://goriva.si/api/v1/search/?format=json&franchise=&name=&o=&page=8&position=&radius=",
  "previous": "https://goriva.si/api/v1/search/?format=json&franchise=&name=&o=&page=6&position=&radius=",
  "results": [
    {
      "pk": 1962,
      "franchise": 1,
      "name": "PETROL LENDAVA",
      "address": "KOLODVORSKA ULICA 8A",
      "lat": 46.55996722,
      "lng": 16.44790177,
      "prices": {
        "95": 1.433,
        "dizel": 1.449,
        "98": null,
        "100": 1.658,
        "dizel-premium": 1.604,
        "avtoplin-lpg": 0.819,
        "KOEL": 1.049,
        "hvo": null,
        "cng": null,
        "lng": null
      },
      "distance": null,
      "direction": "",
      "open_hours": "Ponedeljek, Torek, Sreda, Četrtek, Petek\n06:00-21:00\n\nSobota\n06:00-21:00\n\nNedelja, Praznik\n07:00-21:00\n",
      "zip_code": "9220"
    },
    {
      "pk": 1963,
      "franchise": 1,
      "name": "PETROL ROGAŠOVCI",
      "address": "SVETI JURIJ 7A",
      "lat": 46.798925,
      "lng": 16.03618722,
      "prices": {
        "95": 1.433,
        "dizel": 1.449,
        "98": null,
        "100": null,
        "dizel-premium": null,
        "avtoplin-lpg": null,
        "KOEL": 1.049,
        "hvo": null,
        "cng": null,
        "lng": null
      },
      "distance": null,
      "direction": "",
      "open_hours": "Ponedeljek, Torek, Sreda, Četrtek, Petek\n06:00-21:00\n\nSobota\n07:00-21:00\n\nNedelja, Praznik\n07:00-20:00\n",
      "zip_code": "9262"
    },
    {
      "pk": 1964,
      "franchise": 1,
      "name": "PETROL DOLNJI LAKOŠ",
      "address": "GLAVNA ULICA 3",
      "lat": 46.55372124,
      "lng": 16.44233518,
      "prices": {
        "95": 1.433,
        "dizel": 1.449,
        "98": null,
        "100": null,
        "dizel-premium": null,
        "avtoplin-lpg": null,
        "KOEL": 1.049,
        "hvo": null,
        "cng": null,
        "lng": null
      },
      "distance": null,
      "direction": "",
      "open_hours": "Ponedeljek, Torek, Sreda, Četrtek, Petek\n06:00-20:00\n\nSobota\n06:00-20:00\n\nNedelja, Praznik\n08:00-20:00\n",
      "zip_code": "9220"
    },
    {
      "pk": 1965,
      "franchise": 1,
      "name": "PETROL RADENCI",
      "address": "RADGONSKA CESTA 14",
      "lat": 46.64504675,
      "lng": 16.03435514,
      "prices": {
        "95": 1.433,
        "dizel": 1.449,
        "98": null,
        "100": null,
        "dizel-premium": null,
        "avtoplin-lpg": null,
        "KOEL": 1.049,
        "hvo": null,
        "cng": null,
        "lng": null
      },
      "distance": null,
      "direction": "",
      "open_hours": "Ponedeljek, Torek, Sreda, Četrtek, Petek\n06:00-19:00\n\nSobota\n07:00-19:00\n\nNedelja, Praznik\n08:30-12:00\n",
      "zip_code": "9252"
    },
    {
      "pk": 1966,
      "franchise": 1,
      "name": "PETROL BELTINCI",
      "address": "PANONSKA ULICA 2B",
      "lat": 46.6116377,
      "lng": 16.22745614,
      "prices": {
        "95": 1.433,
        "dizel": 1.449,
        "98": null,
        "100": 1.658,
        "dizel-premium": null,
        "avtoplin-lpg": null,
        "KOEL": 1.049,
        "hvo": null,
        "cng": null,
        "lng": null
      },
      "distance": null,
      "direction": "",
      "open_hours": "Ponedeljek, Torek, Sreda, Četrtek, Petek\n06:00-21:00\n\nSobota\n06:00-21:00\n\nNedelja, Praznik\n07:00-20:00\n",
      "zip_code": "9231"
    },
    {
      "pk": 1967,
      "franchise": 1,
      "name": "PETROL KRIŽEVCI",
      "address": "KLJUČAROVCI PRI LJUTOMERU 83",
      "lat": 46.55783512,
      "lng": 16.14313338,
      "prices": {
        "95": 1.433,
        "dizel": 1.449,
        "98": null,
        "100": null,
        "dizel-premium": null,
        "avtoplin-lpg": null,
        "KOEL": 1.049,
        "hvo": null,
        "cng": null,
        "lng": null
      },
      "distance": null,
      "direction": "",
      "open_hours": "Ponedeljek, Torek, Sreda, Četrtek, Petek\n06:00-19:00\n\nSobota\n07:00-19:00\n\nNedelja, Praznik\n08:00-11:30\n",
      "zip_code": "9242"
    },
    {
      "pk": 1968,
      "franchise": 1,
      "name": "PETROL DOBROVNIK",
      "address": "DOBROVNIK 4A",
      "lat": 46.65099893,
      "lng": 16.35338368,
      "prices": {
        "95": 1.433,
        "dizel": 1.449,
        "98": null,
        "100": null,
        "dizel-premium": null,
        "avtoplin-lpg": null,
        "KOEL": 1.049,
        "hvo": null,
        "cng": null,
        "lng": null
      },
      "distance": null,
      "direction": "",
      "open_hours": "Ponedeljek, Torek, Sreda, Četrtek, Petek\n07:00-19:00\n\nSobota\n07:00-19:00\n\nNedelja, Praznik\n08:30-12:00\n",
      "zip_code": "9223"
    },
    {
      "pk": 1969,
      "franchise": 1,
      "name": "PETROL ODRANCI",
      "address": "NASELJE GREDICE 1A",
      "lat": 46.58197141,
      "lng": 16.28224598,
      "prices": {
        "95": 1.433,
        "dizel": 1.449,
        "98": null,
        "100": 1.658,
        "dizel-premium": null,
        "avtoplin-lpg": null,
        "KOEL": 1.049,
        "hvo": null,
        "cng": null,
        "lng": null
      },
      "distance": null,
      "direction": "Maribor -> Madžarska",
      "open_hours": "Ponedeljek, Torek, Sreda, Četrtek, Petek\n06:00-21:00\n\nSobota\n07:00-21:00\n\nNedelja, Praznik\n08:00-19:00\n",
      "zip_code": "9233"
    },
    {
      "pk": 1970,
      "franchise": 1,
      "name": "PETROL GORNJA RADGONA - MELE",
      "address": "LJUTOMERSKA CESTA 36",
      "lat": 46.66198841,
      "lng": 16.01446177,
      "prices": {
        "95": 1.433,
        "dizel": 1.449,
        "98": null,
        "100": 1.658,
        "dizel-premium": null,
        "avtoplin-lpg": 0.819,
        "KOEL": 1.049,
        "hvo": null,
        "cng": null,
        "lng": null
      },
      "distance": null,
      "direction": "",
      "open_hours": "Ponedeljek, Torek, Sreda, Četrtek, Petek\n05:00-20:00\n\nSobota\n06:00-20:00\n\nNedelja, Praznik\n08:00-20:00\n",
      "zip_code": "9250"
    },
    {
      "pk": 1971,
      "franchise": 1,
      "name": "PETROL MARTJANCI",
      "address": "MARTJANCI 83B",
      "lat": 46.68760198,
      "lng": 16.19649434,
      "prices": {
        "95": 1.433,
        "dizel": 1.449,
        "98": null,
        "100": 1.658,
        "dizel-premium": null,
        "avtoplin-lpg": null,
        "KOEL": 1.049,
        "hvo": null,
        "cng": null,
        "lng": null
      },
      "distance": null,
      "direction": "",
      "open_hours": "Ponedeljek, Torek, Sreda, Četrtek, Petek\n06:00-20:00\n\nSobota\n06:00-20:00\n\nNedelja, Praznik\n08:00-19:30\n",
      "zip_code": "9221"
    },
    {
      "pk": 1973,
      "franchise": 1,
      "name": "PETROL GODOVIČ",
      "address": "GODOVIČ 2B",
      "lat": 45.95665729,
      "lng": 14.09433635,
      "prices": {
        "95": 1.433,
        "dizel": 1.449,
        "98": null,
        "100": null,
        "dizel-premium": null,
        "avtoplin-lpg": null,
        "KOEL": 1.049,
        "hvo": null,
        "cng": null,
        "lng": null
      },
      "distance": null,
      "direction": "",
      "open_hours": "Ponedeljek, Torek, Sreda, Četrtek, Petek\n07:00-10:00, 10:30-17:00, 17:30-19:00\n\nSobota\n07:00-10:00, 10:30-17:00, 17:30-19:00\n",
      "zip_code": "5275"
    },
    {
      "pk": 1974,
      "franchise": 1,
      "name": "PETROL CANKOVA",
      "address": "CANKOVA 35",
      "lat": 46.71906544,
      "lng": 16.02095244,
      "prices": {
        "95": 1.433,
        "dizel": 1.449,
        "98": null,
        "100": null,
        "dizel-premium": null,
        "avtoplin-lpg": null,
        "KOEL": 1.049,
        "hvo": null,
        "cng": null,
        "lng": null
      },
      "distance": null,
      "direction": "",
      "open_hours": "Ponedeljek, Torek, Sreda, Četrtek, Petek\n07:00-18:00\n\nSobota\n07:00-13:00\n",
      "zip_code": "9261"
    },
    {
      "pk": 1975,
      "franchise": 1,
      "name": "PETROL KUZMA",
      "address": "KUZMA 26B",
      "lat": 46.834052,
      "lng": 16.081947,
      "prices": {
        "95": 1.433,
        "dizel": 1.449,
        "98": null,
        "100": null,
        "dizel-premium": null,
        "avtoplin-lpg": null,
        "KOEL": 1.049,
        "hvo": null,
        "cng": null,
        "lng": null
      },
      "distance": null,
      "direction": "",
      "open_hours": "Ponedeljek, Torek, Sreda, Četrtek, Petek\n07:30-18:00\n\nSobota\n07:30-13:00\n",
      "zip_code": "9263"
    },
    {
      "pk": 1976,
      "franchise": 1,
      "name": "PETROL GRABONOŠ AC - SEVER",
      "address": "GRABONOŠ 4D",
      "lat": 46.585173,
      "lng": 16.007142,
      "prices": {
        "95": 1.433,
        "dizel": 1.449,
        "98": null,
        "100": 1.779,
        "dizel-premium": null,
        "avtoplin-lpg": 0.859,
        "KOEL": null,
        "hvo": null,
        "cng": null,
        "lng": null
      },
      "distance": null,
      "direction": "",
      "open_hours": "00:00-23:59\n",
      "zip_code": "9244"
    },
    {
      "pk": 1977,
      "franchise": 1,
      "name": "PETROL MARIBOR - AC ZAHOD",
      "address": "NA POLJU 24",
      "lat": 46.532935,
      "lng": 15.699297,
      "prices": {
        "95": 1.433,
        "dizel": 1.449,
        "98": null,
        "100": 1.779,
        "dizel-premium": 1.73,
        "avtoplin-lpg": 0.859,
        "KOEL": null,
        "hvo": null,
        "cng": null,
        "lng": null
      },
      "distance": null,
      "direction": "Maribor -> Ljubljana",
      "open_hours": "00:00-23:59\n",
      "zip_code": "2000"
    },
    {
      "pk": 1978,
      "franchise": 1,
      "name": "PETROL MARIBOR - AC VZHOD",
      "address": "NA POLJU 20",
      "lat": 46.531265,
      "lng": 15.701209,
      "prices": {
        "95": 1.433,
        "dizel": 1.449,
        "98": null,
        "100": 1.779,
        "dizel-premium": 1.73,
        "avtoplin-lpg": 0.859,
        "KOEL": null,
        "hvo": null,
        "cng": null,
        "lng": null
      },
      "distance": null,
      "direction": "Maribor -> Pince",
      "open_hours": "00:00-23:59\n",
      "zip_code": "2000"
    },
    {
      "pk": 1979,
      "franchise": 1,
      "name": "PETROL VUČJA VAS",
      "address": "BUČEČOVCI 4B",
      "lat": 46.590862,
      "lng": 16.107841,
      "prices": {
        "95": 1.433,
        "dizel": 1.449,
        "98": null,
        "100": 1.658,
        "dizel-premium": null,
        "avtoplin-lpg": null,
        "KOEL": 1.049,
        "hvo": null,
        "cng": null,
        "lng": null
      },
      "distance": null,
      "direction": "Maribor -> Pince",
      "open_hours": "Ponedeljek, Torek, Sreda, Četrtek, Petek\n06:00-22:00\n\nSobota\n06:00-22:00\n\nNedelja, Praznik\n07:00-21:00\n",
      "zip_code": "9242"
    },
    {
      "pk": 1980,
      "franchise": 1,
      "name": "PETROL DORNBERK",
      "address": "DRAGA 18A",
      "lat": 45.88507011,
      "lng": 13.73292985,
      "prices": {
        "95": 1.433,
        "dizel": 1.449,
        "98": null,
        "100": 1.658,
        "dizel-premium": null,
        "avtoplin-lpg": null,
        "KOEL": 1.049,
        "hvo": null,
        "cng": null,
        "lng": null
      },
      "distance": null,
      "direction": "",
      "open_hours": "Ponedeljek, Torek, Sreda, Četrtek, Petek\n07:00-20:00\n\nSobota\n07:00-20:00\n\nNedelja, Praznik\n08:00-19:00\n",
      "zip_code": "5294"
    },
    {
      "pk": 1981,
      "franchise": 1,
      "name": "PETROL NOVA GORICA - GRČNA",
      "address": "VOJKOVA CESTA 68",
      "lat": 45.95320889,
      "lng": 13.65237464,
      "prices": {
        "95": 1.433,
        "dizel": 1.449,
        "98": null,
        "100": 1.658,
        "dizel-premium": null,
        "avtoplin-lpg": null,
        "KOEL": null,
        "hvo": null,
        "cng": null,
        "lng": null
      },
      "distance": null,
      "direction": "",
      "open_hours": "Ponedeljek, Torek, Sreda, Četrtek, Petek\n06:00-21:00\n\nSobota\n07:00-21:00\n\nNedelja, Praznik\n08:00-21:00\n",
      "zip_code": "5000"
    },
    {
      "pk": 1982,
      "franchise": 1,
      "name": "PETROL AJDOVŠČINA - GORIŠKA",
      "address": "GORIŠKA CESTA 29",
      "lat": 45.88663093,
      "lng": 13.89897002,
      "prices": {
        "95": 1.433,
        "dizel": 1.449,
        "98": null,
        "100": null,
        "dizel-premium": null,
        "avtoplin-lpg": null,
        "KOEL": 1.049,
        "hvo": null,
        "cng": null,
        "lng": null
      },
      "distance": null,
      "direction": "",
      "open_hours": "Ponedeljek, Torek, Sreda, Četrtek, Petek\n06:00-20:00\n\nSobota\n06:00-20:00\n\nNedelja, Praznik\n08:00-19:00\n",
      "zip_code": "5270"
    },
    {
      "pk": 1983,
      "franchise": 1,
      "name": "PETROL GOLO BRDO V BRDIH",
      "address": "GOLO BRDO 10B",
      "lat": 46.054382,
      "lng": 13.497999,
      "prices": {
        "95": 1.433,
        "dizel": 1.449,
        "98": null,
        "100": null,
        "dizel-premium": null,
        "avtoplin-lpg": null,
        "KOEL": null,
        "hvo": null,
        "cng": null,
        "lng": null
      },
      "distance": null,
      "direction": "",
      "open_hours": "Ponedeljek, Torek, Sreda, Četrtek, Petek\n07:00-10:00, 10:30-17:00, 17:30-20:00\n\nSobota\n07:00-10:00, 10:30-17:00, 17:30-20:00\n\nNedelja, Praznik\n08:00-12:00, 12:45-20:00\n",
      "zip_code": "5212"
    },
    {
      "pk": 1984,
      "franchise": 1,
      "name": "PETROL NOVA GORICA - VOJKOVA ZAHOD",
      "address": "VOJKOVA CESTA 52",
      "lat": 45.96223076,
      "lng": 13.64898236,
      "prices": {
        "95": 1.433,
        "dizel": 1.449,
        "98": null,
        "100": 1.658,
        "dizel-premium": null,
        "avtoplin-lpg": null,
        "KOEL": null,
        "hvo": null,
        "cng": null,
        "lng": null
      },
      "distance": null,
      "direction": "",
      "open_hours": "Ponedeljek, Torek, Sreda, Četrtek, Petek\n07:00-20:00\n\nSobota\n07:00-20:00\n",
      "zip_code": "5000"
    },
    {
      "pk": 1985,
      "franchise": 1,
      "name": "PETROL ŠEMPAS",
      "address": "ŠEMPAS 161A",
      "lat": 45.93039187,
      "lng": 13.73978149,
      "prices": {
        "95": 1.433,
        "dizel": 1.449,
        "98": null,
        "100": null,
        "dizel-premium": null,
        "avtoplin-lpg": null,
        "KOEL": 1.049,
        "hvo": null,
        "cng": null,
        "lng": null
      },
      "distance": null,
      "direction": "",
      "open_hours": "Ponedeljek, Torek, Sreda, Četrtek, Petek\n07:00-10:00, 10:30-17:00, 17:30-19:00\n\nSobota\n08:00-10:00, 10:30-17:00, 17:30-19:00\n\nNedelja, Praznik\n08:00-12:00, 12:30-15:00\n",
      "zip_code": "5261"
    },
    {
      "pk": 1986,
      "franchise": 1,
      "name": "PETROL BOVEC",
      "address": "DVOR 44",
      "lat": 46.33279417,
      "lng": 13.54135681,
      "prices": {
        "95": 1.433,
        "dizel": 1.449,
        "98": null,
        "100": 1.658,
        "dizel-premium": null,
        "avtoplin-lpg": null,
        "KOEL": 1.049,
        "hvo": null,
        "cng": null,
        "lng": null
      },
      "distance": null,
      "direction": "",
      "open_hours": "Ponedeljek, Torek, Sreda, Četrtek, Petek\n07:00-20:00\n\nSobota\n07:00-20:00\n\nNedelja, Praznik\n07:00-18:00\n",
      "zip_code": "5230"
    },
    {
      "pk": 1987,
      "franchise": 1,
      "name": "PETROL ČRNI VRH",
      "address": "ČRNI VRH 121",
      "lat": 45.92556913,
      "lng": 14.05336933,
      "prices": {
        "95": 1.433,
        "dizel": 1.449,
        "98": null,
        "100": null,
        "dizel-premium": null,
        "avtoplin-lpg": null,
        "KOEL": 1.049,
        "hvo": null,
        "cng": null,
        "lng": null
      },
      "distance": null,
      "direction": "",
      "open_hours": "Ponedeljek\n07:00-12:00, 12:30-17:00\n\nTorek\n07:00-12:00, 12:30-17:00\n\nSreda\n07:00-12:00, 12:30-18:00\n\nČetrtek\n07:00-12:00, 12:30-17:00\n\nPetek\n07:00-12:00, 12:30-17:00\n\nSobota\n08:00-12:00, 12:30-16:00\n",
      "zip_code": "5274"
    }
  ],
  "position": null
}
