{
  "count": 552,
  "next": "https://goriva.si/api/v1/search/?format=json&franchise=&name=&o=&page=12&position=&radius=",
  "previous": "https://goriva.si/api/v1/search/?format=json&franchise=&name=&o=&page=10&position=&radius=",
  "results": [
    {
      "pk": 2065,
      "franchise": 1,
      "name": "PETROL LOGATEC",
      "address": "TRŽAŠKA CESTA 21",
      "lat": 45.91699729,
      "lng": 14.22441176,
      "prices": {
        "95": 1.384,
        "dizel": 1.404,
        "98": null,
        "100": 1.607,
        "dizel-premium": null,
        "avtoplin-lpg": null,
        "KOEL": 1.007,
        "hvo": null,
        "cng": null,
        "lng": null
      },
      "distance": null,
      "direction": "",
      "open_hours": "Začasno zaprto do 31. januar 2026",
      "zip_code": "1370"
    },
    {
      "pk": 2066,
      "franchise": 1,
      "name": "PETROL RADOVLJICA - KRANJSKA",
      "address": "KRANJSKA CESTA 20",
      "lat": 46.34605506,
      "lng": 14.1817862,
      "prices": {
        "95": 1.384,
        "dizel": 1.404,
        "98": null,
        "100": null,
        "dizel-premium": null,
        "avtoplin-lpg": null,
        "KOEL": 1.007,
        "hvo": null,
        "cng": null,
        "lng": null
      },
      "distance": null,
      "direction": "",
      "open_hours": "Ponedeljek, Torek, Sreda, Četrtek, Petek\n06:00-20:00\n\nSobota\n07:00-19:00\n\nNedelja, Praznik\n08:00-19:00\n",
      "zip_code": "4240"
    },
    {
      "pk": 2067,
      "franchise": 1,
      "name": "PETROL TRBOVLJE - TRG REVOLUCIJE",
      "address": "TRG REVOLUCIJE 8A",
      "lat": 46.14637991,
      "lng": 15.04055907,
      "prices": {
        "95": 1.384,
        "dizel": 1.404,
        "98": null,
        "100": 1.607,
        "dizel-premium": 1.563,
        "avtoplin-lpg": null,
        "KOEL": 1.007,
        "hvo": null,
        "cng": null,
        "lng": null
      },
      "distance": null,
      "direction": "",
      "open_hours": "Ponedeljek, Torek, Sreda, Četrtek, Petek\n06:00-22:00\n\nSobota\n07:00-22:00\n\nNedelja, Praznik\n07:00-21:00\n",
      "zip_code": "1420"
    },
    {
      "pk": 2068,
      "franchise": 1,
      "name": "PETROL TRŽIČ - VZHOD",
      "address": "CESTA STE MARIE AUX MINES 13A",
      "lat": 46.35376615,
      "lng": 14.2930683,
      "prices": {
        "95": 1.384,
        "dizel": 1.404,
        "98": null,
        "100": null,
        "dizel-premium": 1.563,
        "avtoplin-lpg": null,
        "KOEL": null,
        "hvo": null,
        "cng": null,
        "lng": null
      },
      "distance": null,
      "direction": "",
      "open_hours": "Ponedeljek, Torek, Sreda, Četrtek, Petek\n00:00-06:00, 06:00-21:00, 21:00-00:00\n\nSobota\n00:00-06:00, 06:00-21:00, 21:00-00:00\n\nNedelja, Praznik\n00:00-08:00, 08:00-19:30, 19:30-00:00\n",
      "zip_code": "4290"
    },
    {
      "pk": 2069,
      "franchise": 1,
      "name": "PETROL VRHNIKA - LJUBLJANSKA ZAHOD",
      "address": "LJUBLJANSKA CESTA 3",
      "lat": 45.968275,
      "lng": 14.299194,
      "prices": {
        "95": 1.384,
        "dizel": 1.404,
        "98": null,
        "100": 1.607,
        "dizel-premium": 1.563,
        "avtoplin-lpg": null,
        "KOEL": null,
        "hvo": null,
        "cng": null,
        "lng": null
      },
      "distance": null,
      "direction": "",
      "open_hours": "Ponedeljek, Torek, Sreda, Četrtek, Petek\n06:00-22:00\n\nSobota\n06:00-21:00\n\nNedelja, Praznik\n07:00-21:00\n",
      "zip_code": "1360"
    },
    {
      "pk": 2070,
      "franchise": 1,
      "name": "PETROL ZAGORJE OB SAVI",
      "address": "CESTA ZMAGE 51B",
      "lat": 46.1272492,
      "lng": 14.99353794,
      "prices": {
        "95": 1.384,
        "dizel": 1.404,
        "98": null,
        "100": 1.607,
        "dizel-premium": null,
        "avtoplin-lpg": null,
        "KOEL": 1.007,
        "hvo": null,
        "cng": null,
        "lng": null
      },
      "distance": null,
      "direction": "",
      "open_hours": "Ponedeljek, Torek, Sreda, Četrtek, Petek\n06:00-21:00\n\nSobota\n07:00-21:00\n\nNedelja, Praznik\n07:00-20:00\n",
      "zip_code": "1410"
    },
    {
      "pk": 2071,
      "franchise": 1,
      "name": "PETROL DOMŽALE - ČEŠMINOVA",
      "address": "ČEŠMINOVA ULICA 1",
      "lat": 46.146469,
      "lng": 14.599615,
      "prices": {
        "95": 1.384,
        "dizel": 1.404,
        "98": null,
        "100": 1.607,
        "dizel-premium": 1.563,
        "avtoplin-lpg": 0.849,
        "KOEL": 1.007,
        "hvo": null,
        "cng": null,
        "lng": null
      },
      "distance": null,
      "direction": "Maribor -> Ljubljana",
      "open_hours": "00:00-23:59\n",
      "zip_code": "1230"
    },
    {
      "pk": 2072,
      "franchise": 1,
      "name": "PETROL MENGEŠ - SLOVENSKA",
      "address": "SLOVENSKA CESTA 83",
      "lat": 46.157861,
      "lng": 14.569698,
      "prices": {
        "95": 1.384,
        "dizel": 1.404,
        "98": null,
        "100": null,
        "dizel-premium": null,
        "avtoplin-lpg": null,
        "KOEL": 1.007,
        "hvo": null,
        "cng": null,
        "lng": null
      },
      "distance": null,
      "direction": "",
      "open_hours": "Ponedeljek, Torek, Sreda, Četrtek, Petek\n06:30-19:00\n\nSobota\n07:00-18:00\n\nNedelja, Praznik\n08:00-18:00\n",
      "zip_code": "1234"
    },
    {
      "pk": 2073,
      "franchise": 1,
      "name": "PETROL RATEČE",
      "address": "RATEČE 88A",
      "lat": 46.497066,
      "lng": 13.708622,
      "prices": {
        "95": 1.384,
        "dizel": 1.404,
        "98": null,
        "100": 1.607,
        "dizel-premium": null,
        "avtoplin-lpg": null,
        "KOEL": 1.007,
        "hvo": null,
        "cng": null,
        "lng": null
      },
      "distance": null,
      "direction": "",
      "open_hours": "Ponedeljek, Torek, Sreda, Četrtek, Petek\n08:00-20:00\n\nSobota\n08:00-18:00\n\nNedelja, Praznik\n08:00-19:00\n",
      "zip_code": "4283"
    },
    {
      "pk": 2074,
      "franchise": 1,
      "name": "PETROL KRANJ - LABORE",
      "address": "LJUBLJANSKA CESTA 23",
      "lat": 46.229097,
      "lng": 14.354692,
      "prices": {
        "95": 1.384,
        "dizel": 1.404,
        "98": null,
        "100": 1.607,
        "dizel-premium": null,
        "avtoplin-lpg": 0.849,
        "KOEL": 1.007,
        "hvo": null,
        "cng": null,
        "lng": null
      },
      "distance": null,
      "direction": "",
      "open_hours": "Ponedeljek, Torek, Sreda, Četrtek, Petek\n06:00-22:00\n\nSobota\n07:00-21:00\n\nNedelja, Praznik\n08:00-20:00\n",
      "zip_code": "4000"
    },
    {
      "pk": 2075,
      "franchise": 1,
      "name": "PETROL ZGORNJE JEZERSKO",
      "address": "ZGORNJE JEZERSKO 65A",
      "lat": 46.39459922,
      "lng": 14.50096885,
      "prices": {
        "95": 1.384,
        "dizel": 1.404,
        "98": null,
        "100": null,
        "dizel-premium": null,
        "avtoplin-lpg": null,
        "KOEL": 1.007,
        "hvo": null,
        "cng": null,
        "lng": null
      },
      "distance": null,
      "direction": "",
      "open_hours": "09:00-12:30, 13:00-17:00\n",
      "zip_code": "4206"
    },
    {
      "pk": 2076,
      "franchise": 1,
      "name": "PETROL ŽELEZNIKI",
      "address": "ČEŠNJICA 55",
      "lat": 46.22626724,
      "lng": 14.17252414,
      "prices": {
        "95": 1.384,
        "dizel": 1.404,
        "98": null,
        "100": null,
        "dizel-premium": null,
        "avtoplin-lpg": null,
        "KOEL": 1.007,
        "hvo": null,
        "cng": null,
        "lng": null
      },
      "distance": null,
      "direction": "",
      "open_hours": "Ponedeljek, Torek, Sreda, Četrtek, Petek\n06:00-19:00\n\nSobota\n06:00-19:00\n\nNedelja, Praznik\n07:00-12:15, 13:00-19:00\n",
      "zip_code": "4228"
    },
    {
      "pk": 2077,
      "franchise": 1,
      "name": "PETROL KRANJ - ZLATO POLJE VZHOD",
      "address": "KOROŠKA CESTA 18A",
      "lat": 46.24951232,
      "lng": 14.3478394,
      "prices": {
        "95": 1.384,
        "dizel": 1.404,
        "98": null,
        "100": null,
        "dizel-premium": null,
        "avtoplin-lpg": null,
        "KOEL": 1.007,
        "hvo": null,
        "cng": null,
        "lng": null
      },
      "distance": null,
      "direction": "",
      "open_hours": "Ponedeljek, Torek, Sreda, Četrtek, Petek\n06:00-18:00\n\nSobota\n09:00-13:00\n\nNedelja, Praznik\n09:00-13:00\n",
      "zip_code": "4000"
    },
    {
      "pk": 2078,
      "franchise": 1,
      "name": "PETROL JESENICE - MARŠALA TITA",
      "address": "CESTA MARŠALA TITA 113",
      "lat": 46.44194598,
      "lng": 14.03643803,
      "prices": {
        "95": 1.384,
        "dizel": 1.404,
        "98": null,
        "100": null,
        "dizel-premium": null,
        "avtoplin-lpg": null,
        "KOEL": 1.007,
        "hvo": null,
        "cng": null,
        "lng": null
      },
      "distance": null,
      "direction": "",
      "open_hours": "Ponedeljek, Torek, Sreda, Četrtek, Petek\n06:00-20:00\n\nSobota\n07:00-20:00\n\nNedelja, Praznik\n08:00-19:00\n",
      "zip_code": "4270"
    },
    {
      "pk": 2079,
      "franchise": 1,
      "name": "PETROL CERKLJE NA GORENJSKEM",
      "address": "SLOVENSKA CESTA 52",
      "lat": 46.247136,
      "lng": 14.485884,
      "prices": {
        "95": 1.384,
        "dizel": 1.404,
        "98": null,
        "100": null,
        "dizel-premium": null,
        "avtoplin-lpg": null,
        "KOEL": 1.007,
        "hvo": null,
        "cng": null,
        "lng": null
      },
      "distance": null,
      "direction": "",
      "open_hours": "Ponedeljek, Torek, Sreda, Četrtek, Petek\n07:00-19:00\n\nSobota\n08:00-16:00\n",
      "zip_code": "4207"
    },
    {
      "pk": 2080,
      "franchise": 1,
      "name": "PETROL ŠKOFJA LOKA - TRATA",
      "address": "KIDRIČEVA CESTA 57A",
      "lat": 46.17302892,
      "lng": 14.33101817,
      "prices": {
        "95": 1.384,
        "dizel": 1.404,
        "98": null,
        "100": 1.607,
        "dizel-premium": null,
        "avtoplin-lpg": 0.849,
        "KOEL": 1.007,
        "hvo": null,
        "cng": null,
        "lng": null
      },
      "distance": null,
      "direction": "",
      "open_hours": "Ponedeljek, Torek, Sreda, Četrtek, Petek\n06:00-20:00\n\nSobota\n07:00-14:00\n",
      "zip_code": "4220"
    },
    {
      "pk": 2082,
      "franchise": 1,
      "name": "PETROL KAMNIK - LJUBLJANSKA",
      "address": "LJUBLJANSKA CESTA 10A",
      "lat": 46.21205029,
      "lng": 14.59993502,
      "prices": {
        "95": 1.384,
        "dizel": 1.404,
        "98": null,
        "100": 1.607,
        "dizel-premium": null,
        "avtoplin-lpg": null,
        "KOEL": 1.007,
        "hvo": null,
        "cng": null,
        "lng": null
      },
      "distance": null,
      "direction": "",
      "open_hours": "Ponedeljek, Torek, Sreda, Četrtek, Petek\n06:00-21:00\n\nSobota\n07:00-21:00\n\nNedelja, Praznik\n08:00-19:30\n",
      "zip_code": "1241"
    },
    {
      "pk": 2083,
      "franchise": 1,
      "name": "PETROL RADOVLJICA - GORENJSKA",
      "address": "GORENJSKA CESTA 41A",
      "lat": 46.34844567,
      "lng": 14.16883456,
      "prices": {
        "95": 1.384,
        "dizel": 1.404,
        "98": null,
        "100": null,
        "dizel-premium": null,
        "avtoplin-lpg": 0.849,
        "KOEL": 1.007,
        "hvo": null,
        "cng": null,
        "lng": null
      },
      "distance": null,
      "direction": "",
      "open_hours": "Ponedeljek, Torek, Sreda, Četrtek, Petek\n07:00-20:00\n\nSobota\n07:00-09:30, 10:00-16:00, 16:30-20:00\n",
      "zip_code": "4240"
    },
    {
      "pk": 2084,
      "franchise": 1,
      "name": "PETROL KRANJ - STANETA ŽAGARJA 58B",
      "address": "CESTA STANETA ŽAGARJA 58B",
      "lat": 46.24334118,
      "lng": 14.36914271,
      "prices": {
        "95": 1.384,
        "dizel": 1.404,
        "98": null,
        "100": 1.607,
        "dizel-premium": 1.563,
        "avtoplin-lpg": null,
        "KOEL": 1.007,
        "hvo": null,
        "cng": null,
        "lng": null
      },
      "distance": null,
      "direction": "",
      "open_hours": "Ponedeljek, Torek, Sreda, Četrtek, Petek\n07:00-19:00\n\nSobota\n08:00-13:00\n",
      "zip_code": "4000"
    },
    {
      "pk": 2085,
      "franchise": 1,
      "name": "PETROL PODKOREN",
      "address": "PODKOREN 1A",
      "lat": 46.4896618,
      "lng": 13.76471293,
      "prices": {
        "95": 1.384,
        "dizel": 1.404,
        "98": null,
        "100": null,
        "dizel-premium": null,
        "avtoplin-lpg": null,
        "KOEL": null,
        "hvo": null,
        "cng": null,
        "lng": null
      },
      "distance": null,
      "direction": "",
      "open_hours": "Ponedeljek, Torek, Sreda, Četrtek, Petek\n08:00-11:30, 12:00-14:00\n",
      "zip_code": "4280"
    },
    {
      "pk": 2086,
      "franchise": 1,
      "name": "PETROL NAKLO",
      "address": "KRANJSKA CESTA 4",
      "lat": 46.27058563,
      "lng": 14.31367281,
      "prices": {
        "95": 1.384,
        "dizel": 1.404,
        "98": null,
        "100": null,
        "dizel-premium": null,
        "avtoplin-lpg": null,
        "KOEL": 1.007,
        "hvo": null,
        "cng": null,
        "lng": null
      },
      "distance": null,
      "direction": "",
      "open_hours": "Ponedeljek, Torek, Sreda, Četrtek, Petek\n06:00-20:00\n\nSobota\n07:00-14:00\n",
      "zip_code": "4202"
    },
    {
      "pk": 2087,
      "franchise": 1,
      "name": "PETROL MORAVČE",
      "address": "PARTIZANSKA CESTA 18",
      "lat": 46.13700902,
      "lng": 14.74115067,
      "prices": {
        "95": 1.384,
        "dizel": 1.404,
        "98": null,
        "100": null,
        "dizel-premium": null,
        "avtoplin-lpg": null,
        "KOEL": 1.007,
        "hvo": null,
        "cng": null,
        "lng": null
      },
      "distance": null,
      "direction": "",
      "open_hours": "Ponedeljek, Torek, Sreda, Četrtek, Petek\n06:00-09:30, 09:55-16:00, 16:20-19:00\n\nSobota\n07:00-12:30, 13:00-18:00\n\nNedelja, Praznik\n08:00-11:40, 12:00-13:00\n",
      "zip_code": "1251"
    },
    {
      "pk": 2088,
      "franchise": 1,
      "name": "PETROL LOM AC - ZAHOD",
      "address": "NOTRANJSKA CESTA 75",
      "lat": 45.898796,
      "lng": 14.254887,
      "prices": {
        "95": 1.384,
        "dizel": 1.404,
        "98": null,
        "100": 1.728,
        "dizel-premium": 1.689,
        "avtoplin-lpg": 0.879,
        "KOEL": null,
        "hvo": null,
        "cng": null,
        "lng": null
      },
      "distance": null,
      "direction": "Ljubljana -> Koper",
      "open_hours": "00:00-23:59\n",
      "zip_code": "1370"
    },
    {
      "pk": 2089,
      "franchise": 1,
      "name": "PETROL LOM AC - VZHOD",
      "address": "NOTRANJSKA CESTA 77",
      "lat": 45.89814,
      "lng": 14.256533,
      "prices": {
        "95": 1.384,
        "dizel": 1.404,
        "98": null,
        "100": 1.728,
        "dizel-premium": 1.689,
        "avtoplin-lpg": 0.879,
        "KOEL": null,
        "hvo": null,
        "cng": null,
        "lng": null
      },
      "distance": null,
      "direction": "Koper -> Ljubljana",
      "open_hours": "00:00-23:59\n",
      "zip_code": "1370"
    },
    {
      "pk": 2090,
      "franchise": 1,
      "name": "PETROL BLAGOVICA",
      "address": "BLAGOVICA 30",
      "lat": 46.17650516,
      "lng": 14.80743334,
      "prices": {
        "95": 1.384,
        "dizel": 1.404,
        "98": null,
        "100": 1.607,
        "dizel-premium": null,
        "avtoplin-lpg": null,
        "KOEL": 1.007,
        "hvo": null,
        "cng": null,
        "lng": null
      },
      "distance": null,
      "direction": "",
      "open_hours": "Ponedeljek\n09:00-12:00, 12:30-16:00\n\nTorek\n09:00-12:00, 12:30-16:00\n\nSreda\n09:00-12:00, 12:30-18:00\n\nČetrtek\n09:00-12:00, 12:30-16:00\n\nPetek\n09:00-12:00, 12:30-16:00\n\nSobota\n08:00-10:00, 10:30-13:00\n",
      "zip_code": "1223"
    }
  ],
  "position": null
}
