{
  "count": 553,
  "next": "https://goriva.si/api/v1/search/?format=json&franchise=&name=&o=&page=16&position=&radius=",
  "previous": "https://goriva.si/api/v1/search/?format=json&franchise=&name=&o=&page=14&position=&radius=",
  "results": [
    {
      "pk": 2370,
      "franchise": 5,
      "name": "STOJNCI",
      "address": "Stojnci 24",
      "lat": 46.38048175449777,
      "lng": 15.972530744906699,
      "prices": {
        "95": 1.445,
        "dizel": 1.455,
        "98": null,
        "100": 1.739,
        "dizel-premium": null,
        "avtoplin-lpg": null,
        "KOEL": null,
        "hvo": null,
        "cng": null
      },
      "distance": null,
      "direction": "",
      "open_hours": "",
      "zip_code": "2281"
    },
    {
      "pk": 2371,
      "franchise": 5,
      "name": "AJŠEVICA",
      "address": "Loke 40",
      "lat": 45.953170561531195,
      "lng": 13.691872647114305,
      "prices": {
        "95": 1.445,
        "dizel": 1.455,
        "98": null,
        "100": 1.739,
        "dizel-premium": null,
        "avtoplin-lpg": null,
        "KOEL": null,
        "hvo": null,
        "cng": null
      },
      "distance": null,
      "direction": "",
      "open_hours": "",
      "zip_code": "5000"
    },
    {
      "pk": 2372,
      "franchise": 5,
      "name": "ZG. POLSKAVA",
      "address": "Bukovec 1b",
      "lat": 46.43088480445796,
      "lng": 15.627126931204163,
      "prices": {
        "95": 1.445,
        "dizel": 1.455,
        "98": null,
        "100": 1.739,
        "dizel-premium": null,
        "avtoplin-lpg": null,
        "KOEL": null,
        "hvo": null,
        "cng": null
      },
      "distance": null,
      "direction": "",
      "open_hours": "",
      "zip_code": "2314"
    },
    {
      "pk": 2296,
      "franchise": 15,
      "name": "DISCONT OiL - BS Maribor",
      "address": "Tržaška cesta 35",
      "lat": 46.529195,
      "lng": 15.646512,
      "prices": {
        "95": 1.469,
        "dizel": 1.439,
        "98": null,
        "100": 1.709,
        "dizel-premium": null,
        "avtoplin-lpg": 0.769,
        "KOEL": null,
        "hvo": null,
        "cng": null
      },
      "distance": null,
      "direction": "",
      "open_hours": "Odpiralni čas:\r\nPonedeljek - petek: 07:00 - 20:00\r\nSobota: 07:00 - 19:00\r\nNedelja in prazniki: 08:00 - 13:00",
      "zip_code": "2000"
    },
    {
      "pk": 769,
      "franchise": 4,
      "name": "BS MOL BRESTOVICA",
      "address": "Brestovica 116b",
      "lat": 45.81302,
      "lng": 13.62228,
      "prices": {
        "95": 1.473,
        "dizel": 1.463,
        "98": null,
        "100": null,
        "dizel-premium": null,
        "avtoplin-lpg": null,
        "KOEL": null,
        "hvo": null,
        "cng": null
      },
      "distance": null,
      "direction": "",
      "open_hours": "Okt-Mar: Pon-Ned 07:00-19:00; Apr-Sep: Pon-Ned 07:00-20:00",
      "zip_code": "6223"
    },
    {
      "pk": 773,
      "franchise": 4,
      "name": "BS MOL CELJE MARIBORSKA JUG",
      "address": "Mariborska c. 84",
      "lat": 46.23923,
      "lng": 15.27456,
      "prices": {
        "95": 1.473,
        "dizel": 1.463,
        "98": null,
        "100": 1.74,
        "dizel-premium": 1.685,
        "avtoplin-lpg": null,
        "KOEL": 1.099,
        "hvo": null,
        "cng": null
      },
      "distance": null,
      "direction": "",
      "open_hours": "Sep-Maj: Pon-Ned 05:00-22:00; Jun-Avg: Pon-Ned 05:00-23:00",
      "zip_code": "3000"
    },
    {
      "pk": 776,
      "franchise": 4,
      "name": "BS MOL DIVAČA",
      "address": "Kolodvorska 1",
      "lat": 45.681494,
      "lng": 13.968687,
      "prices": {
        "95": 1.473,
        "dizel": 1.463,
        "98": null,
        "100": 1.74,
        "dizel-premium": 1.685,
        "avtoplin-lpg": null,
        "KOEL": 1.099,
        "hvo": null,
        "cng": null
      },
      "distance": null,
      "direction": "",
      "open_hours": "Okt-Maj: Pon-Sob 06:00-20:00, Ned/Praz. zaprto; Jun-Sep: Pon-Sob 06:00-21:00, Ned/Praz. 9-18",
      "zip_code": "6215"
    },
    {
      "pk": 779,
      "franchise": 4,
      "name": "BS MOL DOL PRI LJUBLJANI",
      "address": "Podgora pri Dolskem 40",
      "lat": 46.090168,
      "lng": 14.650805,
      "prices": {
        "95": 1.473,
        "dizel": 1.463,
        "98": null,
        "100": 1.74,
        "dizel-premium": 1.685,
        "avtoplin-lpg": null,
        "KOEL": 1.099,
        "hvo": null,
        "cng": null
      },
      "distance": null,
      "direction": "",
      "open_hours": "Pon-Ned 05:00-22:00",
      "zip_code": "1262"
    },
    {
      "pk": 780,
      "franchise": 4,
      "name": "BS MOL DRAVOGRAD",
      "address": "Koroška c. 49",
      "lat": 46.59033,
      "lng": 15.01542,
      "prices": {
        "95": 1.473,
        "dizel": 1.463,
        "98": null,
        "100": 1.74,
        "dizel-premium": 1.685,
        "avtoplin-lpg": null,
        "KOEL": 1.099,
        "hvo": null,
        "cng": null
      },
      "distance": null,
      "direction": "",
      "open_hours": "Okt-Maj: Pon-Ned 06:00-20:00; Jun-Sep: Pon-Sob 06:00-21:00, Ned/Praz 07:00-20:00",
      "zip_code": "2370"
    },
    {
      "pk": 794,
      "franchise": 4,
      "name": "BS MOL GRAČIŠČE",
      "address": "Gračišče 4a",
      "lat": 45.501301,
      "lng": 13.873635,
      "prices": {
        "95": 1.473,
        "dizel": 1.463,
        "98": null,
        "100": 1.74,
        "dizel-premium": 1.685,
        "avtoplin-lpg": null,
        "KOEL": null,
        "hvo": null,
        "cng": null
      },
      "distance": null,
      "direction": "",
      "open_hours": "Okt-Mar: Pon-Sob 07:00-19:00, Ned/Praz 08:00-19:00; Apr-Maj: Pon-Ned 07:00-20:00; Jun-Sep: Pon-Ned 07:00-21:00",
      "zip_code": "6272"
    },
    {
      "pk": 797,
      "franchise": 4,
      "name": "BS MOL ILIRSKA BISTRICA",
      "address": "Bazoviška 45",
      "lat": 45.559604,
      "lng": 14.244346,
      "prices": {
        "95": 1.473,
        "dizel": 1.463,
        "98": null,
        "100": 1.74,
        "dizel-premium": 1.685,
        "avtoplin-lpg": null,
        "KOEL": 1.099,
        "hvo": null,
        "cng": null
      },
      "distance": null,
      "direction": "",
      "open_hours": "Sep-Jun: Pon-Ned 05:00-22:00; Jul-Avg: Pon-Ned 00:00-24:00",
      "zip_code": "6250"
    },
    {
      "pk": 800,
      "franchise": 4,
      "name": "BS MOL KAMNIK",
      "address": "Perovo 32",
      "lat": 46.208865,
      "lng": 14.606844,
      "prices": {
        "95": 1.473,
        "dizel": 1.463,
        "98": null,
        "100": 1.74,
        "dizel-premium": 1.685,
        "avtoplin-lpg": null,
        "KOEL": null,
        "hvo": null,
        "cng": null
      },
      "distance": null,
      "direction": "",
      "open_hours": "Pon-Ned 05:00-22:00",
      "zip_code": "1240"
    },
    {
      "pk": 806,
      "franchise": 4,
      "name": "BS MOL KOPER ANKARANSKA",
      "address": "Ankaranska c. 5d",
      "lat": 45.545957,
      "lng": 13.742681,
      "prices": {
        "95": 1.473,
        "dizel": 1.463,
        "98": null,
        "100": 1.74,
        "dizel-premium": 1.685,
        "avtoplin-lpg": null,
        "KOEL": null,
        "hvo": null,
        "cng": null
      },
      "distance": null,
      "direction": "",
      "open_hours": "Pon-Sob 06:00-22:00, Ned/Praz. 8-20",
      "zip_code": "6000"
    },
    {
      "pk": 807,
      "franchise": 4,
      "name": "BS MOL KOPER ŠMARSKA",
      "address": "Šmarska c. 4a",
      "lat": 45.530207,
      "lng": 13.734777,
      "prices": {
        "95": 1.473,
        "dizel": 1.463,
        "98": null,
        "100": 1.74,
        "dizel-premium": 1.685,
        "avtoplin-lpg": null,
        "KOEL": 1.099,
        "hvo": null,
        "cng": null
      },
      "distance": null,
      "direction": "",
      "open_hours": "Okt-Maj: Pon-Ned 06:00-22:00; Jun-Sep: Pon-Čet 06:00-22:00, Pet-Ned 06:00-24:00",
      "zip_code": "6000"
    },
    {
      "pk": 808,
      "franchise": 4,
      "name": "BS MOL KOZINA",
      "address": "Mestni trg 7",
      "lat": 45.60807,
      "lng": 13.93501,
      "prices": {
        "95": 1.473,
        "dizel": 1.463,
        "98": null,
        "100": 1.74,
        "dizel-premium": 1.685,
        "avtoplin-lpg": null,
        "KOEL": null,
        "hvo": null,
        "cng": null
      },
      "distance": null,
      "direction": "",
      "open_hours": "Pon-Ned 00:00-24:00",
      "zip_code": "6240"
    },
    {
      "pk": 809,
      "franchise": 4,
      "name": "BS MOL KRANJ PRIMSKOVO",
      "address": "Cesta Staneta Žagarja 53c",
      "lat": 46.24277,
      "lng": 14.371453,
      "prices": {
        "95": 1.473,
        "dizel": 1.463,
        "98": null,
        "100": 1.74,
        "dizel-premium": 1.685,
        "avtoplin-lpg": null,
        "KOEL": null,
        "hvo": null,
        "cng": null
      },
      "distance": null,
      "direction": "",
      "open_hours": "Pon-Ned 06:00-22:00",
      "zip_code": "4000"
    },
    {
      "pk": 811,
      "franchise": 4,
      "name": "BS MOL KRVAVI POTOK",
      "address": "Krvavi potok 1",
      "lat": 45.61885,
      "lng": 13.910126,
      "prices": {
        "95": 1.473,
        "dizel": 1.463,
        "98": null,
        "100": 1.74,
        "dizel-premium": 1.685,
        "avtoplin-lpg": null,
        "KOEL": null,
        "hvo": null,
        "cng": null
      },
      "distance": null,
      "direction": "Trst",
      "open_hours": "Okt-Maj: Pon-Sob 07:00-21:00, Ned/Praz. zaprto; Jun-Sep: Pon-Ned 06:00-22:00",
      "zip_code": "6240"
    },
    {
      "pk": 812,
      "franchise": 4,
      "name": "BS MOL LAZARET",
      "address": "Jadranska c. 1",
      "lat": 45.59283,
      "lng": 13.72411,
      "prices": {
        "95": 1.473,
        "dizel": 1.463,
        "98": null,
        "100": 1.74,
        "dizel-premium": 1.685,
        "avtoplin-lpg": null,
        "KOEL": null,
        "hvo": null,
        "cng": null
      },
      "distance": null,
      "direction": "Koper",
      "open_hours": "Okt-Mar: Pon-Ned 07:00-20:00; Apr-Maj: Pon-Ned 07:00-21:00; Jun-Sep: Pon-Ned 07:00-22:00",
      "zip_code": "6280"
    },
    {
      "pk": 813,
      "franchise": 4,
      "name": "BS MOL LESCE",
      "address": "Hraška c. 17",
      "lat": 46.365369,
      "lng": 14.16032,
      "prices": {
        "95": 1.473,
        "dizel": 1.463,
        "98": null,
        "100": 1.74,
        "dizel-premium": null,
        "avtoplin-lpg": null,
        "KOEL": null,
        "hvo": null,
        "cng": null
      },
      "distance": null,
      "direction": "",
      "open_hours": "Pon-Ned 06:00-22:00",
      "zip_code": "4248"
    },
    {
      "pk": 814,
      "franchise": 4,
      "name": "BS MOL LIPOVCI",
      "address": "Lipovci 243b",
      "lat": 46.625125,
      "lng": 16.214332,
      "prices": {
        "95": 1.473,
        "dizel": 1.463,
        "98": null,
        "100": 1.74,
        "dizel-premium": null,
        "avtoplin-lpg": null,
        "KOEL": 1.099,
        "hvo": null,
        "cng": null
      },
      "distance": null,
      "direction": "",
      "open_hours": "Pon-Ned 05:00-22:00",
      "zip_code": "9231"
    },
    {
      "pk": 815,
      "franchise": 4,
      "name": "BS MOL LITIJA",
      "address": "Zasavska c. 1",
      "lat": 46.058713,
      "lng": 14.832858,
      "prices": {
        "95": 1.473,
        "dizel": 1.463,
        "98": null,
        "100": 1.74,
        "dizel-premium": 1.685,
        "avtoplin-lpg": null,
        "KOEL": 1.099,
        "hvo": null,
        "cng": null
      },
      "distance": null,
      "direction": "",
      "open_hours": "Pon-Sob 05:00-22:00, Ned/Praz 07:00-22:00",
      "zip_code": "1270"
    },
    {
      "pk": 816,
      "franchise": 4,
      "name": "BS MOL LJUBLJANA LETALIŠKA",
      "address": "Letališka c. 33b",
      "lat": 46.062474,
      "lng": 14.570349,
      "prices": {
        "95": 1.473,
        "dizel": 1.463,
        "98": null,
        "100": 1.74,
        "dizel-premium": 1.685,
        "avtoplin-lpg": null,
        "KOEL": null,
        "hvo": null,
        "cng": null
      },
      "distance": null,
      "direction": "",
      "open_hours": "Pon-Pet 06:00-22:00, Sob 08:00-20:00, Ned/Praz. zaprto",
      "zip_code": "1000"
    },
    {
      "pk": 817,
      "franchise": 4,
      "name": "BS MOL LJUBLJANA LITIJSKA",
      "address": "Litijska c. 40",
      "lat": 46.047401,
      "lng": 14.546097,
      "prices": {
        "95": 1.473,
        "dizel": 1.463,
        "98": null,
        "100": 1.74,
        "dizel-premium": 1.685,
        "avtoplin-lpg": null,
        "KOEL": null,
        "hvo": null,
        "cng": null
      },
      "distance": null,
      "direction": "",
      "open_hours": "Pon-Ned 06:00-22:00",
      "zip_code": "1000"
    },
    {
      "pk": 818,
      "franchise": 2,
      "name": "BS MOL LJUBLJANA CELOVŠKA",
      "address": "Celovška c. 455",
      "lat": 46.09891,
      "lng": 14.460958,
      "prices": {
        "95": 1.473,
        "dizel": 1.463,
        "98": null,
        "100": 1.74,
        "dizel-premium": null,
        "avtoplin-lpg": null,
        "KOEL": null,
        "hvo": null,
        "cng": null
      },
      "distance": null,
      "direction": "",
      "open_hours": "Pon-Ned 00:00-24:00",
      "zip_code": "1210"
    },
    {
      "pk": 824,
      "franchise": 4,
      "name": "BS MOL MARINA PORTOROŽ",
      "address": "Seča 188",
      "lat": 45.50526,
      "lng": 13.59658,
      "prices": {
        "95": 1.473,
        "dizel": 1.463,
        "98": null,
        "100": 1.74,
        "dizel-premium": 1.685,
        "avtoplin-lpg": null,
        "KOEL": null,
        "hvo": null,
        "cng": null
      },
      "distance": null,
      "direction": "",
      "open_hours": "Okt-Maj: na klic ; Jun-Sep: Pon-Ned 09:00-19:00 (zaprto od 13:00-14:00)",
      "zip_code": "6320"
    }
  ],
  "position": null
}
