{
  "count": 551,
  "next": "https://goriva.si/api/v1/search/?format=json&franchise=&name=&o=&page=19&position=&radius=",
  "previous": "https://goriva.si/api/v1/search/?format=json&franchise=&name=&o=&page=17&position=&radius=",
  "results": [
    {
      "pk": 1564,
      "franchise": 2,
      "name": "BS MOL HOČE",
      "address": "MIKLAVŠKA CESTA 80",
      "lat": 46.5005164,
      "lng": 15.6550055,
      "prices": {
        "95": 1.592,
        "dizel": 1.718,
        "98": null,
        "100": 1.863,
        "dizel-premium": 1.889,
        "avtoplin-lpg": null,
        "KOEL": null,
        "hvo": null,
        "cng": null,
        "lng": null
      },
      "distance": null,
      "direction": "",
      "open_hours": "Ponedeljek, Torek, Sreda, Četrtek, Petek, Sobota\n06:00-22:00\n\nNedelja\n07:00-22:00\n\nPraznik\n08:00-20:00\n",
      "zip_code": "2311"
    },
    {
      "pk": 1567,
      "franchise": 2,
      "name": "BS MOL SELNICA OB DRAVI",
      "address": "MARIBORSKA CESTA 10 C",
      "lat": 46.5523428,
      "lng": 15.4977882,
      "prices": {
        "95": 1.592,
        "dizel": 1.718,
        "98": null,
        "100": 1.863,
        "dizel-premium": 1.889,
        "avtoplin-lpg": null,
        "KOEL": null,
        "hvo": null,
        "cng": null,
        "lng": null
      },
      "distance": null,
      "direction": "",
      "open_hours": "01.04.2026 – 14.10.2026\nPonedeljek, Torek, Sreda, Četrtek, Petek, Sobota\n05:00-23:00\n\nNedelja, Praznik\n08:00-20:00\n",
      "zip_code": ""
    },
    {
      "pk": 1571,
      "franchise": 2,
      "name": "BS MOL DRAMLJE",
      "address": "LAZE PRI DRAMLJAH 6B",
      "lat": 46.260293,
      "lng": 15.3918165,
      "prices": {
        "95": 1.592,
        "dizel": 1.718,
        "98": null,
        "100": 1.863,
        "dizel-premium": 1.889,
        "avtoplin-lpg": 1.028,
        "KOEL": null,
        "hvo": null,
        "cng": null,
        "lng": null
      },
      "distance": null,
      "direction": "",
      "open_hours": "Ponedeljek, Torek, Sreda, Četrtek, Petek, Sobota\n05:00-22:00\n\nNedelja, Praznik\n08:00-22:00\n",
      "zip_code": "3222"
    },
    {
      "pk": 1572,
      "franchise": 2,
      "name": "BS MOL MESTINJE",
      "address": "MESTINJE 2A",
      "lat": 46.2343558,
      "lng": 15.5634657,
      "prices": {
        "95": 1.592,
        "dizel": 1.718,
        "98": null,
        "100": 1.863,
        "dizel-premium": 1.889,
        "avtoplin-lpg": null,
        "KOEL": null,
        "hvo": null,
        "cng": null,
        "lng": null
      },
      "distance": null,
      "direction": "",
      "open_hours": "Ponedeljek, Torek, Sreda, Četrtek, Petek, Sobota\n06:00-22:00\n\nNedelja, Praznik\n08:00-20:00\n",
      "zip_code": "3241"
    },
    {
      "pk": 1575,
      "franchise": 2,
      "name": "BS MOL OTIŠKI VRH",
      "address": "OTIŠKI VRH 52",
      "lat": 46.5695,
      "lng": 15.036667,
      "prices": {
        "95": 1.592,
        "dizel": 1.718,
        "98": null,
        "100": 1.863,
        "dizel-premium": 1.889,
        "avtoplin-lpg": null,
        "KOEL": null,
        "hvo": null,
        "cng": null,
        "lng": null
      },
      "distance": null,
      "direction": "",
      "open_hours": "01.09.2025 – \nSobota\n06:00-23:00\n\nPonedeljek, Torek, Sreda, Četrtek, Petek\n05:00-23:00\n\nNedelja, Praznik\n07:00-22:00\n",
      "zip_code": "2373"
    },
    {
      "pk": 1576,
      "franchise": 2,
      "name": "BS MOL POBREŽJE MARIBOR",
      "address": "ULICA VELJKA VLAHOVIČA 8",
      "lat": 46.546333,
      "lng": 15.674833,
      "prices": {
        "95": 1.592,
        "dizel": 1.718,
        "98": null,
        "100": 1.863,
        "dizel-premium": 1.889,
        "avtoplin-lpg": null,
        "KOEL": null,
        "hvo": null,
        "cng": null,
        "lng": null
      },
      "distance": null,
      "direction": "",
      "open_hours": "Ponedeljek, Torek, Sreda, Četrtek, Petek, Sobota\n06:00-22:00\n\nNedelja, Praznik\n08:00-20:00\n",
      "zip_code": "2000"
    },
    {
      "pk": 1579,
      "franchise": 2,
      "name": "BS MOL ŠENTILJ",
      "address": "MARIBORSKA CESTA 6",
      "lat": 46.677917,
      "lng": 15.652583,
      "prices": {
        "95": 1.592,
        "dizel": 1.718,
        "98": null,
        "100": 1.863,
        "dizel-premium": 1.889,
        "avtoplin-lpg": null,
        "KOEL": null,
        "hvo": null,
        "cng": null,
        "lng": null
      },
      "distance": null,
      "direction": "",
      "open_hours": "Nedelja, Praznik\n08:00-20:00\n\nPonedeljek, Torek, Sreda, Četrtek, Petek, Sobota\n06:00-22:00\n",
      "zip_code": ""
    },
    {
      "pk": 1580,
      "franchise": 2,
      "name": "BS MOL PTUJ",
      "address": "PUHOVA ULICA 18A",
      "lat": 46.421507,
      "lng": 15.88666,
      "prices": {
        "95": 1.592,
        "dizel": 1.718,
        "98": null,
        "100": 1.863,
        "dizel-premium": 1.889,
        "avtoplin-lpg": 1.028,
        "KOEL": null,
        "hvo": null,
        "cng": null,
        "lng": null
      },
      "distance": null,
      "direction": "",
      "open_hours": "Ponedeljek, Torek, Sreda, Četrtek, Petek, Sobota\n06:00-22:00\n\nNedelja, Praznik\n08:00-22:00\n",
      "zip_code": "2250"
    },
    {
      "pk": 1581,
      "franchise": 2,
      "name": "BS MOL ZASAVJE",
      "address": "ZAVRŠJE 30",
      "lat": 46.1110129,
      "lng": 15.0066052,
      "prices": {
        "95": 1.592,
        "dizel": 1.718,
        "98": null,
        "100": 1.863,
        "dizel-premium": 1.889,
        "avtoplin-lpg": 1.028,
        "KOEL": null,
        "hvo": null,
        "cng": null,
        "lng": null
      },
      "distance": null,
      "direction": "",
      "open_hours": "Ponedeljek, Torek, Sreda, Četrtek, Petek, Sobota\n05:00-21:00\n\nNedelja, Praznik\n08:00-20:00\n",
      "zip_code": ""
    },
    {
      "pk": 1587,
      "franchise": 2,
      "name": "BS MOL LETUŠ",
      "address": "LETUŠ 11 D",
      "lat": 46.311732,
      "lng": 15.026208,
      "prices": {
        "95": 1.592,
        "dizel": 1.718,
        "98": null,
        "100": 1.863,
        "dizel-premium": 1.889,
        "avtoplin-lpg": null,
        "KOEL": null,
        "hvo": null,
        "cng": null,
        "lng": null
      },
      "distance": null,
      "direction": "",
      "open_hours": "Januar / Februar / Marec / April / Oktober / November / December\nPonedeljek, Torek, Sreda, Četrtek, Petek\n06:00-21:00\n\nJanuar / Februar / Marec / April / Oktober / November / December\nSobota\n07:00-21:00\n\nMaj / Junij / Julij / Avgust / September\nPonedeljek, Torek, Sreda, Četrtek, Petek\n06:00-21:30\n\nMaj / Junij / Julij / Avgust / September\nSobota\n07:00-21:30\n\nNedelja, Praznik\n08:00-20:00\n",
      "zip_code": "3327"
    },
    {
      "pk": 1590,
      "franchise": 2,
      "name": "BS MOL RUDNIK",
      "address": "PREMRLOVA ULICA 10",
      "lat": 46.01729,
      "lng": 14.530471,
      "prices": {
        "95": 1.592,
        "dizel": 1.718,
        "98": null,
        "100": 1.863,
        "dizel-premium": 1.889,
        "avtoplin-lpg": null,
        "KOEL": null,
        "hvo": null,
        "cng": null,
        "lng": null
      },
      "distance": null,
      "direction": "",
      "open_hours": "Ponedeljek, Torek, Sreda, Četrtek, Petek\n06:00-22:00\n\nSobota\n07:00-22:00\n\nNedelja, Praznik\n08:00-16:00\n",
      "zip_code": "1000"
    },
    {
      "pk": 1591,
      "franchise": 2,
      "name": "BS MOL VODICE",
      "address": "ŠKOFJELOŠKA CESTA 14",
      "lat": 46.185997,
      "lng": 14.487635,
      "prices": {
        "95": 1.592,
        "dizel": 1.718,
        "98": null,
        "100": 1.863,
        "dizel-premium": 1.889,
        "avtoplin-lpg": null,
        "KOEL": null,
        "hvo": null,
        "cng": null,
        "lng": null
      },
      "distance": null,
      "direction": "",
      "open_hours": "Ponedeljek, Torek, Sreda, Četrtek, Petek, Sobota\n06:00-22:00\n\nNedelja, Praznik\n08:00-20:00\n",
      "zip_code": ""
    },
    {
      "pk": 1592,
      "franchise": 2,
      "name": "BS MOL AJDOVŠČINA",
      "address": "Mirce 10",
      "lat": 45.880481,
      "lng": 13.905018,
      "prices": {
        "95": 1.592,
        "dizel": 1.718,
        "98": null,
        "100": 1.863,
        "dizel-premium": 1.889,
        "avtoplin-lpg": null,
        "KOEL": null,
        "hvo": null,
        "cng": null,
        "lng": null
      },
      "distance": null,
      "direction": "",
      "open_hours": "Januar / Februar / Marec / April / Oktober / November / December\nPonedeljek, Torek, Sreda, Četrtek, Petek\n06:00-21:00\n\nJanuar / Februar / Marec / April / Oktober / November / December\nSobota\n07:00-21:00\n\nMaj / Junij / Julij / Avgust / September\nPonedeljek, Torek, Sreda, Četrtek, Petek\n06:00-22:00\n\nMaj / Junij / Julij / Avgust / September\nSobota\n07:00-22:00\n\nNedelja, Praznik\n08:00-20:00\n",
      "zip_code": "5270"
    },
    {
      "pk": 1593,
      "franchise": 2,
      "name": "BS MOL BRATISLAVSKA",
      "address": "BRATISALVSKA CESTA 11",
      "lat": 46.062837,
      "lng": 14.550083,
      "prices": {
        "95": 1.592,
        "dizel": 1.718,
        "98": null,
        "100": 1.863,
        "dizel-premium": 1.889,
        "avtoplin-lpg": 1.028,
        "KOEL": null,
        "hvo": null,
        "cng": null,
        "lng": null
      },
      "distance": null,
      "direction": "",
      "open_hours": "Ponedeljek, Torek, Sreda, Četrtek, Petek, Sobota\n06:00-22:00\n\nNedelja, Praznik\n08:00-16:00\n",
      "zip_code": "1000"
    },
    {
      "pk": 2234,
      "franchise": 2,
      "name": "BS MOL TEZNO",
      "address": "Ptujska cesta 56",
      "lat": 46.537696,
      "lng": 15.655975,
      "prices": {
        "95": 1.592,
        "dizel": 1.718,
        "98": null,
        "100": 1.863,
        "dizel-premium": 1.889,
        "avtoplin-lpg": 1.028,
        "KOEL": null,
        "hvo": null,
        "cng": null,
        "lng": null
      },
      "distance": null,
      "direction": "",
      "open_hours": "00:00-23:59\n",
      "zip_code": "2000"
    },
    {
      "pk": 2235,
      "franchise": 2,
      "name": "BS MOL KRANJ",
      "address": "Ulica Boštjana Hladnika 4",
      "lat": 46.230565,
      "lng": 14.369373,
      "prices": {
        "95": 1.592,
        "dizel": 1.718,
        "98": null,
        "100": 1.863,
        "dizel-premium": 1.889,
        "avtoplin-lpg": 1.028,
        "KOEL": null,
        "hvo": null,
        "cng": null,
        "lng": null
      },
      "distance": null,
      "direction": "",
      "open_hours": "Ponedeljek, Torek, Sreda, Četrtek, Petek, Sobota\n06:00-22:00\n\nNedelja, Praznik\n08:00-20:00\n",
      "zip_code": "4000"
    },
    {
      "pk": 2236,
      "franchise": 2,
      "name": "BS MOL PTUJ ORMOŠKA",
      "address": "Ormoška cesta 32",
      "lat": 46.41600383,
      "lng": 15.88503332,
      "prices": {
        "95": 1.592,
        "dizel": 1.718,
        "98": null,
        "100": 1.863,
        "dizel-premium": 1.889,
        "avtoplin-lpg": 1.028,
        "KOEL": null,
        "hvo": null,
        "cng": null,
        "lng": null
      },
      "distance": null,
      "direction": "",
      "open_hours": "Ponedeljek, Torek, Sreda, Četrtek, Petek, Sobota\n06:00-22:00\n\nNedelja, Praznik\n08:00-20:00\n",
      "zip_code": "2250"
    },
    {
      "pk": 2271,
      "franchise": 2,
      "name": "BS MOL MARIBOR STUDENCI",
      "address": "Ulica heroja Šercerja 60",
      "lat": 46.548645,
      "lng": 15.620617,
      "prices": {
        "95": 1.592,
        "dizel": 1.718,
        "98": null,
        "100": 1.863,
        "dizel-premium": 1.889,
        "avtoplin-lpg": 1.028,
        "KOEL": null,
        "hvo": null,
        "cng": null,
        "lng": null
      },
      "distance": null,
      "direction": "Maribor",
      "open_hours": "05:00-23:00\n",
      "zip_code": "2000"
    },
    {
      "pk": 2283,
      "franchise": 2,
      "name": "BS MOL ŠALOVCI",
      "address": "Šalovci 168",
      "lat": 46.821993,
      "lng": 16.278851,
      "prices": {
        "95": 1.592,
        "dizel": 1.718,
        "98": null,
        "100": 1.863,
        "dizel-premium": 1.889,
        "avtoplin-lpg": null,
        "KOEL": 1.318,
        "hvo": null,
        "cng": null,
        "lng": null
      },
      "distance": null,
      "direction": "",
      "open_hours": "April / Maj / Junij / Julij / Avgust / September\nSobota\n07:00-21:00\n\nNedelja, Praznik\n08:00-20:00\n\nJanuar / Februar / Marec / Oktober / November / December\nPonedeljek, Torek, Sreda, Četrtek, Petek, Sobota\n07:00-20:00\n\nApril / Maj / Junij / Julij / Avgust / September\nPonedeljek, Torek, Sreda, Četrtek, Petek\n06:00-21:00\n",
      "zip_code": "9204"
    },
    {
      "pk": 2284,
      "franchise": 2,
      "name": "BS MOL HOTIZA",
      "address": "Ložič 1",
      "lat": 46.551502,
      "lng": 16.344579,
      "prices": {
        "95": 1.592,
        "dizel": 1.718,
        "98": null,
        "100": 1.863,
        "dizel-premium": 1.889,
        "avtoplin-lpg": null,
        "KOEL": 1.318,
        "hvo": null,
        "cng": null,
        "lng": null
      },
      "distance": null,
      "direction": "",
      "open_hours": "April / Maj / Junij / Julij / Avgust / September\nPonedeljek, Torek, Sreda, Četrtek, Petek\n06:00-21:00\n\nApril / Maj / Junij / Julij / Avgust / September\nSobota\n07:00-21:00\n\nJanuar / Februar / Marec / Oktober / November / December\nPonedeljek, Torek, Sreda, Četrtek, Petek\n06:00-20:00\n\nJanuar / Februar / Marec / Oktober / November / December\nSobota\n07:00-20:00\n\nNedelja, Praznik\n08:00-20:00\n",
      "zip_code": "9220"
    },
    {
      "pk": 2285,
      "franchise": 2,
      "name": "BS MOL LENART",
      "address": "Kraigherjeva ulica 19",
      "lat": 46.579295,
      "lng": 15.834392,
      "prices": {
        "95": 1.592,
        "dizel": 1.718,
        "98": null,
        "100": 1.863,
        "dizel-premium": 1.889,
        "avtoplin-lpg": null,
        "KOEL": 1.318,
        "hvo": null,
        "cng": null,
        "lng": null
      },
      "distance": null,
      "direction": "",
      "open_hours": "Januar / Februar / Marec / Oktober / November / December\nPonedeljek, Torek, Sreda, Četrtek, Petek\n05:30-21:00\n\nJanuar / Februar / Marec / Oktober / November / December\nSobota\n06:00-21:00\n\nApril / Maj / Junij / Julij / Avgust / September\nPonedeljek, Torek, Sreda, Četrtek, Petek\n05:00-22:00\n\nApril / Maj / Junij / Julij / Avgust / September\nSobota\n06:00-22:00\n\nNedelja, Praznik\n08:00-20:00\n",
      "zip_code": "2230"
    },
    {
      "pk": 2286,
      "franchise": 2,
      "name": "BS MOL RADLJE OB DRAVI",
      "address": "Mariborska cesta 60",
      "lat": 46.612815,
      "lng": 15.232126,
      "prices": {
        "95": 1.592,
        "dizel": 1.718,
        "98": null,
        "100": 1.863,
        "dizel-premium": 1.889,
        "avtoplin-lpg": 1.028,
        "KOEL": 1.318,
        "hvo": null,
        "cng": null,
        "lng": null
      },
      "distance": null,
      "direction": "",
      "open_hours": "Ponedeljek, Torek, Sreda, Četrtek, Petek\n05:00-22:00\n\nSobota\n06:00-22:00\n\nNedelja, Praznik\n07:00-20:00\n",
      "zip_code": "2360"
    },
    {
      "pk": 2287,
      "franchise": 2,
      "name": "BS MOL LAŠKO",
      "address": "Celjska cesta 2",
      "lat": 46.162431,
      "lng": 15.23171,
      "prices": {
        "95": 1.592,
        "dizel": 1.718,
        "98": null,
        "100": 1.863,
        "dizel-premium": 1.889,
        "avtoplin-lpg": null,
        "KOEL": 1.318,
        "hvo": null,
        "cng": null,
        "lng": null
      },
      "distance": null,
      "direction": "",
      "open_hours": "Ponedeljek, Torek, Sreda, Četrtek, Petek, Sobota\n06:00-20:00\n\nNedelja, Praznik\n07:00-19:00\n",
      "zip_code": "3270"
    },
    {
      "pk": 2288,
      "franchise": 2,
      "name": "BS MOL PAY&GO TRŽIČ",
      "address": "Cesta Ste Marie aux mines 7",
      "lat": 46.358642,
      "lng": 14.298618,
      "prices": {
        "95": 1.592,
        "dizel": 1.718,
        "98": null,
        "100": null,
        "dizel-premium": null,
        "avtoplin-lpg": null,
        "KOEL": null,
        "hvo": null,
        "cng": null,
        "lng": null
      },
      "distance": null,
      "direction": "",
      "open_hours": "00:00-23:59\n",
      "zip_code": "4290"
    },
    {
      "pk": 2289,
      "franchise": 2,
      "name": "BS MOL PAY&GO KRANJ",
      "address": "Šuceva ulica 23 a",
      "lat": 46.246355,
      "lng": 14.378,
      "prices": {
        "95": 1.592,
        "dizel": 1.718,
        "98": null,
        "100": null,
        "dizel-premium": null,
        "avtoplin-lpg": null,
        "KOEL": null,
        "hvo": null,
        "cng": null,
        "lng": null
      },
      "distance": null,
      "direction": "",
      "open_hours": "00:00-23:59\n",
      "zip_code": "4000"
    }
  ],
  "position": null
}
