{
  "count": 551,
  "next": "https://goriva.si/api/v1/search/?format=json&franchise=&name=&o=&page=2&position=&radius=",
  "previous": null,
  "results": [
    {
      "pk": 2308,
      "franchise": 19,
      "name": "Tankomat Grosuplje",
      "address": "Ljubljanska cesta 66",
      "lat": 45.96573257446289,
      "lng": 14.659423828125,
      "prices": {
        "95": 1.465,
        "dizel": 1.607,
        "98": null,
        "100": null,
        "dizel-premium": null,
        "avtoplin-lpg": null,
        "KOEL": null,
        "hvo": null,
        "cng": null,
        "lng": null
      },
      "distance": null,
      "direction": "",
      "open_hours": "neprenehoma 24/7",
      "zip_code": "1290"
    },
    {
      "pk": 2309,
      "franchise": 19,
      "name": "Tankomat Sežana",
      "address": "Cesta na Lenivec 32",
      "lat": 45.7087287902832,
      "lng": 13.8604755401611,
      "prices": {
        "95": 1.465,
        "dizel": 1.607,
        "98": null,
        "100": null,
        "dizel-premium": null,
        "avtoplin-lpg": null,
        "KOEL": null,
        "hvo": null,
        "cng": null,
        "lng": null
      },
      "distance": null,
      "direction": "",
      "open_hours": "neprenehoma 24/7",
      "zip_code": "6210"
    },
    {
      "pk": 2328,
      "franchise": 19,
      "name": "Tankomat Jesenice",
      "address": "Cesta Železarjev 8",
      "lat": 46.43106460571289,
      "lng": 14.07077407836914,
      "prices": {
        "95": 1.465,
        "dizel": 1.607,
        "98": null,
        "100": null,
        "dizel-premium": null,
        "avtoplin-lpg": null,
        "KOEL": null,
        "hvo": null,
        "cng": null,
        "lng": null
      },
      "distance": null,
      "direction": "",
      "open_hours": "neprenehoma 24/7",
      "zip_code": "4270"
    },
    {
      "pk": 2313,
      "franchise": 14,
      "name": "West Oil BS Zavrč",
      "address": "Zavrč 8c",
      "lat": 46.3896077,
      "lng": 16.05135585,
      "prices": {
        "95": 1.473,
        "dizel": 1.463,
        "98": null,
        "100": null,
        "dizel-premium": null,
        "avtoplin-lpg": null,
        "KOEL": 1.099,
        "hvo": null,
        "cng": null,
        "lng": null
      },
      "distance": null,
      "direction": "PTUJ",
      "open_hours": "PON. - PET. 8.00 -18.00\r\nSOB. 8.00 -1600\r\nNEDELJE IN PRAZNIKI - ZAPRTO",
      "zip_code": "2283"
    },
    {
      "pk": 1921,
      "franchise": 1,
      "name": "PETROL MARIBOR - TRŽAŠKA 36",
      "address": "TRŽAŠKA CESTA 36",
      "lat": 46.53769944,
      "lng": 15.64633113,
      "prices": {
        "95": 1.53,
        "dizel": 1.607,
        "98": null,
        "100": 1.808,
        "dizel-premium": null,
        "avtoplin-lpg": null,
        "KOEL": null,
        "hvo": null,
        "cng": null,
        "lng": null
      },
      "distance": null,
      "direction": "Maribor -> Ljubljana",
      "open_hours": "00:00-23:59\n",
      "zip_code": "2000"
    },
    {
      "pk": 1922,
      "franchise": 1,
      "name": "PETROL MARIBOR - MLINSKA",
      "address": "MLINSKA ULICA 33",
      "lat": 46.5573545,
      "lng": 15.65508386,
      "prices": {
        "95": 1.53,
        "dizel": 1.607,
        "98": null,
        "100": null,
        "dizel-premium": null,
        "avtoplin-lpg": null,
        "KOEL": 1.2,
        "hvo": null,
        "cng": null,
        "lng": null
      },
      "distance": null,
      "direction": "",
      "open_hours": "Ponedeljek, Torek, Sreda, Četrtek, Petek\n08:00-11:30, 12:00-16:00\n\nSobota\n08:00-11:30, 12:00-14:00\n",
      "zip_code": "2000"
    },
    {
      "pk": 1924,
      "franchise": 1,
      "name": "PETROL MARIBOR - PTUJSKA 136",
      "address": "PTUJSKA CESTA 136",
      "lat": 46.53249876,
      "lng": 15.66655604,
      "prices": {
        "95": 1.53,
        "dizel": 1.607,
        "98": null,
        "100": null,
        "dizel-premium": null,
        "avtoplin-lpg": null,
        "KOEL": 1.2,
        "hvo": null,
        "cng": null,
        "lng": null
      },
      "distance": null,
      "direction": "",
      "open_hours": "Ponedeljek, Torek, Sreda, Četrtek, Petek\n06:00-21:00\n\nSobota\n07:00-19:00\n\nNedelja, Praznik\n08:00-16:00\n",
      "zip_code": "2000"
    },
    {
      "pk": 1925,
      "franchise": 1,
      "name": "PETROL MARIBOR - VALVASORJEVA",
      "address": "VALVASORJEVA ULICA 51",
      "lat": 46.555036,
      "lng": 15.633782,
      "prices": {
        "95": 1.53,
        "dizel": 1.607,
        "98": null,
        "100": null,
        "dizel-premium": null,
        "avtoplin-lpg": null,
        "KOEL": 1.2,
        "hvo": null,
        "cng": null,
        "lng": null
      },
      "distance": null,
      "direction": "",
      "open_hours": "Ponedeljek, Torek, Sreda, Četrtek, Petek\n06:00-20:00\n\nSobota\n07:00-20:00\n\nNedelja, Praznik\n08:00-19:00\n",
      "zip_code": "2000"
    },
    {
      "pk": 1926,
      "franchise": 1,
      "name": "PETROL SLOVENSKA BISTRICA - LJUBLJANSKA ZAHOD",
      "address": "LJUBLJANSKA CESTA 74",
      "lat": 46.38470725,
      "lng": 15.5654534,
      "prices": {
        "95": 1.53,
        "dizel": 1.607,
        "98": null,
        "100": null,
        "dizel-premium": null,
        "avtoplin-lpg": null,
        "KOEL": 1.2,
        "hvo": null,
        "cng": null,
        "lng": null
      },
      "distance": null,
      "direction": "",
      "open_hours": "Ponedeljek, Torek, Sreda, Četrtek, Petek\n06:00-21:00\n\nSobota\n07:00-21:00\n\nNedelja, Praznik\n08:00-20:00\n",
      "zip_code": "2310"
    },
    {
      "pk": 1927,
      "franchise": 1,
      "name": "PETROL MARIBOR - GOSPOSVETSKA SEVER",
      "address": "GOSPOSVETSKA CESTA 92",
      "lat": 46.56386643,
      "lng": 15.62682805,
      "prices": {
        "95": 1.53,
        "dizel": 1.607,
        "98": null,
        "100": null,
        "dizel-premium": null,
        "avtoplin-lpg": null,
        "KOEL": null,
        "hvo": null,
        "cng": null,
        "lng": null
      },
      "distance": null,
      "direction": "",
      "open_hours": "Ponedeljek, Torek, Sreda, Četrtek, Petek\n07:00-21:00\n\nSobota\n07:00-21:00\n\nNedelja, Praznik\n08:00-19:00\n",
      "zip_code": "2000"
    },
    {
      "pk": 1928,
      "franchise": 1,
      "name": "PETROL SOLKAN",
      "address": "CESTA IX. KORPUSA 67",
      "lat": 45.96778633,
      "lng": 13.64164681,
      "prices": {
        "95": 1.53,
        "dizel": 1.607,
        "98": null,
        "100": 1.808,
        "dizel-premium": null,
        "avtoplin-lpg": null,
        "KOEL": 1.2,
        "hvo": null,
        "cng": null,
        "lng": null
      },
      "distance": null,
      "direction": "",
      "open_hours": "Ponedeljek, Torek, Sreda, Četrtek, Petek\n07:00-20:00\n\nSobota\n07:00-20:00\n\nNedelja, Praznik\n08:00-20:00\n",
      "zip_code": "5250"
    },
    {
      "pk": 1929,
      "franchise": 1,
      "name": "PETROL MARIBOR - PARTIZANSKA",
      "address": "PARTIZANSKA CESTA 58",
      "lat": 46.56486151,
      "lng": 15.65925818,
      "prices": {
        "95": 1.53,
        "dizel": 1.607,
        "98": null,
        "100": 1.808,
        "dizel-premium": null,
        "avtoplin-lpg": null,
        "KOEL": 1.2,
        "hvo": null,
        "cng": null,
        "lng": null
      },
      "distance": null,
      "direction": "",
      "open_hours": "Ponedeljek, Torek, Sreda, Četrtek, Petek\n06:00-21:00\n\nSobota\n06:00-21:00\n\nNedelja, Praznik\n07:00-21:00\n",
      "zip_code": "2000"
    },
    {
      "pk": 1930,
      "franchise": 1,
      "name": "PETROL MARIBOR - PTUJSKA 111",
      "address": "PTUJSKA CESTA 111",
      "lat": 46.53248364,
      "lng": 15.66759889,
      "prices": {
        "95": 1.53,
        "dizel": 1.607,
        "98": null,
        "100": null,
        "dizel-premium": null,
        "avtoplin-lpg": null,
        "KOEL": 1.2,
        "hvo": null,
        "cng": null,
        "lng": null
      },
      "distance": null,
      "direction": "",
      "open_hours": "Ponedeljek, Torek, Sreda, Četrtek, Petek\n06:00-20:00\n\nSobota\n08:00-18:00\n\nNedelja, Praznik\n08:00-15:00\n",
      "zip_code": "2000"
    },
    {
      "pk": 1931,
      "franchise": 1,
      "name": "PETROL RUŠE",
      "address": "INDUSTRIJSKA ULICA 4",
      "lat": 46.54026886,
      "lng": 15.51724169,
      "prices": {
        "95": 1.53,
        "dizel": 1.607,
        "98": null,
        "100": null,
        "dizel-premium": null,
        "avtoplin-lpg": null,
        "KOEL": 1.2,
        "hvo": null,
        "cng": null,
        "lng": null
      },
      "distance": null,
      "direction": "",
      "open_hours": "Ponedeljek, Torek, Sreda, Četrtek, Petek\n06:00-20:00\n\nSobota\n07:00-20:00\n\nNedelja, Praznik\n07:00-18:00\n",
      "zip_code": "2342"
    },
    {
      "pk": 1932,
      "franchise": 1,
      "name": "PETROL PRAGERSKO",
      "address": "PTUJSKA CESTA 20",
      "lat": 46.39511839,
      "lng": 15.65879604,
      "prices": {
        "95": 1.53,
        "dizel": 1.607,
        "98": null,
        "100": null,
        "dizel-premium": null,
        "avtoplin-lpg": null,
        "KOEL": 1.2,
        "hvo": null,
        "cng": null,
        "lng": null
      },
      "distance": null,
      "direction": "",
      "open_hours": "Ponedeljek, Torek, Sreda, Četrtek, Petek\n07:00-20:00\n\nSobota\n07:00-20:00\n\nNedelja, Praznik\n08:30-12:00\n",
      "zip_code": "2331"
    },
    {
      "pk": 1933,
      "franchise": 1,
      "name": "PETROL RAČE",
      "address": "LJUBLJANSKA CESTA 22",
      "lat": 46.45289915,
      "lng": 15.67336264,
      "prices": {
        "95": 1.53,
        "dizel": 1.607,
        "98": null,
        "100": null,
        "dizel-premium": null,
        "avtoplin-lpg": null,
        "KOEL": 1.2,
        "hvo": null,
        "cng": null,
        "lng": null
      },
      "distance": null,
      "direction": "",
      "open_hours": "Ponedeljek, Torek, Sreda, Četrtek, Petek\n06:00-20:00\n\nSobota\n07:00-20:00\n\nNedelja, Praznik\n08:00-13:00\n",
      "zip_code": "2327"
    },
    {
      "pk": 1934,
      "franchise": 1,
      "name": "PETROL MARIBOR - TRŽAŠKA 10",
      "address": "TRŽAŠKA CESTA 10",
      "lat": 46.54123587,
      "lng": 15.64785997,
      "prices": {
        "95": 1.53,
        "dizel": 1.607,
        "98": null,
        "100": null,
        "dizel-premium": null,
        "avtoplin-lpg": null,
        "KOEL": null,
        "hvo": null,
        "cng": null,
        "lng": null
      },
      "distance": null,
      "direction": "",
      "open_hours": "Ponedeljek, Torek, Sreda, Četrtek, Petek\n07:00-21:00\n\nSobota\n07:00-20:00\n\nNedelja, Praznik\n08:00-20:00\n",
      "zip_code": "2000"
    },
    {
      "pk": 1935,
      "franchise": 1,
      "name": "PETROL ŠEMPETER PRI GORICI - PADLIH BORCEV",
      "address": "ULICA PADLIH BORCEV 2",
      "lat": 45.92923326,
      "lng": 13.64146317,
      "prices": {
        "95": 1.53,
        "dizel": 1.607,
        "98": null,
        "100": 1.808,
        "dizel-premium": null,
        "avtoplin-lpg": null,
        "KOEL": 1.2,
        "hvo": null,
        "cng": null,
        "lng": null
      },
      "distance": null,
      "direction": "",
      "open_hours": "Ponedeljek, Torek, Sreda, Četrtek, Petek\n07:00-20:00\n\nSobota\n07:00-20:00\n",
      "zip_code": "5290"
    },
    {
      "pk": 1936,
      "franchise": 1,
      "name": "PETROL ŠENTILJ - MARIBORSKA",
      "address": "MARIBORSKA CESTA 49",
      "lat": 46.67188025,
      "lng": 15.66080301,
      "prices": {
        "95": 1.53,
        "dizel": 1.607,
        "98": null,
        "100": null,
        "dizel-premium": null,
        "avtoplin-lpg": null,
        "KOEL": 1.2,
        "hvo": null,
        "cng": null,
        "lng": null
      },
      "distance": null,
      "direction": "",
      "open_hours": "Ponedeljek, Torek, Sreda, Četrtek, Petek\n06:00-20:00\n\nSobota\n07:00-19:00\n\nNedelja, Praznik\n07:00-18:00\n",
      "zip_code": "2212"
    },
    {
      "pk": 1937,
      "franchise": 1,
      "name": "PETROL STARŠE",
      "address": "STARŠE 78A",
      "lat": 46.46753906,
      "lng": 15.76300861,
      "prices": {
        "95": 1.53,
        "dizel": 1.607,
        "98": null,
        "100": null,
        "dizel-premium": null,
        "avtoplin-lpg": null,
        "KOEL": 1.2,
        "hvo": null,
        "cng": null,
        "lng": null
      },
      "distance": null,
      "direction": "",
      "open_hours": "Ponedeljek, Torek, Sreda, Četrtek, Petek\n07:00-20:00\n\nSobota\n07:00-20:00\n",
      "zip_code": "2205"
    },
    {
      "pk": 1938,
      "franchise": 1,
      "name": "PETROL POLJČANE",
      "address": "BISTRIŠKA CESTA 93",
      "lat": 46.309005,
      "lng": 15.577384,
      "prices": {
        "95": 1.53,
        "dizel": 1.607,
        "98": null,
        "100": null,
        "dizel-premium": null,
        "avtoplin-lpg": null,
        "KOEL": 1.2,
        "hvo": null,
        "cng": null,
        "lng": null
      },
      "distance": null,
      "direction": "",
      "open_hours": "Ponedeljek, Torek, Sreda, Četrtek, Petek\n06:00-20:00\n\nSobota\n07:00-20:00\n\nNedelja, Praznik\n08:00-13:00\n",
      "zip_code": "2319"
    },
    {
      "pk": 1939,
      "franchise": 1,
      "name": "PETROL SLIVNICA ZAHOD",
      "address": "POT K ČRPALKI 5",
      "lat": 46.482509,
      "lng": 15.654919,
      "prices": {
        "95": 1.53,
        "dizel": 1.607,
        "98": null,
        "100": null,
        "dizel-premium": null,
        "avtoplin-lpg": null,
        "KOEL": 1.2,
        "hvo": null,
        "cng": null,
        "lng": null
      },
      "distance": null,
      "direction": "",
      "open_hours": "Ponedeljek, Torek, Sreda, Četrtek, Petek\n06:00-20:00\n\nSobota\n06:00-20:00\n\nNedelja, Praznik\n07:00-20:00\n",
      "zip_code": "2312"
    },
    {
      "pk": 1940,
      "franchise": 1,
      "name": "PETROL MARIBOR - GOSPOSVETSKA JUG",
      "address": "GOSPOSVETSKA CESTA 81",
      "lat": 46.56349021,
      "lng": 15.62652364,
      "prices": {
        "95": 1.53,
        "dizel": 1.607,
        "98": null,
        "100": null,
        "dizel-premium": null,
        "avtoplin-lpg": null,
        "KOEL": 1.2,
        "hvo": null,
        "cng": null,
        "lng": null
      },
      "distance": null,
      "direction": "",
      "open_hours": "Ponedeljek, Torek, Sreda, Četrtek, Petek\n06:00-19:00\n\nSobota\n07:00-17:00\n",
      "zip_code": "2000"
    },
    {
      "pk": 1941,
      "franchise": 1,
      "name": "PETROL OPLOTNICA",
      "address": "PARTIZANSKA CESTA 31",
      "lat": 46.38403,
      "lng": 15.448916,
      "prices": {
        "95": 1.53,
        "dizel": 1.607,
        "98": null,
        "100": null,
        "dizel-premium": null,
        "avtoplin-lpg": null,
        "KOEL": 1.2,
        "hvo": null,
        "cng": null,
        "lng": null
      },
      "distance": null,
      "direction": "",
      "open_hours": "Ponedeljek, Torek, Sreda, Četrtek, Petek\n07:00-20:00\n\nSobota\n07:00-16:00\n\nNedelja, Praznik\n08:00-15:00\n",
      "zip_code": "2317"
    },
    {
      "pk": 1942,
      "franchise": 1,
      "name": "PETROL SELNICA OB DRAVI",
      "address": "MARIBORSKA CESTA 46",
      "lat": 46.54934191,
      "lng": 15.4860149,
      "prices": {
        "95": 1.53,
        "dizel": 1.607,
        "98": null,
        "100": 1.808,
        "dizel-premium": null,
        "avtoplin-lpg": null,
        "KOEL": 1.2,
        "hvo": null,
        "cng": null,
        "lng": null
      },
      "distance": null,
      "direction": "",
      "open_hours": "Ponedeljek, Torek, Sreda, Četrtek, Petek\n06:00-20:00\n\nSobota\n06:00-19:00\n\nNedelja, Praznik\n08:00-18:00\n",
      "zip_code": "2352"
    }
  ],
  "position": null
}
