{
  "count": 553,
  "next": "https://goriva.si/api/v1/search/?format=json&franchise=&name=&o=&page=14&position=&radius=",
  "previous": "https://goriva.si/api/v1/search/?format=json&franchise=&name=&o=&page=12&position=&radius=",
  "results": [
    {
      "pk": 2253,
      "franchise": 3,
      "name": "BS MAXEN LOGATEC",
      "address": "Tržaška cesta bš",
      "lat": 45.9388,
      "lng": 14.2365616,
      "prices": {
        "95": 1.445,
        "dizel": 1.455,
        "98": null,
        "100": null,
        "dizel-premium": null,
        "avtoplin-lpg": null,
        "KOEL": null,
        "hvo": null,
        "cng": null
      },
      "distance": null,
      "direction": "",
      "open_hours": "24/7",
      "zip_code": "1370"
    },
    {
      "pk": 2254,
      "franchise": 3,
      "name": "BS MAXEN RIBNICA",
      "address": "Gorenjska cesta bš",
      "lat": 45.7490272,
      "lng": 14.7190224,
      "prices": {
        "95": 1.445,
        "dizel": 1.455,
        "98": null,
        "100": null,
        "dizel-premium": null,
        "avtoplin-lpg": null,
        "KOEL": null,
        "hvo": null,
        "cng": null
      },
      "distance": null,
      "direction": "",
      "open_hours": "24/7",
      "zip_code": "1310"
    },
    {
      "pk": 2255,
      "franchise": 3,
      "name": "BS MAXEN NOVO MESTO",
      "address": "Mirnopeška cesta bš",
      "lat": 45.8202208,
      "lng": 15.1490384,
      "prices": {
        "95": 1.445,
        "dizel": 1.455,
        "98": null,
        "100": null,
        "dizel-premium": null,
        "avtoplin-lpg": null,
        "KOEL": null,
        "hvo": null,
        "cng": null
      },
      "distance": null,
      "direction": "",
      "open_hours": "24/7",
      "zip_code": "8000"
    },
    {
      "pk": 2256,
      "franchise": 3,
      "name": "BS MAXEN KRANJ",
      "address": "Cesta Staneta Žagarja bš",
      "lat": 46.24224,
      "lng": 14.3774704,
      "prices": {
        "95": 1.445,
        "dizel": 1.455,
        "98": null,
        "100": null,
        "dizel-premium": null,
        "avtoplin-lpg": null,
        "KOEL": null,
        "hvo": null,
        "cng": null
      },
      "distance": null,
      "direction": "",
      "open_hours": "24/7",
      "zip_code": "4000"
    },
    {
      "pk": 2257,
      "franchise": 3,
      "name": "BS MAXEN AJDOVŠČINA",
      "address": "Vipavska cesta bš",
      "lat": 45.8809344,
      "lng": 13.9107888,
      "prices": {
        "95": 1.445,
        "dizel": 1.455,
        "98": null,
        "100": null,
        "dizel-premium": null,
        "avtoplin-lpg": null,
        "KOEL": null,
        "hvo": null,
        "cng": null
      },
      "distance": null,
      "direction": "",
      "open_hours": "24/7",
      "zip_code": "5270"
    },
    {
      "pk": 2266,
      "franchise": 5,
      "name": "SHELL MARIBOR RETAIL",
      "address": "TURNEJEVA ULICA 35",
      "lat": 46.449892,
      "lng": 15.651698,
      "prices": {
        "95": 1.445,
        "dizel": 1.455,
        "98": null,
        "100": 1.739,
        "dizel-premium": null,
        "avtoplin-lpg": null,
        "KOEL": null,
        "hvo": null,
        "cng": null
      },
      "distance": null,
      "direction": "",
      "open_hours": "24 ur - črpalka z osebjem",
      "zip_code": "2313"
    },
    {
      "pk": 2272,
      "franchise": 1,
      "name": "PETROL BLED - SELIŠKA",
      "address": "SELIŠKA CESTA 4C",
      "lat": 46.370163,
      "lng": 14.116395,
      "prices": {
        "95": 1.445,
        "dizel": 1.455,
        "98": null,
        "100": 1.721,
        "dizel-premium": 1.672,
        "avtoplin-lpg": 0.829,
        "KOEL": null,
        "hvo": null,
        "cng": null
      },
      "distance": null,
      "direction": "",
      "open_hours": "vsak delavnik 06:00-22:00\r\nsobote 06:00-22:00\r\nnedelje in prazniki 06:00-22:00",
      "zip_code": "4260"
    },
    {
      "pk": 2288,
      "franchise": 13,
      "name": "BS MOL PAY&GO TRŽIČ",
      "address": "Cesta Ste Marie aux mines 7",
      "lat": 46.358642,
      "lng": 14.298618,
      "prices": {
        "95": 1.445,
        "dizel": 1.455,
        "98": null,
        "100": null,
        "dizel-premium": null,
        "avtoplin-lpg": null,
        "KOEL": null,
        "hvo": null,
        "cng": null
      },
      "distance": null,
      "direction": "",
      "open_hours": "ZIMSKI OBRATOVALNI ČAS: \r\n01.11. - 31.3. \r\nPON - SOB : 05.00 - 22.00\r\nNED: 08.00 - 15.00 \r\n\r\nLETNI OBRATOVALNI ČAS: \r\n01.04. - 31.10. \r\nPON - NED : 00.00 - 24.00",
      "zip_code": "4290"
    },
    {
      "pk": 2289,
      "franchise": 13,
      "name": "BS MOL PAY&GO KRANJ",
      "address": "Šuceva ulica 23 a",
      "lat": 46.246355,
      "lng": 14.378,
      "prices": {
        "95": 1.445,
        "dizel": 1.455,
        "98": null,
        "100": null,
        "dizel-premium": null,
        "avtoplin-lpg": null,
        "KOEL": null,
        "hvo": null,
        "cng": null
      },
      "distance": null,
      "direction": "",
      "open_hours": "ZIMSKI OBRATOVALNI ČAS: \r\n01.11. - 31.3. \r\nPON - SOB : 05.00 - 22.00\r\nNED: 08.00 - 15.00 \r\n\r\nLETNI OBRATOVALNI ČAS: \r\n01.04. - 31.10. \r\nPON - NED : 00.00 - 24.00",
      "zip_code": "4000"
    },
    {
      "pk": 2290,
      "franchise": 13,
      "name": "BS MOL PAY&GO MEDVODE",
      "address": "Gorenjska cesta 12",
      "lat": 46.136526,
      "lng": 14.417849,
      "prices": {
        "95": 1.445,
        "dizel": 1.455,
        "98": null,
        "100": null,
        "dizel-premium": null,
        "avtoplin-lpg": null,
        "KOEL": null,
        "hvo": null,
        "cng": null
      },
      "distance": null,
      "direction": "",
      "open_hours": "ZIMSKI OBRATOVALNI ČAS: \r\n01.11. - 31.3. \r\nPON - SOB : 05.00 - 22.00\r\nNED: 08.00 - 15.00 \r\n\r\nLETNI OBRATOVALNI ČAS: \r\n01.04. - 31.10. \r\nPON - NED : 00.00 - 24.00",
      "zip_code": "1215"
    },
    {
      "pk": 2291,
      "franchise": 13,
      "name": "BS MOL PAY&GO LJUBLJANA TOPLARNIŠKA",
      "address": "Toplarniška ulica 4",
      "lat": 46.056904,
      "lng": 14.541465,
      "prices": {
        "95": 1.445,
        "dizel": 1.455,
        "98": null,
        "100": null,
        "dizel-premium": null,
        "avtoplin-lpg": null,
        "KOEL": null,
        "hvo": null,
        "cng": null
      },
      "distance": null,
      "direction": "",
      "open_hours": "ZIMSKI OBRATOVALNI ČAS: \r\n01.11. - 31.3. \r\nPON - SOB : 05.00 - 22.00\r\nNED: 08.00 - 15.00 \r\n\r\nLETNI OBRATOVALNI ČAS: \r\n01.04. - 31.10. \r\nPON - NED : 00.00 - 24.00",
      "zip_code": "1000"
    },
    {
      "pk": 2292,
      "franchise": 13,
      "name": "BS MOL PAY&GO LJUBLJANA TRŽAŠKA",
      "address": "Tržaška 429",
      "lat": 46.027435,
      "lng": 14.4353,
      "prices": {
        "95": 1.445,
        "dizel": 1.455,
        "98": null,
        "100": null,
        "dizel-premium": null,
        "avtoplin-lpg": null,
        "KOEL": null,
        "hvo": null,
        "cng": null
      },
      "distance": null,
      "direction": "",
      "open_hours": "ZIMSKI OBRATOVALNI ČAS: \r\n01.11. - 31.3. \r\nPON - SOB : 05.00 - 22.00\r\nNED: 08.00 - 15.00 \r\n\r\nLETNI OBRATOVALNI ČAS: \r\n01.04. - 31.10. \r\nPON - NED : 00.00 - 24.00",
      "zip_code": "1000"
    },
    {
      "pk": 2293,
      "franchise": 13,
      "name": "BS MOL PAY&GO IVANČNA GORICA",
      "address": "Cesta 2. grupe odredov 4",
      "lat": 45.936326,
      "lng": 14.805261,
      "prices": {
        "95": 1.445,
        "dizel": 1.455,
        "98": null,
        "100": null,
        "dizel-premium": null,
        "avtoplin-lpg": null,
        "KOEL": null,
        "hvo": null,
        "cng": null
      },
      "distance": null,
      "direction": "",
      "open_hours": "ZIMSKI OBRATOVALNI ČAS: \r\n01.11. - 31.3. \r\nPON - SOB : 05.00 - 22.00\r\nNED: 08.00 - 15.00 \r\n\r\nLETNI OBRATOVALNI ČAS: \r\n01.04. - 31.10. \r\nPON - NED : 00.00 - 24.00",
      "zip_code": "1295"
    },
    {
      "pk": 2294,
      "franchise": 13,
      "name": "BS MOL PAY&GO POSTOJNA",
      "address": "Industrijska cesta 4",
      "lat": 45.769831,
      "lng": 14.197979,
      "prices": {
        "95": 1.445,
        "dizel": 1.455,
        "98": null,
        "100": null,
        "dizel-premium": null,
        "avtoplin-lpg": null,
        "KOEL": null,
        "hvo": null,
        "cng": null
      },
      "distance": null,
      "direction": "",
      "open_hours": "ZIMSKI OBRATOVALNI ČAS: \r\n01.11. - 31.3. \r\nPON - SOB : 05.00 - 22.00\r\nNED: 08.00 - 15.00 \r\n\r\nLETNI OBRATOVALNI ČAS: \r\n01.04. - 31.10. \r\nPON - NED : 00.00 - 24.00",
      "zip_code": "6230"
    },
    {
      "pk": 2295,
      "franchise": 13,
      "name": "BS MOL PAY&GO ILIRSKA BISTRICA",
      "address": "Vilharjeva cesta 58",
      "lat": 45.576279,
      "lng": 14.23011,
      "prices": {
        "95": 1.445,
        "dizel": 1.455,
        "98": null,
        "100": null,
        "dizel-premium": null,
        "avtoplin-lpg": null,
        "KOEL": null,
        "hvo": null,
        "cng": null
      },
      "distance": null,
      "direction": "",
      "open_hours": "ZIMSKI OBRATOVALNI ČAS: \r\n01.11. - 31.3. \r\nPON - SOB : 05.00 - 22.00\r\nNED: 08.00 - 15.00 \r\n\r\nLETNI OBRATOVALNI ČAS: \r\n01.04. - 31.10. \r\nPON - NED : 00.00 - 24.00",
      "zip_code": "6250"
    },
    {
      "pk": 2323,
      "franchise": 2,
      "name": "BS MOL KOPER LUKA",
      "address": "Vojkovo nabrežje 38",
      "lat": 45.55757,
      "lng": 13.75353,
      "prices": {
        "95": 1.445,
        "dizel": 1.455,
        "98": null,
        "100": null,
        "dizel-premium": null,
        "avtoplin-lpg": null,
        "KOEL": null,
        "hvo": null,
        "cng": null
      },
      "distance": null,
      "direction": "Koper",
      "open_hours": "Pon-Ned 06:00-21:00",
      "zip_code": "6000"
    },
    {
      "pk": 2334,
      "franchise": 5,
      "name": "ROGAŠKA SLATINA",
      "address": "Tržišče 12 b",
      "lat": 46.308,
      "lng": 15.5665,
      "prices": {
        "95": 1.445,
        "dizel": 1.455,
        "98": null,
        "100": 1.739,
        "dizel-premium": 1.829,
        "avtoplin-lpg": null,
        "KOEL": null,
        "hvo": null,
        "cng": null
      },
      "distance": null,
      "direction": "",
      "open_hours": "Ponedeljek - Sobota 6:00 - 22:00\r\n\r\nNedelja 8:00 - 20:00",
      "zip_code": "3250"
    },
    {
      "pk": 2335,
      "franchise": 5,
      "name": "ŠMARJE PRI JELŠAH",
      "address": "Celjska cesta 55",
      "lat": 46.22878,
      "lng": 15.504,
      "prices": {
        "95": 1.445,
        "dizel": 1.455,
        "98": null,
        "100": 1.739,
        "dizel-premium": null,
        "avtoplin-lpg": null,
        "KOEL": null,
        "hvo": null,
        "cng": null
      },
      "distance": null,
      "direction": "",
      "open_hours": "Pon\tdo Sob \r\n06:00 - 21:00\r\nNed\t\r\n08:00 - 20:00",
      "zip_code": "3240"
    },
    {
      "pk": 2336,
      "franchise": 5,
      "name": "MIKLAVŽ",
      "address": "Ptujska cesta 135",
      "lat": 46.53067,
      "lng": 15.67062,
      "prices": {
        "95": 1.445,
        "dizel": 1.455,
        "98": null,
        "100": 1.739,
        "dizel-premium": null,
        "avtoplin-lpg": null,
        "KOEL": null,
        "hvo": null,
        "cng": null
      },
      "distance": null,
      "direction": "",
      "open_hours": "Pon - Pet.:  6-22\r\nSob: 7-21 \r\nNed.: 8-20",
      "zip_code": "2204"
    },
    {
      "pk": 2337,
      "franchise": 5,
      "name": "LITIJA",
      "address": "Ljubljanska cesta 10 B",
      "lat": 46.14992,
      "lng": 14.56445,
      "prices": {
        "95": 1.445,
        "dizel": 1.455,
        "98": null,
        "100": 1.739,
        "dizel-premium": 1.829,
        "avtoplin-lpg": null,
        "KOEL": null,
        "hvo": null,
        "cng": null
      },
      "distance": null,
      "direction": "",
      "open_hours": "Pon-Sob; 5-23h \r\nNedelja: 8-20h",
      "zip_code": "1270"
    },
    {
      "pk": 2338,
      "franchise": 5,
      "name": "Murska Sobota Lendavska",
      "address": "Lendavska ulica 75",
      "lat": 46.667481,
      "lng": 16.176773,
      "prices": {
        "95": 1.445,
        "dizel": 1.455,
        "98": null,
        "100": 1.739,
        "dizel-premium": 1.829,
        "avtoplin-lpg": null,
        "KOEL": null,
        "hvo": null,
        "cng": null
      },
      "distance": null,
      "direction": "",
      "open_hours": "Pon-Sob; 5-23h Nedelja: 8-20h",
      "zip_code": "9000"
    },
    {
      "pk": 2339,
      "franchise": 5,
      "name": "Žalec",
      "address": "Mala Pirešica 22",
      "lat": 46.266973,
      "lng": 15.189107,
      "prices": {
        "95": 1.445,
        "dizel": 1.455,
        "98": null,
        "100": 1.739,
        "dizel-premium": 1.829,
        "avtoplin-lpg": null,
        "KOEL": null,
        "hvo": null,
        "cng": null
      },
      "distance": null,
      "direction": "",
      "open_hours": "0-24",
      "zip_code": "3301"
    },
    {
      "pk": 2340,
      "franchise": 5,
      "name": "KOZINA",
      "address": "Bazoviška cesta 18",
      "lat": 45.60911603335073,
      "lng": 13.93361083463169,
      "prices": {
        "95": 1.445,
        "dizel": 1.455,
        "98": null,
        "100": 1.739,
        "dizel-premium": 1.829,
        "avtoplin-lpg": null,
        "KOEL": null,
        "hvo": null,
        "cng": null
      },
      "distance": null,
      "direction": "",
      "open_hours": "",
      "zip_code": "6240"
    },
    {
      "pk": 2341,
      "franchise": 5,
      "name": "LJUTOMER",
      "address": "Kolodvorska ulica 2A",
      "lat": 46.52613423254767,
      "lng": 16.193609363823846,
      "prices": {
        "95": 1.445,
        "dizel": 1.455,
        "98": null,
        "100": 1.739,
        "dizel-premium": 1.829,
        "avtoplin-lpg": null,
        "KOEL": null,
        "hvo": null,
        "cng": null
      },
      "distance": null,
      "direction": "",
      "open_hours": "Mon-Sat: 6-22; Sun: 8-20",
      "zip_code": "9240"
    },
    {
      "pk": 2342,
      "franchise": 5,
      "name": "Senožeti",
      "address": "Senožeti 93, 1262 Senožeti",
      "lat": 46.088862059954124,
      "lng": 14.716871893530739,
      "prices": {
        "95": 1.445,
        "dizel": 1.455,
        "98": null,
        "100": 1.739,
        "dizel-premium": 1.829,
        "avtoplin-lpg": null,
        "KOEL": null,
        "hvo": null,
        "cng": null
      },
      "distance": null,
      "direction": "",
      "open_hours": "Mon-Sat: 6-22h, Sun: 8-20h",
      "zip_code": ""
    }
  ],
  "position": null
}
