{
  "count": 552,
  "next": "https://goriva.si/api/v1/search/?format=json&franchise=&name=&o=&page=5&position=&radius=",
  "previous": "https://goriva.si/api/v1/search/?format=json&franchise=&name=&o=&page=3&position=&radius=",
  "results": [
    {
      "pk": 867,
      "franchise": 2,
      "name": "BS MOL ŠTANJEL",
      "address": "Štanjel 80",
      "lat": 45.81842,
      "lng": 13.84414,
      "prices": {
        "95": 1.384,
        "dizel": 1.404,
        "98": null,
        "100": 1.608,
        "dizel-premium": null,
        "avtoplin-lpg": null,
        "KOEL": null,
        "hvo": null,
        "cng": null,
        "lng": null
      },
      "distance": null,
      "direction": "",
      "open_hours": "Ponedeljek, Torek, Sreda, Četrtek, Petek, Sobota\n09:00-19:00\n\nNedelja, Praznik\n08:00-16:00\n",
      "zip_code": "6222"
    },
    {
      "pk": 869,
      "franchise": 2,
      "name": "BS MOL TREBNJE",
      "address": "Obrtniška 28",
      "lat": 45.910462,
      "lng": 15.025649,
      "prices": {
        "95": 1.384,
        "dizel": 1.404,
        "98": null,
        "100": 1.608,
        "dizel-premium": 1.561,
        "avtoplin-lpg": null,
        "KOEL": 1.007,
        "hvo": null,
        "cng": null,
        "lng": null
      },
      "distance": null,
      "direction": "",
      "open_hours": "06:00-22:00\n",
      "zip_code": "8210"
    },
    {
      "pk": 870,
      "franchise": 2,
      "name": "BS MOL VELENJE PARTIZANSKA",
      "address": "Partizanska c. 15a",
      "lat": 46.359472,
      "lng": 15.099174,
      "prices": {
        "95": 1.384,
        "dizel": 1.404,
        "98": null,
        "100": 1.608,
        "dizel-premium": null,
        "avtoplin-lpg": null,
        "KOEL": null,
        "hvo": null,
        "cng": null,
        "lng": null
      },
      "distance": null,
      "direction": "",
      "open_hours": "15.10.2025 – 31.03.2026\nSobota\n07:00-22:00\n\n01.04.2026 – 14.10.2026\nSobota\n06:00-22:00\n\nPonedeljek, Torek, Sreda, Četrtek, Petek\n06:00-22:00\n\nNedelja, Praznik\n07:00-22:00\n",
      "zip_code": "3320"
    },
    {
      "pk": 871,
      "franchise": 2,
      "name": "BS MOL VELENJE SELO",
      "address": "Selo 10a",
      "lat": 46.36972,
      "lng": 15.13265,
      "prices": {
        "95": 1.384,
        "dizel": 1.404,
        "98": null,
        "100": 1.608,
        "dizel-premium": 1.561,
        "avtoplin-lpg": null,
        "KOEL": 1.007,
        "hvo": null,
        "cng": null,
        "lng": null
      },
      "distance": null,
      "direction": "",
      "open_hours": "Ponedeljek, Torek, Sreda, Četrtek, Petek, Sobota\n06:00-22:00\n\nNedelja, Praznik\n07:00-22:00\n",
      "zip_code": "3320"
    },
    {
      "pk": 872,
      "franchise": 2,
      "name": "BS MOL VIPOLŽE",
      "address": "Vipolže 6b",
      "lat": 45.966782,
      "lng": 13.540767,
      "prices": {
        "95": 1.384,
        "dizel": 1.404,
        "98": null,
        "100": 1.608,
        "dizel-premium": 1.561,
        "avtoplin-lpg": null,
        "KOEL": null,
        "hvo": null,
        "cng": null,
        "lng": null
      },
      "distance": null,
      "direction": "",
      "open_hours": "Ponedeljek, Torek, Sreda, Četrtek, Petek, Sobota\n06:00-21:00\n\nNedelja, Praznik\n08:00-20:00\n",
      "zip_code": "5212"
    },
    {
      "pk": 873,
      "franchise": 2,
      "name": "BS MOL VIR DOMŽALE",
      "address": "Šaranovičeva c. 10a",
      "lat": 46.147666,
      "lng": 14.60635,
      "prices": {
        "95": 1.384,
        "dizel": 1.404,
        "98": null,
        "100": 1.608,
        "dizel-premium": null,
        "avtoplin-lpg": null,
        "KOEL": null,
        "hvo": null,
        "cng": null,
        "lng": null
      },
      "distance": null,
      "direction": "",
      "open_hours": "06:00-22:00\n",
      "zip_code": "1230"
    },
    {
      "pk": 874,
      "franchise": 4,
      "name": "BS MOL VRTOJBA",
      "address": "Polje 6",
      "lat": 45.920878,
      "lng": 13.631287,
      "prices": {
        "95": 1.384,
        "dizel": 1.404,
        "98": null,
        "100": 1.608,
        "dizel-premium": 1.561,
        "avtoplin-lpg": null,
        "KOEL": 1.007,
        "hvo": null,
        "cng": null,
        "lng": null
      },
      "distance": null,
      "direction": "",
      "open_hours": "06:00-22:00\n",
      "zip_code": "5290"
    },
    {
      "pk": 875,
      "franchise": 2,
      "name": "BS MOL ZAGRADEC",
      "address": "Zagradec 34",
      "lat": 45.85943,
      "lng": 14.83524,
      "prices": {
        "95": 1.384,
        "dizel": 1.404,
        "98": null,
        "100": 1.608,
        "dizel-premium": null,
        "avtoplin-lpg": null,
        "KOEL": 1.007,
        "hvo": null,
        "cng": null,
        "lng": null
      },
      "distance": null,
      "direction": "",
      "open_hours": "06:00-20:00\n",
      "zip_code": "1303"
    },
    {
      "pk": 1548,
      "franchise": 2,
      "name": "BS MOL KIDRIČEVO",
      "address": "TOVARNIŠKA CESTA 8A",
      "lat": 46.404094,
      "lng": 15.799085,
      "prices": {
        "95": 1.384,
        "dizel": 1.404,
        "98": null,
        "100": 1.608,
        "dizel-premium": 1.561,
        "avtoplin-lpg": null,
        "KOEL": null,
        "hvo": null,
        "cng": null,
        "lng": null
      },
      "distance": null,
      "direction": "",
      "open_hours": "Ponedeljek, Torek, Sreda, Četrtek, Petek, Sobota\n05:00-23:00\n\nNedelja, Praznik\n08:00-20:00\n",
      "zip_code": "2325"
    },
    {
      "pk": 1552,
      "franchise": 4,
      "name": "BS MOL KOČEVJE",
      "address": "LJUBLJANSKA CESTA 40",
      "lat": 45.6488405,
      "lng": 14.8544269,
      "prices": {
        "95": 1.384,
        "dizel": 1.404,
        "98": null,
        "100": 1.608,
        "dizel-premium": 1.561,
        "avtoplin-lpg": null,
        "KOEL": 1.007,
        "hvo": null,
        "cng": null,
        "lng": null
      },
      "distance": null,
      "direction": "",
      "open_hours": "Ponedeljek, Torek, Sreda, Četrtek, Petek, Sobota\n05:00-23:00\n\nNedelja, Praznik\n08:00-20:00\n",
      "zip_code": "1330"
    },
    {
      "pk": 1553,
      "franchise": 2,
      "name": "BS MOL SLOVENSKA BISTRICA",
      "address": "LJUBLJANSKA CESTA 91",
      "lat": 46.38245,
      "lng": 15.563571,
      "prices": {
        "95": 1.384,
        "dizel": 1.404,
        "98": null,
        "100": 1.608,
        "dizel-premium": 1.561,
        "avtoplin-lpg": null,
        "KOEL": 1.007,
        "hvo": null,
        "cng": null,
        "lng": null
      },
      "distance": null,
      "direction": "",
      "open_hours": "00:00-23:59\n",
      "zip_code": ""
    },
    {
      "pk": 1554,
      "franchise": 2,
      "name": "BS MOL MURSKA SOBOTA",
      "address": "MALA NOVA ULICA 1",
      "lat": 46.6560676,
      "lng": 16.1751469,
      "prices": {
        "95": 1.384,
        "dizel": 1.404,
        "98": null,
        "100": 1.608,
        "dizel-premium": 1.561,
        "avtoplin-lpg": null,
        "KOEL": null,
        "hvo": null,
        "cng": null,
        "lng": null
      },
      "distance": null,
      "direction": "",
      "open_hours": "Ponedeljek, Torek, Sreda, Četrtek, Petek, Sobota\n05:00-22:00\n\nNedelja, Praznik\n08:00-20:00\n",
      "zip_code": "9000"
    },
    {
      "pk": 1555,
      "franchise": 2,
      "name": "BS MOL RIBNICA",
      "address": "MERHARJEVA ULICA 13",
      "lat": 45.738688,
      "lng": 14.733154,
      "prices": {
        "95": 1.384,
        "dizel": 1.404,
        "98": null,
        "100": 1.608,
        "dizel-premium": 1.561,
        "avtoplin-lpg": null,
        "KOEL": 1.007,
        "hvo": null,
        "cng": null,
        "lng": null
      },
      "distance": null,
      "direction": "",
      "open_hours": "Ponedeljek, Torek, Sreda, Četrtek, Petek, Sobota\n05:00-23:00\n\nNedelja, Praznik\n08:00-20:00\n",
      "zip_code": "1310"
    },
    {
      "pk": 1556,
      "franchise": 4,
      "name": "BS MOL LOGATEC",
      "address": "TRŽAŠKA 74A",
      "lat": 45.9166669,
      "lng": 14.218824,
      "prices": {
        "95": 1.384,
        "dizel": 1.404,
        "98": null,
        "100": 1.608,
        "dizel-premium": 1.561,
        "avtoplin-lpg": null,
        "KOEL": 1.007,
        "hvo": null,
        "cng": null,
        "lng": null
      },
      "distance": null,
      "direction": "",
      "open_hours": "Ponedeljek, Torek, Sreda, Četrtek, Petek, Sobota\n05:00-23:00\n\nNedelja, Praznik\n08:00-20:00\n",
      "zip_code": "1370"
    },
    {
      "pk": 1557,
      "franchise": 4,
      "name": "BS MOL CELJE, MARIBORSKA",
      "address": "MARIBORSKA CESTA 111",
      "lat": 46.2451779,
      "lng": 15.2776158,
      "prices": {
        "95": 1.384,
        "dizel": 1.404,
        "98": null,
        "100": 1.608,
        "dizel-premium": 1.561,
        "avtoplin-lpg": null,
        "KOEL": 1.007,
        "hvo": null,
        "cng": null,
        "lng": null
      },
      "distance": null,
      "direction": "",
      "open_hours": "Ponedeljek\n00:00-23:00\n\nTorek, Sreda, Četrtek, Petek, Sobota\n05:00-23:00\n\nNedelja\n08:00-23:59\n\nPraznik\n08:00-20:00\n",
      "zip_code": "3000"
    },
    {
      "pk": 1559,
      "franchise": 4,
      "name": "BS MOL PINCE",
      "address": "LENDAVSKA CESTA 44 A",
      "lat": 46.522006,
      "lng": 16.51979,
      "prices": {
        "95": 1.384,
        "dizel": 1.404,
        "98": null,
        "100": 1.729,
        "dizel-premium": 1.689,
        "avtoplin-lpg": 0.848,
        "KOEL": null,
        "hvo": null,
        "cng": null,
        "lng": null
      },
      "distance": null,
      "direction": "smer Murska Sobota",
      "open_hours": "00:00-23:59\n",
      "zip_code": "9220"
    },
    {
      "pk": 1560,
      "franchise": 2,
      "name": "BS MOL ROŽNA DOLINA",
      "address": "ULICA ANGELA BESEDNJAKA 8A",
      "lat": 45.9404582,
      "lng": 13.6399226,
      "prices": {
        "95": 1.384,
        "dizel": 1.404,
        "98": null,
        "100": 1.608,
        "dizel-premium": 1.561,
        "avtoplin-lpg": 0.818,
        "KOEL": null,
        "hvo": null,
        "cng": null,
        "lng": null
      },
      "distance": null,
      "direction": "",
      "open_hours": "00:00-23:59\n",
      "zip_code": "5000"
    },
    {
      "pk": 1561,
      "franchise": 4,
      "name": "BS MOL RADVANJE MARIBOR",
      "address": "STRELIŠKA CESTA 16/A",
      "lat": 46.5360559,
      "lng": 15.6202679,
      "prices": {
        "95": 1.384,
        "dizel": 1.404,
        "98": null,
        "100": 1.608,
        "dizel-premium": 1.561,
        "avtoplin-lpg": 0.818,
        "KOEL": 1.007,
        "hvo": null,
        "cng": null,
        "lng": null
      },
      "distance": null,
      "direction": "",
      "open_hours": "Ponedeljek, Torek, Sreda, Četrtek, Petek, Sobota\n06:00-22:00\n\nNedelja, Praznik\n08:00-20:00\n",
      "zip_code": "2000"
    },
    {
      "pk": 1563,
      "franchise": 2,
      "name": "BS MOL GORNJA RADGONA",
      "address": "LJUTOMERSKA CESTA 12",
      "lat": 46.6699694,
      "lng": 15.9961534,
      "prices": {
        "95": 1.384,
        "dizel": 1.404,
        "98": null,
        "100": 1.608,
        "dizel-premium": 1.561,
        "avtoplin-lpg": null,
        "KOEL": null,
        "hvo": null,
        "cng": null,
        "lng": null
      },
      "distance": null,
      "direction": "",
      "open_hours": "Ponedeljek, Torek, Sreda, Četrtek, Petek, Sobota\n06:00-22:00\n\nNedelja, Praznik\n08:00-20:00\n",
      "zip_code": ""
    },
    {
      "pk": 1564,
      "franchise": 2,
      "name": "BS MOL HOČE",
      "address": "MIKLAVŠKA CESTA 80",
      "lat": 46.5005164,
      "lng": 15.6550055,
      "prices": {
        "95": 1.384,
        "dizel": 1.404,
        "98": null,
        "100": 1.608,
        "dizel-premium": 1.561,
        "avtoplin-lpg": null,
        "KOEL": null,
        "hvo": null,
        "cng": null,
        "lng": null
      },
      "distance": null,
      "direction": "",
      "open_hours": "Ponedeljek, Torek, Sreda, Četrtek, Petek, Sobota\n06:00-22:00\n\nNedelja\n07:00-22:00\n\nPraznik\n08:00-20:00\n",
      "zip_code": "2311"
    },
    {
      "pk": 1567,
      "franchise": 4,
      "name": "BS MOL SELNICA OB DRAVI",
      "address": "MARIBORSKA CESTA 10 C",
      "lat": 46.5523428,
      "lng": 15.4977882,
      "prices": {
        "95": 1.384,
        "dizel": 1.404,
        "98": null,
        "100": 1.608,
        "dizel-premium": 1.561,
        "avtoplin-lpg": null,
        "KOEL": 1.007,
        "hvo": null,
        "cng": null,
        "lng": null
      },
      "distance": null,
      "direction": "",
      "open_hours": "15.10.2025 – 31.03.2026\nPonedeljek, Torek, Sreda, Četrtek, Petek, Sobota\n05:00-22:00\n\n01.04.2026 – 14.10.2026\nPonedeljek, Torek, Sreda, Četrtek, Petek, Sobota\n05:00-23:00\n\nNedelja, Praznik\n08:00-20:00\n",
      "zip_code": ""
    },
    {
      "pk": 1568,
      "franchise": 2,
      "name": "BS MOL LORMANJE",
      "address": "LORMANJE 22D",
      "lat": 46.566917,
      "lng": 15.8255,
      "prices": {
        "95": 1.384,
        "dizel": 1.404,
        "98": null,
        "100": 1.729,
        "dizel-premium": 1.689,
        "avtoplin-lpg": 0.848,
        "KOEL": null,
        "hvo": null,
        "cng": null,
        "lng": null
      },
      "distance": null,
      "direction": "smer Maribor",
      "open_hours": "00:00-23:59\n",
      "zip_code": "2230"
    },
    {
      "pk": 1571,
      "franchise": 2,
      "name": "BS MOL DRAMLJE",
      "address": "LAZE PRI DRAMLJAH 6B",
      "lat": 46.260293,
      "lng": 15.3918165,
      "prices": {
        "95": 1.384,
        "dizel": 1.404,
        "98": null,
        "100": 1.608,
        "dizel-premium": 1.561,
        "avtoplin-lpg": 0.818,
        "KOEL": null,
        "hvo": null,
        "cng": null,
        "lng": null
      },
      "distance": null,
      "direction": "",
      "open_hours": "Ponedeljek, Torek, Sreda, Četrtek, Petek, Sobota\n05:00-22:00\n\nNedelja, Praznik\n08:00-22:00\n",
      "zip_code": "3222"
    },
    {
      "pk": 1572,
      "franchise": 4,
      "name": "BS MOL MESTINJE",
      "address": "MESTINJE 2A",
      "lat": 46.2343558,
      "lng": 15.5634657,
      "prices": {
        "95": 1.384,
        "dizel": 1.404,
        "98": null,
        "100": 1.608,
        "dizel-premium": 1.561,
        "avtoplin-lpg": null,
        "KOEL": 1.007,
        "hvo": null,
        "cng": null,
        "lng": null
      },
      "distance": null,
      "direction": "",
      "open_hours": "Ponedeljek, Torek, Sreda, Četrtek, Petek, Sobota\n06:00-22:00\n\nNedelja, Praznik\n08:00-20:00\n",
      "zip_code": "3241"
    },
    {
      "pk": 1575,
      "franchise": 4,
      "name": "BS MOL OTIŠKI VRH",
      "address": "OTIŠKI VRH 52",
      "lat": 46.5695,
      "lng": 15.036667,
      "prices": {
        "95": 1.384,
        "dizel": 1.404,
        "98": null,
        "100": 1.608,
        "dizel-premium": 1.561,
        "avtoplin-lpg": null,
        "KOEL": 1.007,
        "hvo": null,
        "cng": null,
        "lng": null
      },
      "distance": null,
      "direction": "",
      "open_hours": "01.09.2025 – \nSobota\n06:00-23:00\n\nPonedeljek, Torek, Sreda, Četrtek, Petek\n05:00-23:00\n\nNedelja, Praznik\n07:00-22:00\n",
      "zip_code": "2373"
    }
  ],
  "position": null
}
