{
  "count": 551,
  "next": "https://goriva.si/api/v1/search/?format=json&franchise=&name=&o=&page=20&position=&radius=",
  "previous": "https://goriva.si/api/v1/search/?format=json&franchise=&name=&o=&page=18&position=&radius=",
  "results": [
    {
      "pk": 2362,
      "franchise": 5,
      "name": "SHELL MARIBOR PTUJSKA ZAHOD",
      "address": "Ptujska cesta 104",
      "lat": 46.535127602458296,
      "lng": 15.661573380820581,
      "prices": {
        "95": 1.603,
        "dizel": 1.647,
        "98": null,
        "100": 1.899,
        "dizel-premium": 2.029,
        "avtoplin-lpg": null,
        "KOEL": null,
        "hvo": null,
        "cng": null,
        "lng": null
      },
      "distance": null,
      "direction": "",
      "open_hours": "",
      "zip_code": "2000"
    },
    {
      "pk": 2363,
      "franchise": 5,
      "name": "SHELL TRBOVLJE",
      "address": "Vodenska cesta 28 A",
      "lat": 46.14297981487424,
      "lng": 15.036054161327268,
      "prices": {
        "95": 1.603,
        "dizel": 1.647,
        "98": null,
        "100": 1.899,
        "dizel-premium": 2.029,
        "avtoplin-lpg": null,
        "KOEL": null,
        "hvo": null,
        "cng": null,
        "lng": null
      },
      "distance": null,
      "direction": "",
      "open_hours": "",
      "zip_code": "1420"
    },
    {
      "pk": 2364,
      "franchise": 5,
      "name": "SHELL IZOLA SEVER",
      "address": "Prešernova cesta 2a",
      "lat": 45.53789717461961,
      "lng": 13.66872067047427,
      "prices": {
        "95": 1.603,
        "dizel": 1.647,
        "98": null,
        "100": 1.899,
        "dizel-premium": 2.029,
        "avtoplin-lpg": null,
        "KOEL": null,
        "hvo": null,
        "cng": null,
        "lng": null
      },
      "distance": null,
      "direction": "",
      "open_hours": "",
      "zip_code": "6310"
    },
    {
      "pk": 2365,
      "franchise": 5,
      "name": "SHELL MARIBOR BOHOVA",
      "address": "Tržaška cesta 83",
      "lat": 46.51807271424088,
      "lng": 15.651544379912487,
      "prices": {
        "95": 1.603,
        "dizel": 1.647,
        "98": null,
        "100": 1.899,
        "dizel-premium": 2.029,
        "avtoplin-lpg": null,
        "KOEL": null,
        "hvo": null,
        "cng": null,
        "lng": null
      },
      "distance": null,
      "direction": "",
      "open_hours": "",
      "zip_code": "2000"
    },
    {
      "pk": 2366,
      "franchise": 5,
      "name": "SHELL GEDEROVCI",
      "address": "Gederovci 17a",
      "lat": 46.679179385276846,
      "lng": 16.056043959027516,
      "prices": {
        "95": 1.603,
        "dizel": 1.647,
        "98": null,
        "100": 1.899,
        "dizel-premium": 2.029,
        "avtoplin-lpg": null,
        "KOEL": null,
        "hvo": null,
        "cng": null,
        "lng": null
      },
      "distance": null,
      "direction": "",
      "open_hours": "",
      "zip_code": ""
    },
    {
      "pk": 2367,
      "franchise": 5,
      "name": "SHELL KOČEVJE",
      "address": "Gornje Ložine 1A",
      "lat": 45.68934644998123,
      "lng": 14.799691221318923,
      "prices": {
        "95": 1.603,
        "dizel": 1.647,
        "98": null,
        "100": 1.899,
        "dizel-premium": 1.639,
        "avtoplin-lpg": null,
        "KOEL": null,
        "hvo": null,
        "cng": null,
        "lng": null
      },
      "distance": null,
      "direction": "",
      "open_hours": "",
      "zip_code": "1332"
    },
    {
      "pk": 2368,
      "franchise": 5,
      "name": "SHELL SLOVENSKE KONJICE",
      "address": "Liptovska cesta 32B",
      "lat": 46.34011896303725,
      "lng": 15.418721900923186,
      "prices": {
        "95": 1.603,
        "dizel": 1.647,
        "98": null,
        "100": 1.899,
        "dizel-premium": 1.679,
        "avtoplin-lpg": null,
        "KOEL": null,
        "hvo": null,
        "cng": null,
        "lng": null
      },
      "distance": null,
      "direction": "",
      "open_hours": "",
      "zip_code": "2310"
    },
    {
      "pk": 2369,
      "franchise": 5,
      "name": "SHELL LUCIJA VZHOD",
      "address": "Vinjole 29b",
      "lat": 45.50086689761921,
      "lng": 13.610492852317408,
      "prices": {
        "95": 1.603,
        "dizel": 1.647,
        "98": null,
        "100": 1.899,
        "dizel-premium": null,
        "avtoplin-lpg": null,
        "KOEL": null,
        "hvo": null,
        "cng": null,
        "lng": null
      },
      "distance": null,
      "direction": "",
      "open_hours": "",
      "zip_code": "6320"
    },
    {
      "pk": 2370,
      "franchise": 5,
      "name": "SHELL STOJNCI",
      "address": "Stojnci 24",
      "lat": 46.38048175449777,
      "lng": 15.972530744906699,
      "prices": {
        "95": 1.603,
        "dizel": 1.647,
        "98": null,
        "100": 1.899,
        "dizel-premium": 1.679,
        "avtoplin-lpg": null,
        "KOEL": null,
        "hvo": null,
        "cng": null,
        "lng": null
      },
      "distance": null,
      "direction": "",
      "open_hours": "",
      "zip_code": "2281"
    },
    {
      "pk": 2371,
      "franchise": 5,
      "name": "SHELL AJŠEVICA",
      "address": "Loke 40",
      "lat": 45.953170561531195,
      "lng": 13.691872647114305,
      "prices": {
        "95": 1.603,
        "dizel": 1.647,
        "98": null,
        "100": 1.899,
        "dizel-premium": null,
        "avtoplin-lpg": null,
        "KOEL": null,
        "hvo": null,
        "cng": null,
        "lng": null
      },
      "distance": null,
      "direction": "",
      "open_hours": "",
      "zip_code": "5000"
    },
    {
      "pk": 2372,
      "franchise": 5,
      "name": "SHELL ZG. POLSKAVA",
      "address": "Bukovec 1b",
      "lat": 46.43088480445796,
      "lng": 15.627126931204163,
      "prices": {
        "95": 1.603,
        "dizel": 1.647,
        "98": null,
        "100": 1.899,
        "dizel-premium": 1.569,
        "avtoplin-lpg": null,
        "KOEL": null,
        "hvo": null,
        "cng": null,
        "lng": null
      },
      "distance": null,
      "direction": "",
      "open_hours": "",
      "zip_code": "2314"
    },
    {
      "pk": 777,
      "franchise": 2,
      "name": "BS MOL DOBRENJE VZHOD",
      "address": "Sp.Dobrenje 41a",
      "lat": 46.605931,
      "lng": 15.663342,
      "prices": {
        "95": 1.698,
        "dizel": 1.789,
        "98": null,
        "100": 1.998,
        "dizel-premium": 1.975,
        "avtoplin-lpg": null,
        "KOEL": null,
        "hvo": null,
        "cng": null,
        "lng": null
      },
      "distance": null,
      "direction": "Gradec",
      "open_hours": "00:00-23:59\n",
      "zip_code": "2211"
    },
    {
      "pk": 778,
      "franchise": 2,
      "name": "BS MOL DOBRENJE ZAHOD",
      "address": "Sp.Dobrenje 41d",
      "lat": 46.609699,
      "lng": 15.662384,
      "prices": {
        "95": 1.698,
        "dizel": 1.789,
        "98": null,
        "100": 1.998,
        "dizel-premium": 1.975,
        "avtoplin-lpg": null,
        "KOEL": null,
        "hvo": null,
        "cng": null,
        "lng": null
      },
      "distance": null,
      "direction": "Maribor",
      "open_hours": "00:00-23:59\n",
      "zip_code": "2211"
    },
    {
      "pk": 781,
      "franchise": 2,
      "name": "BS MOL DRAVSKO POLJE JUG",
      "address": "Gerečja vas 1h",
      "lat": 46.428962,
      "lng": 15.794118,
      "prices": {
        "95": 1.698,
        "dizel": 1.789,
        "98": null,
        "100": 1.998,
        "dizel-premium": 1.975,
        "avtoplin-lpg": 1.078,
        "KOEL": null,
        "hvo": null,
        "cng": null,
        "lng": null
      },
      "distance": null,
      "direction": "Zagreb",
      "open_hours": "00:00-23:59\n",
      "zip_code": "2288"
    },
    {
      "pk": 782,
      "franchise": 2,
      "name": "BS MOL DRAVSKO POLJE SEVER",
      "address": "Gerečja vas 1g",
      "lat": 46.428104,
      "lng": 15.796613,
      "prices": {
        "95": 1.698,
        "dizel": 1.789,
        "98": null,
        "100": 1.998,
        "dizel-premium": 1.975,
        "avtoplin-lpg": 1.078,
        "KOEL": null,
        "hvo": null,
        "cng": null,
        "lng": null
      },
      "distance": null,
      "direction": "Maribor",
      "open_hours": "00:00-23:59\n",
      "zip_code": "2288"
    },
    {
      "pk": 790,
      "franchise": 2,
      "name": "BS MOL FERNETIČI JUG",
      "address": "Partizanska c. 98",
      "lat": 45.704437,
      "lng": 13.846496,
      "prices": {
        "95": 1.698,
        "dizel": 1.789,
        "98": null,
        "100": 1.998,
        "dizel-premium": 1.975,
        "avtoplin-lpg": null,
        "KOEL": null,
        "hvo": null,
        "cng": null,
        "lng": null
      },
      "distance": null,
      "direction": "Ljubljana",
      "open_hours": "00:00-23:59\n",
      "zip_code": "6210"
    },
    {
      "pk": 791,
      "franchise": 2,
      "name": "BS MOL FERNETIČI SEVER",
      "address": "Partizanska c. 130",
      "lat": 45.70492,
      "lng": 13.84554,
      "prices": {
        "95": 1.698,
        "dizel": 1.789,
        "98": null,
        "100": 1.998,
        "dizel-premium": 1.975,
        "avtoplin-lpg": 1.078,
        "KOEL": null,
        "hvo": null,
        "cng": null,
        "lng": null
      },
      "distance": null,
      "direction": "Benetke",
      "open_hours": "00:00-23:59\n",
      "zip_code": "6210"
    },
    {
      "pk": 793,
      "franchise": 2,
      "name": "BS MOL GRABONOŠ",
      "address": "Grabonoš 4c",
      "lat": 46.584129,
      "lng": 16.008947,
      "prices": {
        "95": 1.698,
        "dizel": 1.789,
        "98": null,
        "100": 1.998,
        "dizel-premium": 1.975,
        "avtoplin-lpg": 1.078,
        "KOEL": null,
        "hvo": null,
        "cng": null,
        "lng": null
      },
      "distance": null,
      "direction": "Lenti",
      "open_hours": "00:00-23:59\n",
      "zip_code": "9244"
    },
    {
      "pk": 796,
      "franchise": 2,
      "name": "BS MOL GROSUPLJE CIKAVA",
      "address": "Ljubljanska cesta 129",
      "lat": 45.9730555555556,
      "lng": 14.625555555555556,
      "prices": {
        "95": 1.698,
        "dizel": 1.789,
        "98": null,
        "100": 1.998,
        "dizel-premium": 1.975,
        "avtoplin-lpg": 1.078,
        "KOEL": null,
        "hvo": null,
        "cng": null,
        "lng": null
      },
      "distance": null,
      "direction": "Grosuplje",
      "open_hours": "00:00-23:59\n",
      "zip_code": "1290"
    },
    {
      "pk": 823,
      "franchise": 2,
      "name": "BS MOL LOPATA JUG",
      "address": "Lopata 80",
      "lat": 46.261718,
      "lng": 15.22071,
      "prices": {
        "95": 1.698,
        "dizel": 1.789,
        "98": null,
        "100": 1.998,
        "dizel-premium": 1.975,
        "avtoplin-lpg": null,
        "KOEL": null,
        "hvo": null,
        "cng": null,
        "lng": null
      },
      "distance": null,
      "direction": "Maribor",
      "open_hours": "00:00-23:59\n",
      "zip_code": "3000"
    },
    {
      "pk": 828,
      "franchise": 2,
      "name": "BS MOL LUKOVICA",
      "address": "Koseskega cesta 4",
      "lat": 46.16606,
      "lng": 14.6896,
      "prices": {
        "95": 1.698,
        "dizel": 1.789,
        "98": null,
        "100": 1.998,
        "dizel-premium": 1.975,
        "avtoplin-lpg": 1.078,
        "KOEL": null,
        "hvo": null,
        "cng": null,
        "lng": null
      },
      "distance": null,
      "direction": "Ljubljana",
      "open_hours": "00:00-23:59\n",
      "zip_code": "1225"
    },
    {
      "pk": 837,
      "franchise": 2,
      "name": "BS MOL OBREŽJE JUG",
      "address": "Jesenice 36a",
      "lat": 45.854884,
      "lng": 15.684443,
      "prices": {
        "95": 1.698,
        "dizel": 1.789,
        "98": null,
        "100": 1.998,
        "dizel-premium": 1.975,
        "avtoplin-lpg": null,
        "KOEL": null,
        "hvo": null,
        "cng": null,
        "lng": null
      },
      "distance": null,
      "direction": "Zagreb",
      "open_hours": "00:00-23:59\n",
      "zip_code": "8261"
    },
    {
      "pk": 844,
      "franchise": 2,
      "name": "BS MOL RADOVLJICA JUG",
      "address": "Ljubljanska cesta 70",
      "lat": 46.33865,
      "lng": 14.19095,
      "prices": {
        "95": 1.698,
        "dizel": 1.789,
        "98": null,
        "100": 1.998,
        "dizel-premium": 1.975,
        "avtoplin-lpg": 1.078,
        "KOEL": null,
        "hvo": null,
        "cng": null,
        "lng": null
      },
      "distance": null,
      "direction": "Ljubljana",
      "open_hours": "00:00-23:59\n",
      "zip_code": "4240"
    },
    {
      "pk": 845,
      "franchise": 2,
      "name": "BS MOL RADOVLJICA SEVER",
      "address": "Ljubljanska cesta 71",
      "lat": 46.33934,
      "lng": 14.19201,
      "prices": {
        "95": 1.698,
        "dizel": 1.789,
        "98": null,
        "100": 1.998,
        "dizel-premium": 1.975,
        "avtoplin-lpg": 1.078,
        "KOEL": null,
        "hvo": null,
        "cng": null,
        "lng": null
      },
      "distance": null,
      "direction": "Jesenice",
      "open_hours": "00:00-23:59\n",
      "zip_code": "4240"
    },
    {
      "pk": 847,
      "franchise": 2,
      "name": "BS MOL RAVBARKOMANDA VZHOD",
      "address": "Javorniška pot 9a",
      "lat": 45.78312588,
      "lng": 14.22304178,
      "prices": {
        "95": 1.698,
        "dizel": 1.789,
        "98": null,
        "100": null,
        "dizel-premium": 1.975,
        "avtoplin-lpg": 1.078,
        "KOEL": null,
        "hvo": null,
        "cng": null,
        "lng": null
      },
      "distance": null,
      "direction": "Ljubljana",
      "open_hours": "00:00-23:59\n",
      "zip_code": "6230"
    }
  ],
  "position": null
}
