{
  "count": 551,
  "next": "https://goriva.si/api/v1/search/?format=json&franchise=&name=&o=&page=3&position=&radius=",
  "previous": "https://goriva.si/api/v1/search/?format=json&franchise=&name=&o=&position=&radius=",
  "results": [
    {
      "pk": 771,
      "franchise": 2,
      "name": "BS MOL BREŽICE",
      "address": "C.Svobode 35",
      "lat": 45.913737,
      "lng": 15.595365,
      "prices": {
        "95": 1.649,
        "dizel": 1.855,
        "98": null,
        "100": 1.998,
        "dizel-premium": 2.193,
        "avtoplin-lpg": null,
        "KOEL": 1.464,
        "hvo": null,
        "cng": null,
        "lng": null
      },
      "distance": null,
      "direction": "",
      "open_hours": "06:00-22:00\n",
      "zip_code": "8250"
    },
    {
      "pk": 773,
      "franchise": 2,
      "name": "BS MOL CELJE MARIBORSKA JUG",
      "address": "Mariborska c. 84",
      "lat": 46.23923,
      "lng": 15.27456,
      "prices": {
        "95": 1.649,
        "dizel": 1.855,
        "98": null,
        "100": 1.998,
        "dizel-premium": null,
        "avtoplin-lpg": null,
        "KOEL": 1.464,
        "hvo": null,
        "cng": null,
        "lng": null
      },
      "distance": null,
      "direction": "",
      "open_hours": "Ponedeljek, Torek, Sreda, Četrtek, Petek\n05:00-22:00\n\nSobota, Nedelja, Praznik\n06:00-22:00\n",
      "zip_code": "3000"
    },
    {
      "pk": 774,
      "franchise": 2,
      "name": "BS MOL CELJE LJUBLJANSKA",
      "address": "Ljubljanska cesta 110",
      "lat": 46.238118,
      "lng": 15.235194,
      "prices": {
        "95": 1.649,
        "dizel": 1.855,
        "98": null,
        "100": 1.998,
        "dizel-premium": null,
        "avtoplin-lpg": null,
        "KOEL": null,
        "hvo": null,
        "cng": null,
        "lng": null
      },
      "distance": null,
      "direction": "",
      "open_hours": "Ponedeljek, Torek, Sreda, Četrtek, Petek\n06:00-22:00\n\nSobota, Nedelja, Praznik\n07:00-21:00\n",
      "zip_code": "3000"
    },
    {
      "pk": 775,
      "franchise": 2,
      "name": "BS MOL ČRNOMELJ",
      "address": "Belokranjska c. 18a",
      "lat": 45.57995,
      "lng": 15.19583,
      "prices": {
        "95": 1.649,
        "dizel": 1.855,
        "98": null,
        "100": 1.998,
        "dizel-premium": 2.193,
        "avtoplin-lpg": null,
        "KOEL": null,
        "hvo": null,
        "cng": null,
        "lng": null
      },
      "distance": null,
      "direction": "",
      "open_hours": "Ponedeljek, Torek, Sreda, Četrtek, Petek, Sobota\n06:00-21:00\n\nNedelja, Praznik\n08:00-20:00\n",
      "zip_code": "8340"
    },
    {
      "pk": 776,
      "franchise": 2,
      "name": "BS MOL DIVAČA",
      "address": "Kolodvorska 1",
      "lat": 45.681494,
      "lng": 13.968687,
      "prices": {
        "95": 1.649,
        "dizel": 1.855,
        "98": null,
        "100": 1.998,
        "dizel-premium": null,
        "avtoplin-lpg": null,
        "KOEL": 1.464,
        "hvo": null,
        "cng": null,
        "lng": null
      },
      "distance": null,
      "direction": "",
      "open_hours": "Ponedeljek, Torek, Sreda, Četrtek, Petek, Sobota\n06:00-20:00\n\nNedelja, Praznik\n09:00-18:00\n",
      "zip_code": "6215"
    },
    {
      "pk": 779,
      "franchise": 2,
      "name": "BS MOL DOL PRI LJUBLJANI",
      "address": "Podgora pri Dolskem 40",
      "lat": 46.090168,
      "lng": 14.650805,
      "prices": {
        "95": 1.649,
        "dizel": 1.855,
        "98": null,
        "100": 1.998,
        "dizel-premium": null,
        "avtoplin-lpg": null,
        "KOEL": 1.464,
        "hvo": null,
        "cng": null,
        "lng": null
      },
      "distance": null,
      "direction": "",
      "open_hours": "Ponedeljek, Torek, Sreda, Četrtek, Petek\n06:00-21:00\n\nSobota\n07:00-20:00\n\nNedelja, Praznik\n08:00-20:00\n\nNedelja, Praznik\n08:00-20:00\n",
      "zip_code": "1262"
    },
    {
      "pk": 780,
      "franchise": 2,
      "name": "BS MOL DRAVOGRAD",
      "address": "Koroška c. 49",
      "lat": 46.59033,
      "lng": 15.01542,
      "prices": {
        "95": 1.649,
        "dizel": 1.855,
        "98": null,
        "100": 1.998,
        "dizel-premium": null,
        "avtoplin-lpg": null,
        "KOEL": 1.464,
        "hvo": null,
        "cng": null,
        "lng": null
      },
      "distance": null,
      "direction": "",
      "open_hours": "Januar / Februar / Marec / April / Oktober / November / December\nPonedeljek, Torek, Sreda, Četrtek, Petek, Sobota\n05:30-20:00\n\nMaj / Junij / Julij / Avgust / September\nPonedeljek, Torek, Sreda, Četrtek, Petek, Sobota\n07:00-21:00\n\nNedelja, Praznik\n07:00-20:00\n",
      "zip_code": "2370"
    },
    {
      "pk": 783,
      "franchise": 2,
      "name": "BS MOL DUTOVLJE",
      "address": "Dutovlje 3b",
      "lat": 45.755992,
      "lng": 13.835896,
      "prices": {
        "95": 1.649,
        "dizel": 1.855,
        "98": null,
        "100": 1.998,
        "dizel-premium": null,
        "avtoplin-lpg": null,
        "KOEL": 1.464,
        "hvo": null,
        "cng": null,
        "lng": null
      },
      "distance": null,
      "direction": "",
      "open_hours": "Januar / Februar / Marec / Oktober / November / December\nPonedeljek, Torek, Sreda, Četrtek, Petek, Sobota\n07:00-20:00\n\nJanuar / Februar / Marec / Oktober / November / December\nNedelja, Praznik\n08:00-20:00\n\nApril / Maj / Junij / Julij / Avgust / September\nPonedeljek, Torek, Sreda, Četrtek, Petek, Sobota\n07:00-21:00\n\nApril / Maj / Junij / Julij / Avgust / September\nNedelja, Praznik\n08:00-20:00\n",
      "zip_code": "6221"
    },
    {
      "pk": 789,
      "franchise": 2,
      "name": "BS MOL FERNETIČI",
      "address": "Partizanska c. 151",
      "lat": 45.701768,
      "lng": 13.841505,
      "prices": {
        "95": 1.649,
        "dizel": 1.855,
        "98": null,
        "100": 1.998,
        "dizel-premium": 2.193,
        "avtoplin-lpg": 0.928,
        "KOEL": null,
        "hvo": null,
        "cng": null,
        "lng": null
      },
      "distance": null,
      "direction": "Sežana",
      "open_hours": "07:00-22:00\n",
      "zip_code": "6210"
    },
    {
      "pk": 794,
      "franchise": 2,
      "name": "BS MOL GRAČIŠČE",
      "address": "Gračišče 4a",
      "lat": 45.501301,
      "lng": 13.873635,
      "prices": {
        "95": 1.649,
        "dizel": 1.855,
        "98": null,
        "100": null,
        "dizel-premium": null,
        "avtoplin-lpg": null,
        "KOEL": null,
        "hvo": null,
        "cng": null,
        "lng": null
      },
      "distance": null,
      "direction": "",
      "open_hours": "Januar / Februar / Marec / Oktober / November / December\nPonedeljek, Torek, Sreda, Četrtek, Petek, Sobota\n06:00-20:00\n\nJanuar / Februar / Marec / Oktober / November / December\nNedelja, Praznik\n08:00-20:00\n\nApril / Maj / Junij / Julij / Avgust / September\nPonedeljek, Torek, Sreda, Četrtek, Petek, Sobota\n06:00-21:00\n\nApril / Maj / Junij / Julij / Avgust / September\nNedelja, Praznik\n07:00-21:00\n",
      "zip_code": "6272"
    },
    {
      "pk": 797,
      "franchise": 2,
      "name": "BS MOL ILIRSKA BISTRICA",
      "address": "Bazoviška 45",
      "lat": 45.559604,
      "lng": 14.244346,
      "prices": {
        "95": 1.649,
        "dizel": 1.855,
        "98": null,
        "100": 1.998,
        "dizel-premium": 2.193,
        "avtoplin-lpg": null,
        "KOEL": 1.464,
        "hvo": null,
        "cng": null,
        "lng": null
      },
      "distance": null,
      "direction": "",
      "open_hours": "26.06.2026 – 31.08.2026\n00:00-23:59\n",
      "zip_code": "6250"
    },
    {
      "pk": 798,
      "franchise": 2,
      "name": "BS MOL IZOLA",
      "address": "Prešernova cesta 1a",
      "lat": 45.53687,
      "lng": 13.66795,
      "prices": {
        "95": 1.649,
        "dizel": 1.855,
        "98": null,
        "100": 1.998,
        "dizel-premium": 2.193,
        "avtoplin-lpg": null,
        "KOEL": null,
        "hvo": null,
        "cng": null,
        "lng": null
      },
      "distance": null,
      "direction": "",
      "open_hours": "06:00-22:00\n",
      "zip_code": "6310"
    },
    {
      "pk": 800,
      "franchise": 2,
      "name": "BS MOL KAMNIK",
      "address": "Perovo 32",
      "lat": 46.208865,
      "lng": 14.606844,
      "prices": {
        "95": 1.649,
        "dizel": 1.855,
        "98": null,
        "100": 1.998,
        "dizel-premium": 2.193,
        "avtoplin-lpg": null,
        "KOEL": null,
        "hvo": null,
        "cng": null,
        "lng": null
      },
      "distance": null,
      "direction": "",
      "open_hours": "05:00-22:00\n",
      "zip_code": "1240"
    },
    {
      "pk": 802,
      "franchise": 2,
      "name": "BS MOL KOMEN",
      "address": "Komen 119a",
      "lat": 45.816868,
      "lng": 13.745429,
      "prices": {
        "95": 1.649,
        "dizel": 1.855,
        "98": null,
        "100": 1.998,
        "dizel-premium": null,
        "avtoplin-lpg": null,
        "KOEL": null,
        "hvo": null,
        "cng": null,
        "lng": null
      },
      "distance": null,
      "direction": "",
      "open_hours": "Januar / Februar / Marec / Oktober / November / December\n07:00-19:00\n\nApril / Maj / Junij / Julij / Avgust / September\n07:00-20:00\n",
      "zip_code": "6223"
    },
    {
      "pk": 804,
      "franchise": 2,
      "name": "BS MOL KOPER BONIFIKA",
      "address": "Istrska cesta 14",
      "lat": 45.5404,
      "lng": 13.7263,
      "prices": {
        "95": 1.649,
        "dizel": 1.855,
        "98": null,
        "100": 2.048,
        "dizel-premium": 2.243,
        "avtoplin-lpg": 0.928,
        "KOEL": null,
        "hvo": null,
        "cng": null,
        "lng": null
      },
      "distance": null,
      "direction": "Portorož",
      "open_hours": "00:00-23:59\n",
      "zip_code": "6000"
    },
    {
      "pk": 806,
      "franchise": 2,
      "name": "BS MOL KOPER ANKARANSKA",
      "address": "Ankaranska c. 5d",
      "lat": 45.545957,
      "lng": 13.742681,
      "prices": {
        "95": 1.649,
        "dizel": 1.855,
        "98": null,
        "100": 1.998,
        "dizel-premium": null,
        "avtoplin-lpg": null,
        "KOEL": null,
        "hvo": null,
        "cng": null,
        "lng": null
      },
      "distance": null,
      "direction": "",
      "open_hours": "Ponedeljek, Torek, Sreda, Četrtek, Petek, Sobota\n06:00-22:00\n\nNedelja, Praznik\n09:00-21:00\n",
      "zip_code": "6000"
    },
    {
      "pk": 807,
      "franchise": 2,
      "name": "BS MOL KOPER ŠMARSKA",
      "address": "Šmarska c. 4a",
      "lat": 45.530207,
      "lng": 13.734777,
      "prices": {
        "95": 1.649,
        "dizel": 1.855,
        "98": null,
        "100": 1.998,
        "dizel-premium": 2.193,
        "avtoplin-lpg": null,
        "KOEL": 1.464,
        "hvo": null,
        "cng": null,
        "lng": null
      },
      "distance": null,
      "direction": "",
      "open_hours": "06:00-22:00\n",
      "zip_code": "6000"
    },
    {
      "pk": 808,
      "franchise": 2,
      "name": "BS MOL KOZINA",
      "address": "Mestni trg 7",
      "lat": 45.60807,
      "lng": 13.93501,
      "prices": {
        "95": 1.649,
        "dizel": 1.855,
        "98": null,
        "100": 1.998,
        "dizel-premium": null,
        "avtoplin-lpg": null,
        "KOEL": null,
        "hvo": null,
        "cng": null,
        "lng": null
      },
      "distance": null,
      "direction": "",
      "open_hours": "Ponedeljek, Torek, Sreda, Četrtek, Petek, Sobota\n06:00-22:00\n\nNedelja, Praznik\n07:00-22:00\n",
      "zip_code": "6240"
    },
    {
      "pk": 809,
      "franchise": 2,
      "name": "BS MOL KRANJ PRIMSKOVO",
      "address": "Cesta Staneta Žagarja 53c",
      "lat": 46.24277,
      "lng": 14.371453,
      "prices": {
        "95": 1.649,
        "dizel": 1.855,
        "98": null,
        "100": 1.998,
        "dizel-premium": null,
        "avtoplin-lpg": null,
        "KOEL": null,
        "hvo": null,
        "cng": null,
        "lng": null
      },
      "distance": null,
      "direction": "",
      "open_hours": "Ponedeljek, Torek, Sreda, Četrtek, Petek, Sobota\n06:00-22:00\n\nNedelja, Praznik\n07:00-20:00\n",
      "zip_code": "4000"
    },
    {
      "pk": 810,
      "franchise": 2,
      "name": "BS MOL KRŠKO",
      "address": "C.Krških žrtev 131a",
      "lat": 45.94429,
      "lng": 15.48733,
      "prices": {
        "95": 1.649,
        "dizel": 1.855,
        "98": null,
        "100": 1.998,
        "dizel-premium": 2.193,
        "avtoplin-lpg": null,
        "KOEL": 1.464,
        "hvo": null,
        "cng": null,
        "lng": null
      },
      "distance": null,
      "direction": "",
      "open_hours": "06:00-22:00\n",
      "zip_code": "8270"
    },
    {
      "pk": 811,
      "franchise": 2,
      "name": "BS MOL KRVAVI POTOK",
      "address": "Krvavi potok 1",
      "lat": 45.61885,
      "lng": 13.910126,
      "prices": {
        "95": 1.649,
        "dizel": 1.855,
        "98": null,
        "100": null,
        "dizel-premium": null,
        "avtoplin-lpg": null,
        "KOEL": null,
        "hvo": null,
        "cng": null,
        "lng": null
      },
      "distance": null,
      "direction": "Trst",
      "open_hours": "Ponedeljek, Torek, Sreda, Četrtek, Petek, Sobota\n08:00-15:00\n",
      "zip_code": "6240"
    },
    {
      "pk": 812,
      "franchise": 2,
      "name": "BS MOL LAZARET",
      "address": "Jadranska c. 1",
      "lat": 45.59283,
      "lng": 13.72411,
      "prices": {
        "95": 1.649,
        "dizel": 1.855,
        "98": null,
        "100": 1.998,
        "dizel-premium": 2.193,
        "avtoplin-lpg": null,
        "KOEL": null,
        "hvo": null,
        "cng": null,
        "lng": null
      },
      "distance": null,
      "direction": "Koper",
      "open_hours": "Januar / Februar / Marec / Oktober / November / December\n07:00-20:00\n\nApril / Maj\n07:00-21:00\n\nJunij / Julij / Avgust / September\n07:00-22:00\n",
      "zip_code": "6280"
    },
    {
      "pk": 813,
      "franchise": 2,
      "name": "BS MOL LESCE",
      "address": "Hraška c. 17",
      "lat": 46.365369,
      "lng": 14.16032,
      "prices": {
        "95": 1.649,
        "dizel": 1.855,
        "98": null,
        "100": 1.998,
        "dizel-premium": null,
        "avtoplin-lpg": null,
        "KOEL": null,
        "hvo": null,
        "cng": null,
        "lng": null
      },
      "distance": null,
      "direction": "",
      "open_hours": "06:00-22:00\n",
      "zip_code": "4248"
    },
    {
      "pk": 814,
      "franchise": 2,
      "name": "BS MOL LIPOVCI",
      "address": "Lipovci 243b",
      "lat": 46.625125,
      "lng": 16.214332,
      "prices": {
        "95": 1.649,
        "dizel": 1.855,
        "98": null,
        "100": 1.998,
        "dizel-premium": null,
        "avtoplin-lpg": null,
        "KOEL": 1.464,
        "hvo": null,
        "cng": null,
        "lng": null
      },
      "distance": null,
      "direction": "",
      "open_hours": "Ponedeljek, Torek, Sreda, Četrtek, Petek\n05:00-22:00\n\nSobota\n06:00-22:00\n\nNedelja, Praznik\n07:00-21:00\n",
      "zip_code": "9231"
    },
    {
      "pk": 815,
      "franchise": 2,
      "name": "BS MOL LITIJA",
      "address": "Zasavska c. 1",
      "lat": 46.058713,
      "lng": 14.832858,
      "prices": {
        "95": 1.649,
        "dizel": 1.855,
        "98": null,
        "100": 1.998,
        "dizel-premium": 2.193,
        "avtoplin-lpg": null,
        "KOEL": 1.464,
        "hvo": null,
        "cng": null,
        "lng": null
      },
      "distance": null,
      "direction": "",
      "open_hours": "Ponedeljek, Torek, Sreda, Četrtek, Petek\n06:00-22:00\n\nSobota\n07:00-21:00\n\nNedelja, Praznik\n08:00-20:00\n",
      "zip_code": "1270"
    }
  ],
  "position": null
}
