{
  "count": 551,
  "next": "https://goriva.si/api/v1/search/?format=json&franchise=&name=&o=&page=21&position=&radius=",
  "previous": "https://goriva.si/api/v1/search/?format=json&franchise=&name=&o=&page=19&position=&radius=",
  "results": [
    {
      "pk": 796,
      "franchise": 2,
      "name": "BS MOL GROSUPLJE CIKAVA",
      "address": "Ljubljanska cesta 129",
      "lat": 45.9730555555556,
      "lng": 14.625555555555556,
      "prices": {
        "95": 1.748,
        "dizel": 1.898,
        "98": null,
        "100": 2.098,
        "dizel-premium": 2.098,
        "avtoplin-lpg": 0.988,
        "KOEL": null,
        "hvo": null,
        "cng": null,
        "lng": null
      },
      "distance": null,
      "direction": "Grosuplje",
      "open_hours": "00:00-23:59\n",
      "zip_code": "1290"
    },
    {
      "pk": 823,
      "franchise": 2,
      "name": "BS MOL LOPATA JUG",
      "address": "Lopata 80",
      "lat": 46.261718,
      "lng": 15.22071,
      "prices": {
        "95": 1.748,
        "dizel": 1.898,
        "98": null,
        "100": 2.098,
        "dizel-premium": 2.098,
        "avtoplin-lpg": null,
        "KOEL": null,
        "hvo": null,
        "cng": null,
        "lng": null
      },
      "distance": null,
      "direction": "Maribor",
      "open_hours": "00:00-23:59\n",
      "zip_code": "3000"
    },
    {
      "pk": 828,
      "franchise": 2,
      "name": "BS MOL LUKOVICA",
      "address": "Koseskega cesta 4",
      "lat": 46.16606,
      "lng": 14.6896,
      "prices": {
        "95": 1.748,
        "dizel": 1.898,
        "98": null,
        "100": 2.098,
        "dizel-premium": 2.098,
        "avtoplin-lpg": 0.988,
        "KOEL": null,
        "hvo": null,
        "cng": null,
        "lng": null
      },
      "distance": null,
      "direction": "Ljubljana",
      "open_hours": "00:00-23:59\n",
      "zip_code": "1225"
    },
    {
      "pk": 837,
      "franchise": 2,
      "name": "BS MOL OBREŽJE JUG",
      "address": "Jesenice 36a",
      "lat": 45.854884,
      "lng": 15.684443,
      "prices": {
        "95": 1.748,
        "dizel": 1.898,
        "98": null,
        "100": 2.098,
        "dizel-premium": 2.098,
        "avtoplin-lpg": null,
        "KOEL": null,
        "hvo": null,
        "cng": null,
        "lng": null
      },
      "distance": null,
      "direction": "Zagreb",
      "open_hours": "00:00-23:59\n",
      "zip_code": "8261"
    },
    {
      "pk": 844,
      "franchise": 2,
      "name": "BS MOL RADOVLJICA JUG",
      "address": "Ljubljanska cesta 70",
      "lat": 46.33865,
      "lng": 14.19095,
      "prices": {
        "95": 1.748,
        "dizel": 1.898,
        "98": null,
        "100": 2.098,
        "dizel-premium": 2.098,
        "avtoplin-lpg": 0.988,
        "KOEL": null,
        "hvo": null,
        "cng": null,
        "lng": null
      },
      "distance": null,
      "direction": "Ljubljana",
      "open_hours": "00:00-23:59\n",
      "zip_code": "4240"
    },
    {
      "pk": 845,
      "franchise": 2,
      "name": "BS MOL RADOVLJICA SEVER",
      "address": "Ljubljanska cesta 71",
      "lat": 46.33934,
      "lng": 14.19201,
      "prices": {
        "95": 1.748,
        "dizel": 1.898,
        "98": null,
        "100": 2.098,
        "dizel-premium": 2.098,
        "avtoplin-lpg": 0.988,
        "KOEL": null,
        "hvo": null,
        "cng": null,
        "lng": null
      },
      "distance": null,
      "direction": "Jesenice",
      "open_hours": "00:00-23:59\n",
      "zip_code": "4240"
    },
    {
      "pk": 847,
      "franchise": 2,
      "name": "BS MOL RAVBARKOMANDA VZHOD",
      "address": "Javorniška pot 9a",
      "lat": 45.78312588,
      "lng": 14.22304178,
      "prices": {
        "95": 1.748,
        "dizel": 1.898,
        "98": null,
        "100": null,
        "dizel-premium": 2.098,
        "avtoplin-lpg": 0.988,
        "KOEL": null,
        "hvo": null,
        "cng": null,
        "lng": null
      },
      "distance": null,
      "direction": "Ljubljana",
      "open_hours": "00:00-23:59\n",
      "zip_code": "6230"
    },
    {
      "pk": 848,
      "franchise": 2,
      "name": "BS MOL RAVBARKOMANDA ZAHOD",
      "address": "Javorniška pot 7a",
      "lat": 45.78536414,
      "lng": 14.22271237,
      "prices": {
        "95": 1.748,
        "dizel": 1.898,
        "98": null,
        "100": null,
        "dizel-premium": 2.098,
        "avtoplin-lpg": 0.988,
        "KOEL": null,
        "hvo": null,
        "cng": null,
        "lng": null
      },
      "distance": null,
      "direction": "Koper",
      "open_hours": "00:00-23:59\n",
      "zip_code": "6230"
    },
    {
      "pk": 861,
      "franchise": 2,
      "name": "BS MOL ŠEMPAS",
      "address": "Šempas 160b",
      "lat": 45.917693,
      "lng": 13.721916,
      "prices": {
        "95": 1.748,
        "dizel": 1.898,
        "98": null,
        "100": 2.098,
        "dizel-premium": 2.098,
        "avtoplin-lpg": 0.988,
        "KOEL": null,
        "hvo": null,
        "cng": null,
        "lng": null
      },
      "distance": null,
      "direction": "Nova Gorica",
      "open_hours": "00:00-23:59\n",
      "zip_code": "5261"
    },
    {
      "pk": 1559,
      "franchise": 2,
      "name": "BS MOL PINCE",
      "address": "LENDAVSKA CESTA 44 A",
      "lat": 46.522006,
      "lng": 16.51979,
      "prices": {
        "95": 1.748,
        "dizel": 1.898,
        "98": null,
        "100": 2.098,
        "dizel-premium": 2.098,
        "avtoplin-lpg": 0.988,
        "KOEL": null,
        "hvo": null,
        "cng": null,
        "lng": null
      },
      "distance": null,
      "direction": "smer Murska Sobota",
      "open_hours": "00:00-23:59\n",
      "zip_code": "9220"
    },
    {
      "pk": 1568,
      "franchise": 2,
      "name": "BS MOL LORMANJE",
      "address": "LORMANJE 22D",
      "lat": 46.566917,
      "lng": 15.8255,
      "prices": {
        "95": 1.748,
        "dizel": 1.898,
        "98": null,
        "100": 2.098,
        "dizel-premium": 2.098,
        "avtoplin-lpg": 0.988,
        "KOEL": null,
        "hvo": null,
        "cng": null,
        "lng": null
      },
      "distance": null,
      "direction": "smer Maribor",
      "open_hours": "00:00-23:59\n",
      "zip_code": "2230"
    },
    {
      "pk": 2000,
      "franchise": 1,
      "name": "PETROL VRTOJBA AC - JUG",
      "address": "MEDNARODNI PREHOD 4A",
      "lat": 45.91934,
      "lng": 13.627636,
      "prices": {
        "95": 1.781,
        "dizel": 1.886,
        "98": null,
        "100": 2.081,
        "dizel-premium": 2.217,
        "avtoplin-lpg": 1.003,
        "KOEL": null,
        "hvo": null,
        "cng": null,
        "lng": null
      },
      "distance": null,
      "direction": "",
      "open_hours": "Ponedeljek, Torek, Sreda, Četrtek, Petek\n06:00-23:00\n\nSobota\n06:00-23:00\n\nNedelja, Praznik\n08:00-21:00\n",
      "zip_code": "5290"
    },
    {
      "pk": 2008,
      "franchise": 1,
      "name": "PETROL ŠEMPAS AC - JUG",
      "address": "ŠEMPAS 160C",
      "lat": 45.917,
      "lng": 13.719403,
      "prices": {
        "95": 1.781,
        "dizel": 1.886,
        "98": null,
        "100": 2.081,
        "dizel-premium": null,
        "avtoplin-lpg": null,
        "KOEL": null,
        "hvo": null,
        "cng": null,
        "lng": null
      },
      "distance": null,
      "direction": "",
      "open_hours": "00:00-23:59\n",
      "zip_code": "5261"
    },
    {
      "pk": 2030,
      "franchise": 1,
      "name": "PETROL POVIR AC - JUG",
      "address": "POVIR 95",
      "lat": 45.703393,
      "lng": 13.940151,
      "prices": {
        "95": 1.781,
        "dizel": 1.886,
        "98": null,
        "100": 2.081,
        "dizel-premium": null,
        "avtoplin-lpg": 1.003,
        "KOEL": null,
        "hvo": null,
        "cng": null,
        "lng": null
      },
      "distance": null,
      "direction": "Fernetiči -> Ljublja",
      "open_hours": "00:00-23:59\n",
      "zip_code": "6210"
    },
    {
      "pk": 2089,
      "franchise": 1,
      "name": "PETROL LOM AC - VZHOD",
      "address": "NOTRANJSKA CESTA 77",
      "lat": 45.89814,
      "lng": 14.256533,
      "prices": {
        "95": 1.781,
        "dizel": 1.886,
        "98": null,
        "100": 2.081,
        "dizel-premium": 2.217,
        "avtoplin-lpg": 1.003,
        "KOEL": null,
        "hvo": null,
        "cng": null,
        "lng": null
      },
      "distance": null,
      "direction": "Koper -> Ljubljana",
      "open_hours": "00:00-23:59\n",
      "zip_code": "1370"
    },
    {
      "pk": 1976,
      "franchise": 1,
      "name": "PETROL GRABONOŠ AC - SEVER",
      "address": "GRABONOŠ 4D",
      "lat": 46.585173,
      "lng": 16.007142,
      "prices": {
        "95": 1.786,
        "dizel": 1.891,
        "98": null,
        "100": 2.081,
        "dizel-premium": null,
        "avtoplin-lpg": 1.003,
        "KOEL": null,
        "hvo": null,
        "cng": null,
        "lng": null
      },
      "distance": null,
      "direction": "",
      "open_hours": "00:00-23:59\n",
      "zip_code": "9244"
    },
    {
      "pk": 1997,
      "franchise": 1,
      "name": "PETROL VRTOJBA AC - SEVER",
      "address": "MEDNARODNI PREHOD 1A",
      "lat": 45.920547,
      "lng": 13.628483,
      "prices": {
        "95": 1.786,
        "dizel": 1.891,
        "98": null,
        "100": 2.081,
        "dizel-premium": 2.217,
        "avtoplin-lpg": null,
        "KOEL": null,
        "hvo": null,
        "cng": null,
        "lng": null
      },
      "distance": null,
      "direction": "",
      "open_hours": "00:00-23:59\n",
      "zip_code": "5290"
    },
    {
      "pk": 2009,
      "franchise": 1,
      "name": "PETROL KOZINA AC - VZHOD",
      "address": "BAZOVIŠKA CESTA 23A",
      "lat": 45.60515,
      "lng": 13.928699,
      "prices": {
        "95": 1.786,
        "dizel": 1.891,
        "98": null,
        "100": 2.081,
        "dizel-premium": 2.217,
        "avtoplin-lpg": 1.003,
        "KOEL": null,
        "hvo": null,
        "cng": null,
        "lng": null
      },
      "distance": null,
      "direction": "Koper -> Ljubljana",
      "open_hours": "00:00-23:59\n",
      "zip_code": "6240"
    },
    {
      "pk": 2018,
      "franchise": 1,
      "name": "PETROL MURSKA SOBOTA AC - SEVER",
      "address": "BAKOVSKA ULICA 53",
      "lat": 46.635944,
      "lng": 16.166272,
      "prices": {
        "95": 1.786,
        "dizel": 1.891,
        "98": null,
        "100": 2.081,
        "dizel-premium": null,
        "avtoplin-lpg": 1.003,
        "KOEL": null,
        "hvo": null,
        "cng": null,
        "lng": null
      },
      "distance": null,
      "direction": "",
      "open_hours": "00:00-23:59\n",
      "zip_code": "9000"
    },
    {
      "pk": 2019,
      "franchise": 1,
      "name": "PETROL MURSKA SOBOTA AC - JUG",
      "address": "BAKOVSKA ULICA 51",
      "lat": 46.634461,
      "lng": 16.164346,
      "prices": {
        "95": 1.786,
        "dizel": 1.891,
        "98": null,
        "100": 2.081,
        "dizel-premium": null,
        "avtoplin-lpg": null,
        "KOEL": null,
        "hvo": null,
        "cng": null,
        "lng": null
      },
      "distance": null,
      "direction": "",
      "open_hours": "00:00-23:59\n",
      "zip_code": "9000"
    },
    {
      "pk": 2026,
      "franchise": 1,
      "name": "PETROL LORMANJE AC - JUG",
      "address": "LORMANJE 22C",
      "lat": 46.564825,
      "lng": 15.826899,
      "prices": {
        "95": 1.786,
        "dizel": 1.891,
        "98": null,
        "100": 2.081,
        "dizel-premium": null,
        "avtoplin-lpg": 1.003,
        "KOEL": null,
        "hvo": null,
        "cng": null,
        "lng": null
      },
      "distance": null,
      "direction": "Maribor -> Madžarska",
      "open_hours": "00:00-23:59\n",
      "zip_code": "2230"
    },
    {
      "pk": 2027,
      "franchise": 1,
      "name": "PETROL PINCE AC - JUG",
      "address": "PINCE-MAROF 55",
      "lat": 46.521752,
      "lng": 16.51791,
      "prices": {
        "95": 1.786,
        "dizel": 1.891,
        "98": null,
        "100": 2.081,
        "dizel-premium": 2.217,
        "avtoplin-lpg": 1.003,
        "KOEL": null,
        "hvo": null,
        "cng": null,
        "lng": null
      },
      "distance": null,
      "direction": "Maribor -> Madžarska",
      "open_hours": "00:00-23:59\n",
      "zip_code": "9220"
    },
    {
      "pk": 2031,
      "franchise": 1,
      "name": "PETROL POVIR AC - SEVER",
      "address": "POVIR 96",
      "lat": 45.703632,
      "lng": 13.941688,
      "prices": {
        "95": 1.786,
        "dizel": 1.891,
        "98": null,
        "100": 2.081,
        "dizel-premium": null,
        "avtoplin-lpg": 1.003,
        "KOEL": null,
        "hvo": null,
        "cng": null,
        "lng": null
      },
      "distance": null,
      "direction": "",
      "open_hours": "00:00-23:59\n",
      "zip_code": "6210"
    },
    {
      "pk": 2032,
      "franchise": 1,
      "name": "PETROL VIPAVA AC - SEVER",
      "address": "GORIŠKA CESTA 3A",
      "lat": 45.829264,
      "lng": 13.958807,
      "prices": {
        "95": 1.786,
        "dizel": 1.891,
        "98": null,
        "100": 2.081,
        "dizel-premium": 2.217,
        "avtoplin-lpg": 1.003,
        "KOEL": null,
        "hvo": null,
        "cng": null,
        "lng": null
      },
      "distance": null,
      "direction": "",
      "open_hours": "00:00-23:59\n",
      "zip_code": "5271"
    },
    {
      "pk": 2088,
      "franchise": 1,
      "name": "PETROL LOM AC - ZAHOD",
      "address": "NOTRANJSKA CESTA 75",
      "lat": 45.898796,
      "lng": 14.254887,
      "prices": {
        "95": 1.786,
        "dizel": 1.891,
        "98": null,
        "100": 2.081,
        "dizel-premium": 2.217,
        "avtoplin-lpg": 1.003,
        "KOEL": null,
        "hvo": null,
        "cng": null,
        "lng": null
      },
      "distance": null,
      "direction": "Ljubljana -> Koper",
      "open_hours": "00:00-23:59\n",
      "zip_code": "1370"
    }
  ],
  "position": null
}
