{
  "count": 552,
  "next": "https://goriva.si/api/v1/search/?format=json&franchise=&name=&o=&page=7&position=&radius=",
  "previous": "https://goriva.si/api/v1/search/?format=json&franchise=&name=&o=&page=5&position=&radius=",
  "results": [
    {
      "pk": 1933,
      "franchise": 1,
      "name": "PETROL RAČE",
      "address": "LJUBLJANSKA CESTA 22",
      "lat": 46.45289915,
      "lng": 15.67336264,
      "prices": {
        "95": 1.436,
        "dizel": 1.465,
        "98": null,
        "100": null,
        "dizel-premium": null,
        "avtoplin-lpg": null,
        "KOEL": 1.071,
        "hvo": null,
        "cng": null,
        "lng": null
      },
      "distance": null,
      "direction": "",
      "open_hours": "Ponedeljek, Torek, Sreda, Četrtek, Petek\n06:00-20:00\n\nSobota\n07:00-20:00\n\nNedelja, Praznik\n08:00-13:00\n",
      "zip_code": "2327"
    },
    {
      "pk": 1934,
      "franchise": 1,
      "name": "PETROL MARIBOR - TRŽAŠKA 10",
      "address": "TRŽAŠKA CESTA 10",
      "lat": 46.54123587,
      "lng": 15.64785997,
      "prices": {
        "95": 1.436,
        "dizel": 1.465,
        "98": null,
        "100": null,
        "dizel-premium": null,
        "avtoplin-lpg": null,
        "KOEL": null,
        "hvo": null,
        "cng": null,
        "lng": null
      },
      "distance": null,
      "direction": "",
      "open_hours": "Ponedeljek, Torek, Sreda, Četrtek, Petek\n07:00-20:00\n\nSobota\n07:00-20:00\n\nNedelja, Praznik\n08:00-20:00\n",
      "zip_code": "2000"
    },
    {
      "pk": 1935,
      "franchise": 1,
      "name": "PETROL ŠEMPETER PRI GORICI - PADLIH BORCEV",
      "address": "ULICA PADLIH BORCEV 2",
      "lat": 45.92923326,
      "lng": 13.64146317,
      "prices": {
        "95": 1.436,
        "dizel": 1.465,
        "98": null,
        "100": 1.671,
        "dizel-premium": null,
        "avtoplin-lpg": null,
        "KOEL": 1.071,
        "hvo": null,
        "cng": null,
        "lng": null
      },
      "distance": null,
      "direction": "",
      "open_hours": "Ponedeljek, Torek, Sreda, Četrtek, Petek\n07:00-20:00\n\nSobota\n07:00-20:00\n",
      "zip_code": "5290"
    },
    {
      "pk": 1936,
      "franchise": 1,
      "name": "PETROL ŠENTILJ - MARIBORSKA",
      "address": "MARIBORSKA CESTA 49",
      "lat": 46.67188025,
      "lng": 15.66080301,
      "prices": {
        "95": 1.436,
        "dizel": 1.465,
        "98": null,
        "100": null,
        "dizel-premium": null,
        "avtoplin-lpg": null,
        "KOEL": 1.071,
        "hvo": null,
        "cng": null,
        "lng": null
      },
      "distance": null,
      "direction": "",
      "open_hours": "Ponedeljek, Torek, Sreda, Četrtek, Petek\n06:00-20:00\n\nSobota\n07:00-19:00\n\nNedelja, Praznik\n07:00-18:00\n",
      "zip_code": "2212"
    },
    {
      "pk": 1937,
      "franchise": 1,
      "name": "PETROL STARŠE",
      "address": "STARŠE 78A",
      "lat": 46.46753906,
      "lng": 15.76300861,
      "prices": {
        "95": 1.436,
        "dizel": 1.465,
        "98": null,
        "100": null,
        "dizel-premium": null,
        "avtoplin-lpg": null,
        "KOEL": 1.071,
        "hvo": null,
        "cng": null,
        "lng": null
      },
      "distance": null,
      "direction": "",
      "open_hours": "Ponedeljek, Torek, Sreda, Četrtek, Petek\n07:00-19:00\n\nSobota\n07:00-19:00\n",
      "zip_code": "2205"
    },
    {
      "pk": 1938,
      "franchise": 1,
      "name": "PETROL POLJČANE",
      "address": "BISTRIŠKA CESTA 93",
      "lat": 46.309005,
      "lng": 15.577384,
      "prices": {
        "95": 1.436,
        "dizel": 1.465,
        "98": null,
        "100": null,
        "dizel-premium": null,
        "avtoplin-lpg": null,
        "KOEL": 1.071,
        "hvo": null,
        "cng": null,
        "lng": null
      },
      "distance": null,
      "direction": "",
      "open_hours": "Ponedeljek, Torek, Sreda, Četrtek, Petek\n06:00-19:00\n\nSobota\n07:00-19:00\n\nNedelja, Praznik\n08:00-13:00\n",
      "zip_code": "2319"
    },
    {
      "pk": 1939,
      "franchise": 1,
      "name": "PETROL SLIVNICA ZAHOD",
      "address": "POT K ČRPALKI 5",
      "lat": 46.482509,
      "lng": 15.654919,
      "prices": {
        "95": 1.436,
        "dizel": 1.465,
        "98": null,
        "100": null,
        "dizel-premium": null,
        "avtoplin-lpg": null,
        "KOEL": 1.071,
        "hvo": null,
        "cng": null,
        "lng": null
      },
      "distance": null,
      "direction": "",
      "open_hours": "Ponedeljek, Torek, Sreda, Četrtek, Petek\n06:00-20:00\n\nSobota\n06:00-20:00\n\nNedelja, Praznik\n08:00-19:00\n",
      "zip_code": "2312"
    },
    {
      "pk": 1940,
      "franchise": 1,
      "name": "PETROL MARIBOR - GOSPOSVETSKA JUG",
      "address": "GOSPOSVETSKA CESTA 81",
      "lat": 46.56349021,
      "lng": 15.62652364,
      "prices": {
        "95": 1.436,
        "dizel": 1.465,
        "98": null,
        "100": null,
        "dizel-premium": null,
        "avtoplin-lpg": null,
        "KOEL": 1.071,
        "hvo": null,
        "cng": null,
        "lng": null
      },
      "distance": null,
      "direction": "",
      "open_hours": "Ponedeljek, Torek, Sreda, Četrtek, Petek\n06:00-19:00\n\nSobota\n07:00-17:00\n",
      "zip_code": "2000"
    },
    {
      "pk": 1941,
      "franchise": 1,
      "name": "PETROL OPLOTNICA",
      "address": "PARTIZANSKA CESTA 31",
      "lat": 46.38403,
      "lng": 15.448916,
      "prices": {
        "95": 1.436,
        "dizel": 1.465,
        "98": null,
        "100": null,
        "dizel-premium": null,
        "avtoplin-lpg": null,
        "KOEL": 1.071,
        "hvo": null,
        "cng": null,
        "lng": null
      },
      "distance": null,
      "direction": "",
      "open_hours": "Ponedeljek, Torek, Sreda, Četrtek, Petek\n07:00-19:00\n\nSobota\n07:00-16:00\n\nNedelja, Praznik\n08:00-13:00\n",
      "zip_code": "2317"
    },
    {
      "pk": 1942,
      "franchise": 1,
      "name": "PETROL SELNICA OB DRAVI",
      "address": "MARIBORSKA CESTA 46",
      "lat": 46.54934191,
      "lng": 15.4860149,
      "prices": {
        "95": 1.436,
        "dizel": 1.465,
        "98": null,
        "100": 1.671,
        "dizel-premium": null,
        "avtoplin-lpg": null,
        "KOEL": 1.071,
        "hvo": null,
        "cng": null,
        "lng": null
      },
      "distance": null,
      "direction": "",
      "open_hours": "Ponedeljek, Torek, Sreda, Četrtek, Petek\n06:00-20:00\n\nSobota\n06:00-19:00\n\nNedelja, Praznik\n08:00-18:00\n",
      "zip_code": "2352"
    },
    {
      "pk": 1943,
      "franchise": 1,
      "name": "PETROL MARIBOR - NA POLJANAH",
      "address": "NA POLJANAH 10",
      "lat": 46.551953,
      "lng": 15.630002,
      "prices": {
        "95": 1.436,
        "dizel": 1.465,
        "98": null,
        "100": 1.671,
        "dizel-premium": null,
        "avtoplin-lpg": 0.849,
        "KOEL": 1.071,
        "hvo": null,
        "cng": null,
        "lng": null
      },
      "distance": null,
      "direction": "",
      "open_hours": "Ponedeljek, Torek, Sreda, Četrtek, Petek\n06:00-22:00\n\nSobota\n06:00-22:00\n\nNedelja, Praznik\n07:00-22:00\n",
      "zip_code": "2000"
    },
    {
      "pk": 1944,
      "franchise": 1,
      "name": "PETROL LOVRENC NA POHORJU",
      "address": "MARIBORSKA CESTA 43",
      "lat": 46.54696377,
      "lng": 15.40182431,
      "prices": {
        "95": 1.436,
        "dizel": 1.465,
        "98": null,
        "100": null,
        "dizel-premium": null,
        "avtoplin-lpg": null,
        "KOEL": 1.071,
        "hvo": null,
        "cng": null,
        "lng": null
      },
      "distance": null,
      "direction": "",
      "open_hours": "Ponedeljek, Torek, Sreda, Četrtek, Petek\n06:00-19:00\n\nSobota\n06:00-19:00\n",
      "zip_code": "2344"
    },
    {
      "pk": 1945,
      "franchise": 1,
      "name": "PETROL ŠENTILJ AC - VZHOD",
      "address": "CESTA 2. JULIJA 22",
      "lat": 46.6859127,
      "lng": 15.65055471,
      "prices": {
        "95": 1.436,
        "dizel": 1.465,
        "98": null,
        "100": 1.791,
        "dizel-premium": null,
        "avtoplin-lpg": 0.879,
        "KOEL": null,
        "hvo": null,
        "cng": null,
        "lng": null
      },
      "distance": null,
      "direction": "",
      "open_hours": "00:00-23:59\n",
      "zip_code": "2212"
    },
    {
      "pk": 1946,
      "franchise": 1,
      "name": "PETROL SREDIŠČE OB DRAVI",
      "address": "SLOVENSKA CESTA 91A",
      "lat": 46.394433,
      "lng": 16.277736,
      "prices": {
        "95": 1.436,
        "dizel": 1.465,
        "98": null,
        "100": null,
        "dizel-premium": null,
        "avtoplin-lpg": null,
        "KOEL": 1.071,
        "hvo": null,
        "cng": null,
        "lng": null
      },
      "distance": null,
      "direction": "",
      "open_hours": "Ponedeljek, Torek, Sreda, Četrtek, Petek\n06:00-18:00\n\nSobota\n06:00-14:00\n\nNedelja, Praznik\n07:00-12:00\n",
      "zip_code": "2277"
    },
    {
      "pk": 1947,
      "franchise": 1,
      "name": "PETROL NOVA GORICA - VOJKOVA VZHOD",
      "address": "VOJKOVA CESTA 51",
      "lat": 45.962335,
      "lng": 13.649495,
      "prices": {
        "95": 1.436,
        "dizel": 1.465,
        "98": null,
        "100": 1.671,
        "dizel-premium": null,
        "avtoplin-lpg": null,
        "KOEL": 1.071,
        "hvo": null,
        "cng": null,
        "lng": null
      },
      "distance": null,
      "direction": "",
      "open_hours": "06:00-23:00\n",
      "zip_code": "5000"
    },
    {
      "pk": 1948,
      "franchise": 1,
      "name": "PETROL MOŠKANJCI",
      "address": "MOŠKANJCI 1G",
      "lat": 46.41689,
      "lng": 15.985636,
      "prices": {
        "95": 1.436,
        "dizel": 1.465,
        "98": null,
        "100": 1.671,
        "dizel-premium": null,
        "avtoplin-lpg": 0.849,
        "KOEL": 1.071,
        "hvo": null,
        "cng": null,
        "lng": null
      },
      "distance": null,
      "direction": "",
      "open_hours": "06:00-21:00\n",
      "zip_code": "2272"
    },
    {
      "pk": 1949,
      "franchise": 1,
      "name": "PETROL PODLEHNIK AC - VZHOD",
      "address": "STANOŠINA 35",
      "lat": 46.326604,
      "lng": 15.880214,
      "prices": {
        "95": 1.436,
        "dizel": 1.465,
        "98": null,
        "100": 1.791,
        "dizel-premium": 1.983,
        "avtoplin-lpg": 0.879,
        "KOEL": null,
        "hvo": null,
        "cng": null,
        "lng": null
      },
      "distance": null,
      "direction": "",
      "open_hours": "00:00-23:59\n",
      "zip_code": "2286"
    },
    {
      "pk": 1950,
      "franchise": 1,
      "name": "PETROL IDRIJA",
      "address": "VOJKOVA ULICA 27",
      "lat": 46.00620792,
      "lng": 14.02764615,
      "prices": {
        "95": 1.436,
        "dizel": 1.465,
        "98": null,
        "100": 1.671,
        "dizel-premium": 1.861,
        "avtoplin-lpg": null,
        "KOEL": 1.071,
        "hvo": null,
        "cng": null,
        "lng": null
      },
      "distance": null,
      "direction": "",
      "open_hours": "Ponedeljek, Torek, Sreda, Četrtek, Petek\n05:30-21:00\n\nSobota\n06:00-21:00\n\nNedelja, Praznik\n07:00-21:00\n",
      "zip_code": "5280"
    },
    {
      "pk": 1952,
      "franchise": 1,
      "name": "PETROL ROŽNA DOLINA",
      "address": "VIPAVSKA CESTA 3A",
      "lat": 45.942191,
      "lng": 13.638451,
      "prices": {
        "95": 1.436,
        "dizel": 1.465,
        "98": null,
        "100": 1.671,
        "dizel-premium": 1.861,
        "avtoplin-lpg": 0.849,
        "KOEL": null,
        "hvo": null,
        "cng": null,
        "lng": null
      },
      "distance": null,
      "direction": "",
      "open_hours": "00:00-23:59\n",
      "zip_code": "5000"
    },
    {
      "pk": 1953,
      "franchise": 1,
      "name": "PETROL ČRNCI",
      "address": "ČRNCI 47A",
      "lat": 46.69630599,
      "lng": 15.88782207,
      "prices": {
        "95": 1.436,
        "dizel": 1.465,
        "98": null,
        "100": null,
        "dizel-premium": null,
        "avtoplin-lpg": null,
        "KOEL": 1.071,
        "hvo": null,
        "cng": null,
        "lng": null
      },
      "distance": null,
      "direction": "",
      "open_hours": "Ponedeljek, Torek, Sreda, Četrtek, Petek\n05:00-19:00\n\nSobota\n07:00-17:00\n\nNedelja, Praznik\n08:00-12:00\n",
      "zip_code": "9253"
    },
    {
      "pk": 1954,
      "franchise": 1,
      "name": "PETROL MARIBOR - POBREŽJE",
      "address": "ČUFARJEVA CESTA 10",
      "lat": 46.5542838,
      "lng": 15.66939413,
      "prices": {
        "95": 1.436,
        "dizel": 1.465,
        "98": null,
        "100": 1.671,
        "dizel-premium": null,
        "avtoplin-lpg": null,
        "KOEL": 1.071,
        "hvo": null,
        "cng": null,
        "lng": null
      },
      "distance": null,
      "direction": "",
      "open_hours": "Ponedeljek, Torek, Sreda, Četrtek, Petek\n06:00-21:00\n\nSobota\n07:00-21:00\n\nNedelja, Praznik\n07:00-21:00\n",
      "zip_code": "2000"
    },
    {
      "pk": 1955,
      "franchise": 1,
      "name": "PETROL MOST NA SOČI",
      "address": "MOST NA SOČI 51B",
      "lat": 46.15283904,
      "lng": 13.74145196,
      "prices": {
        "95": 1.436,
        "dizel": 1.465,
        "98": null,
        "100": 1.671,
        "dizel-premium": null,
        "avtoplin-lpg": null,
        "KOEL": null,
        "hvo": null,
        "cng": null,
        "lng": null
      },
      "distance": null,
      "direction": "",
      "open_hours": "Ponedeljek, Torek, Sreda, Četrtek, Petek\n07:00-19:00\n\nSobota\n07:00-19:00\n\nNedelja, Praznik\n12:00-17:00, 17:30-19:00\n",
      "zip_code": "5216"
    },
    {
      "pk": 1956,
      "franchise": 1,
      "name": "PETROL MARIBOR - PTUJSKA 188",
      "address": "PTUJSKA CESTA 188",
      "lat": 46.52829802,
      "lng": 15.67244913,
      "prices": {
        "95": 1.436,
        "dizel": 1.465,
        "98": null,
        "100": 1.671,
        "dizel-premium": null,
        "avtoplin-lpg": 0.849,
        "KOEL": null,
        "hvo": null,
        "cng": null,
        "lng": null
      },
      "distance": null,
      "direction": "",
      "open_hours": "Ponedeljek, Torek, Sreda, Četrtek, Petek\n05:00-22:00\n\nSobota\n06:00-22:00\n\nNedelja, Praznik\n07:00-21:00\n",
      "zip_code": "2000"
    },
    {
      "pk": 1957,
      "franchise": 1,
      "name": "PETROL KOBARID",
      "address": "GORIŠKA CESTA 8",
      "lat": 46.2417162,
      "lng": 13.58250354,
      "prices": {
        "95": 1.436,
        "dizel": 1.465,
        "98": null,
        "100": 1.671,
        "dizel-premium": null,
        "avtoplin-lpg": 0.849,
        "KOEL": 1.071,
        "hvo": null,
        "cng": null,
        "lng": null
      },
      "distance": null,
      "direction": "",
      "open_hours": "Ponedeljek, Torek, Sreda, Četrtek, Petek\n00:00-06:00, 06:00-21:00, 21:00-00:00\n\nSobota\n00:00-07:00, 07:00-21:00, 21:00-00:00\n\nNedelja, Praznik\n00:00-08:00, 08:00-21:00, 21:00-00:00\n",
      "zip_code": "5222"
    },
    {
      "pk": 1958,
      "franchise": 1,
      "name": "PETROL KANAL OB SOČI",
      "address": "KIDRIČEVA CESTA 10A",
      "lat": 46.08786527,
      "lng": 13.63259475,
      "prices": {
        "95": 1.436,
        "dizel": 1.465,
        "98": null,
        "100": 1.671,
        "dizel-premium": null,
        "avtoplin-lpg": null,
        "KOEL": 1.071,
        "hvo": null,
        "cng": null,
        "lng": null
      },
      "distance": null,
      "direction": "",
      "open_hours": "Ponedeljek, Torek, Sreda, Četrtek, Petek\n07:00-19:00\n\nSobota\n07:00-19:00\n\nNedelja, Praznik\n13:00-17:00, 17:30-19:00\n",
      "zip_code": "5213"
    }
  ],
  "position": null
}
