{
  "count": 551,
  "next": "https://goriva.si/api/v1/search/?format=json&franchise=&name=&o=&page=4&position=&radius=",
  "previous": "https://goriva.si/api/v1/search/?format=json&franchise=&name=&o=&page=2&position=&radius=",
  "results": [
    {
      "pk": 852,
      "franchise": 2,
      "name": "BS MOL SENOŽEČE",
      "address": "Senožeče 10a",
      "lat": 45.72321,
      "lng": 14.04572,
      "prices": {
        "95": 1.605,
        "dizel": 1.736,
        "98": null,
        "100": null,
        "dizel-premium": null,
        "avtoplin-lpg": null,
        "KOEL": null,
        "hvo": null,
        "cng": null,
        "lng": null
      },
      "distance": null,
      "direction": "",
      "open_hours": "Januar / Februar / Marec / Oktober / November / December\nPonedeljek, Torek, Sreda, Četrtek, Petek, Sobota\n07:00-19:00\n\nJanuar / Februar / Marec / Oktober / November / December\nNedelja, Praznik\n08:00-18:00\n\nApril / Maj / Junij / Julij / Avgust / September\nPonedeljek, Torek, Sreda, Četrtek, Petek, Sobota\n07:00-20:00\n\nApril / Maj / Junij / Julij / Avgust / September\nNedelja, Praznik\n08:00-20:00\n",
      "zip_code": "6224"
    },
    {
      "pk": 853,
      "franchise": 2,
      "name": "BS MOL SEŽANA",
      "address": "Partizanska 63a",
      "lat": 45.705649,
      "lng": 13.863156,
      "prices": {
        "95": 1.605,
        "dizel": 1.736,
        "98": null,
        "100": 1.899,
        "dizel-premium": null,
        "avtoplin-lpg": null,
        "KOEL": null,
        "hvo": null,
        "cng": null,
        "lng": null
      },
      "distance": null,
      "direction": "",
      "open_hours": "06:00-22:00\n",
      "zip_code": "6210"
    },
    {
      "pk": 854,
      "franchise": 2,
      "name": "BS MOL SLOVENSKA BISTRICA ŽOLGARJEVA",
      "address": "Žolgarjeva ulica 16",
      "lat": 46.385322,
      "lng": 15.571972,
      "prices": {
        "95": 1.605,
        "dizel": 1.736,
        "98": null,
        "100": 1.899,
        "dizel-premium": 1.925,
        "avtoplin-lpg": null,
        "KOEL": null,
        "hvo": null,
        "cng": null,
        "lng": null
      },
      "distance": null,
      "direction": "",
      "open_hours": "06:00-22:00\n",
      "zip_code": "2310"
    },
    {
      "pk": 855,
      "franchise": 2,
      "name": "BS MOL SLOVENSKE KONJICE",
      "address": "Liptovska 36a",
      "lat": 46.34068,
      "lng": 15.41675,
      "prices": {
        "95": 1.605,
        "dizel": 1.736,
        "98": null,
        "100": 1.899,
        "dizel-premium": null,
        "avtoplin-lpg": null,
        "KOEL": 1.386,
        "hvo": null,
        "cng": null,
        "lng": null
      },
      "distance": null,
      "direction": "",
      "open_hours": "06:00-22:00\n",
      "zip_code": "3210"
    },
    {
      "pk": 856,
      "franchise": 2,
      "name": "BS MOL SMEDNIK",
      "address": "Smednik 12a",
      "lat": 45.90773,
      "lng": 15.37137,
      "prices": {
        "95": 1.605,
        "dizel": 1.736,
        "98": null,
        "100": 1.899,
        "dizel-premium": 1.925,
        "avtoplin-lpg": 1.048,
        "KOEL": null,
        "hvo": null,
        "cng": null,
        "lng": null
      },
      "distance": null,
      "direction": "Novo Mesto",
      "open_hours": "06:00-22:00\n",
      "zip_code": "8274"
    },
    {
      "pk": 857,
      "franchise": 2,
      "name": "BS MOL SPODNJA IDRIJA",
      "address": "Vojkova ulica 24",
      "lat": 46.01699,
      "lng": 14.0288,
      "prices": {
        "95": 1.605,
        "dizel": 1.736,
        "98": null,
        "100": 1.899,
        "dizel-premium": 1.925,
        "avtoplin-lpg": null,
        "KOEL": 1.386,
        "hvo": null,
        "cng": null,
        "lng": null
      },
      "distance": null,
      "direction": "",
      "open_hours": "Ponedeljek, Torek, Sreda, Četrtek, Petek\n06:00-21:00\n\nSobota\n07:00-21:00\n\nNedelja, Praznik\n08:00-20:00\n",
      "zip_code": "5280"
    },
    {
      "pk": 858,
      "franchise": 2,
      "name": "BS MOL SPODNJI DUPLEK",
      "address": "C. 4.julija 69",
      "lat": 46.501143,
      "lng": 15.751535,
      "prices": {
        "95": 1.605,
        "dizel": 1.736,
        "98": null,
        "100": 1.899,
        "dizel-premium": null,
        "avtoplin-lpg": null,
        "KOEL": 1.386,
        "hvo": null,
        "cng": null,
        "lng": null
      },
      "distance": null,
      "direction": "",
      "open_hours": "Ponedeljek, Torek, Sreda, Četrtek, Petek, Sobota\n06:00-21:00\n\nNedelja, Praznik\n08:00-20:00\n",
      "zip_code": "2241"
    },
    {
      "pk": 859,
      "franchise": 2,
      "name": "BS MOL STARI TRG",
      "address": "C.Notranjskega odreda 5",
      "lat": 45.715829,
      "lng": 14.470974,
      "prices": {
        "95": 1.605,
        "dizel": 1.736,
        "98": null,
        "100": null,
        "dizel-premium": null,
        "avtoplin-lpg": null,
        "KOEL": null,
        "hvo": null,
        "cng": null,
        "lng": null
      },
      "distance": null,
      "direction": "",
      "open_hours": "Ponedeljek, Torek, Sreda, Četrtek, Petek\n07:00-19:00\n\nSobota\n07:00-15:00\n\nNedelja\n07:00-13:00\n",
      "zip_code": "1386"
    },
    {
      "pk": 862,
      "franchise": 2,
      "name": "BS MOL ŠENTJUR",
      "address": "Ljubljanska c. 20a",
      "lat": 46.214942,
      "lng": 15.38352,
      "prices": {
        "95": 1.605,
        "dizel": 1.736,
        "98": null,
        "100": 1.899,
        "dizel-premium": 1.925,
        "avtoplin-lpg": null,
        "KOEL": 1.386,
        "hvo": null,
        "cng": null,
        "lng": null
      },
      "distance": null,
      "direction": "",
      "open_hours": "Ponedeljek, Torek, Sreda, Četrtek, Petek, Sobota\n06:00-22:00\n\nNedelja, Praznik\n07:00-21:00\n",
      "zip_code": "3230"
    },
    {
      "pk": 863,
      "franchise": 2,
      "name": "BS MOL ŠKOFIJE VZHOD",
      "address": "Sp.Škofije 260",
      "lat": 45.580603,
      "lng": 13.797535,
      "prices": {
        "95": 1.605,
        "dizel": 1.736,
        "98": null,
        "100": 1.949,
        "dizel-premium": null,
        "avtoplin-lpg": 1.048,
        "KOEL": 1.386,
        "hvo": null,
        "cng": null,
        "lng": null
      },
      "distance": null,
      "direction": "Trst",
      "open_hours": "Januar / Februar / Marec / April / Maj / Junij / September / Oktober / November / December\nPonedeljek, Torek, Sreda, Četrtek, Petek, Sobota\n06:00-21:00\n\nJanuar / Februar / Marec / April / Maj / Junij / September / Oktober / November / December\nNedelja, Praznik\n07:00-21:00\n\nJulij / Avgust\nPonedeljek, Torek, Sreda, Četrtek, Petek, Sobota\n06:00-22:00\n\nJulij / Avgust\nNedelja, Praznik\n07:00-22:00\n",
      "zip_code": "6281"
    },
    {
      "pk": 864,
      "franchise": 2,
      "name": "BS MOL ŠKOFIJE ZAHOD",
      "address": "Sp.Škofije 256a",
      "lat": 45.579851,
      "lng": 13.796288,
      "prices": {
        "95": 1.605,
        "dizel": 1.736,
        "98": null,
        "100": 1.949,
        "dizel-premium": null,
        "avtoplin-lpg": null,
        "KOEL": null,
        "hvo": null,
        "cng": null,
        "lng": null
      },
      "distance": null,
      "direction": "Koper",
      "open_hours": "Januar / Februar / Marec / April / Maj / Oktober / November / December\n06:00-22:00\n\nJunij / Julij / Avgust / September\n06:00-23:59\n",
      "zip_code": "6281"
    },
    {
      "pk": 865,
      "franchise": 2,
      "name": "BS MOL ŠKOFJA LOKA",
      "address": "Kidričeva 23a",
      "lat": 46.168842,
      "lng": 14.31952,
      "prices": {
        "95": 1.605,
        "dizel": 1.736,
        "98": null,
        "100": 1.899,
        "dizel-premium": 1.925,
        "avtoplin-lpg": null,
        "KOEL": 1.386,
        "hvo": null,
        "cng": null,
        "lng": null
      },
      "distance": null,
      "direction": "",
      "open_hours": "06:00-22:00\n",
      "zip_code": "4220"
    },
    {
      "pk": 866,
      "franchise": 2,
      "name": "BS MOL ŠMARJE",
      "address": "Srgaši 42a",
      "lat": 45.510467,
      "lng": 13.707064,
      "prices": {
        "95": 1.605,
        "dizel": 1.736,
        "98": null,
        "100": 1.899,
        "dizel-premium": null,
        "avtoplin-lpg": null,
        "KOEL": null,
        "hvo": null,
        "cng": null,
        "lng": null
      },
      "distance": null,
      "direction": "",
      "open_hours": "Januar / Februar / Marec / Oktober / November / December\nPonedeljek, Torek, Sreda, Četrtek, Petek, Sobota\n06:00-20:00\n\nJanuar / Februar / Marec / Oktober / November / December\nNedelja, Praznik\n07:00-20:00\n\nApril / Maj\nPonedeljek, Torek, Sreda, Četrtek, Petek, Sobota\n06:00-21:00\n\nApril / Maj\nNedelja, Praznik\n07:00-21:00\n\nJunij / Julij / Avgust / September\nPonedeljek, Torek, Sreda, Četrtek, Petek, Sobota\n06:00-22:00\n\nJunij / Julij / Avgust / September\nNedelja, Praznik\n07:00-22:00\n",
      "zip_code": "6274"
    },
    {
      "pk": 867,
      "franchise": 2,
      "name": "BS MOL ŠTANJEL",
      "address": "Štanjel 80",
      "lat": 45.81842,
      "lng": 13.84414,
      "prices": {
        "95": 1.605,
        "dizel": 1.736,
        "98": null,
        "100": 1.899,
        "dizel-premium": null,
        "avtoplin-lpg": null,
        "KOEL": null,
        "hvo": null,
        "cng": null,
        "lng": null
      },
      "distance": null,
      "direction": "",
      "open_hours": "Ponedeljek, Torek, Sreda, Četrtek, Petek, Sobota\n09:00-19:00\n\nNedelja, Praznik\n08:00-16:00\n",
      "zip_code": "6222"
    },
    {
      "pk": 869,
      "franchise": 2,
      "name": "BS MOL TREBNJE",
      "address": "Obrtniška 28",
      "lat": 45.910462,
      "lng": 15.025649,
      "prices": {
        "95": 1.605,
        "dizel": 1.736,
        "98": null,
        "100": 1.899,
        "dizel-premium": 1.925,
        "avtoplin-lpg": null,
        "KOEL": 1.386,
        "hvo": null,
        "cng": null,
        "lng": null
      },
      "distance": null,
      "direction": "",
      "open_hours": "06:00-22:00\n",
      "zip_code": "8210"
    },
    {
      "pk": 870,
      "franchise": 2,
      "name": "BS MOL VELENJE PARTIZANSKA",
      "address": "Partizanska c. 15a",
      "lat": 46.359472,
      "lng": 15.099174,
      "prices": {
        "95": 1.605,
        "dizel": 1.736,
        "98": null,
        "100": 1.899,
        "dizel-premium": null,
        "avtoplin-lpg": null,
        "KOEL": null,
        "hvo": null,
        "cng": null,
        "lng": null
      },
      "distance": null,
      "direction": "",
      "open_hours": "01.04.2026 – 14.10.2026\nSobota\n06:00-22:00\n\nPonedeljek, Torek, Sreda, Četrtek, Petek\n06:00-22:00\n\nNedelja, Praznik\n07:00-22:00\n",
      "zip_code": "3320"
    },
    {
      "pk": 871,
      "franchise": 2,
      "name": "BS MOL VELENJE SELO",
      "address": "Selo 10a",
      "lat": 46.36972,
      "lng": 15.13265,
      "prices": {
        "95": 1.605,
        "dizel": 1.736,
        "98": null,
        "100": 1.899,
        "dizel-premium": 1.925,
        "avtoplin-lpg": null,
        "KOEL": 1.386,
        "hvo": null,
        "cng": null,
        "lng": null
      },
      "distance": null,
      "direction": "",
      "open_hours": "Ponedeljek, Torek, Sreda, Četrtek, Petek, Sobota\n06:00-22:00\n\nNedelja, Praznik\n07:00-22:00\n",
      "zip_code": "3320"
    },
    {
      "pk": 872,
      "franchise": 2,
      "name": "BS MOL VIPOLŽE",
      "address": "Vipolže 6b",
      "lat": 45.966782,
      "lng": 13.540767,
      "prices": {
        "95": 1.605,
        "dizel": 1.736,
        "98": null,
        "100": 1.899,
        "dizel-premium": 1.925,
        "avtoplin-lpg": null,
        "KOEL": null,
        "hvo": null,
        "cng": null,
        "lng": null
      },
      "distance": null,
      "direction": "",
      "open_hours": "Ponedeljek, Torek, Sreda, Četrtek, Petek, Sobota\n06:00-21:00\n\nNedelja, Praznik\n08:00-20:00\n",
      "zip_code": "5212"
    },
    {
      "pk": 873,
      "franchise": 2,
      "name": "BS MOL VIR DOMŽALE",
      "address": "Šaranovičeva c. 10a",
      "lat": 46.147666,
      "lng": 14.60635,
      "prices": {
        "95": 1.605,
        "dizel": 1.736,
        "98": null,
        "100": 1.899,
        "dizel-premium": null,
        "avtoplin-lpg": null,
        "KOEL": null,
        "hvo": null,
        "cng": null,
        "lng": null
      },
      "distance": null,
      "direction": "",
      "open_hours": "06:00-22:00\n",
      "zip_code": "1230"
    },
    {
      "pk": 874,
      "franchise": 2,
      "name": "BS MOL VRTOJBA",
      "address": "Polje 6",
      "lat": 45.920878,
      "lng": 13.631287,
      "prices": {
        "95": 1.605,
        "dizel": 1.736,
        "98": null,
        "100": 1.899,
        "dizel-premium": 1.925,
        "avtoplin-lpg": null,
        "KOEL": 1.386,
        "hvo": null,
        "cng": null,
        "lng": null
      },
      "distance": null,
      "direction": "",
      "open_hours": "06:00-22:00\n",
      "zip_code": "5290"
    },
    {
      "pk": 875,
      "franchise": 2,
      "name": "BS MOL ZAGRADEC",
      "address": "Zagradec 34",
      "lat": 45.85943,
      "lng": 14.83524,
      "prices": {
        "95": 1.605,
        "dizel": 1.736,
        "98": null,
        "100": 1.899,
        "dizel-premium": null,
        "avtoplin-lpg": null,
        "KOEL": 1.386,
        "hvo": null,
        "cng": null,
        "lng": null
      },
      "distance": null,
      "direction": "",
      "open_hours": "06:00-20:00\n",
      "zip_code": "1303"
    },
    {
      "pk": 1548,
      "franchise": 2,
      "name": "BS MOL KIDRIČEVO",
      "address": "TOVARNIŠKA CESTA 8A",
      "lat": 46.404094,
      "lng": 15.799085,
      "prices": {
        "95": 1.605,
        "dizel": 1.736,
        "98": null,
        "100": 1.899,
        "dizel-premium": 1.925,
        "avtoplin-lpg": null,
        "KOEL": null,
        "hvo": null,
        "cng": null,
        "lng": null
      },
      "distance": null,
      "direction": "",
      "open_hours": "Nedelja, Praznik\n08:00-20:00\n\nApril / Maj / Junij / Julij / Avgust / September / Oktober\nPonedeljek, Torek, Sreda, Četrtek, Petek, Sobota\n05:00-23:00\n\nJanuar / Februar / Marec / November / December\nPonedeljek, Torek, Sreda, Četrtek, Petek\n05:00-22:00\n\nJanuar / Februar / Marec / November / December\nSobota\n06:00-22:00\n",
      "zip_code": "2325"
    },
    {
      "pk": 1552,
      "franchise": 2,
      "name": "BS MOL KOČEVJE",
      "address": "LJUBLJANSKA CESTA 40",
      "lat": 45.6488405,
      "lng": 14.8544269,
      "prices": {
        "95": 1.605,
        "dizel": 1.736,
        "98": null,
        "100": 1.899,
        "dizel-premium": 1.925,
        "avtoplin-lpg": null,
        "KOEL": null,
        "hvo": null,
        "cng": null,
        "lng": null
      },
      "distance": null,
      "direction": "",
      "open_hours": "Ponedeljek, Torek, Sreda, Četrtek, Petek, Sobota\n05:00-23:00\n\nNedelja, Praznik\n08:00-20:00\n",
      "zip_code": "1330"
    },
    {
      "pk": 1553,
      "franchise": 2,
      "name": "BS MOL SLOVENSKA BISTRICA",
      "address": "LJUBLJANSKA CESTA 91",
      "lat": 46.38245,
      "lng": 15.563571,
      "prices": {
        "95": 1.605,
        "dizel": 1.736,
        "98": null,
        "100": 1.899,
        "dizel-premium": 1.925,
        "avtoplin-lpg": null,
        "KOEL": null,
        "hvo": null,
        "cng": null,
        "lng": null
      },
      "distance": null,
      "direction": "",
      "open_hours": "00:00-23:59\n",
      "zip_code": ""
    },
    {
      "pk": 1554,
      "franchise": 2,
      "name": "BS MOL MURSKA SOBOTA",
      "address": "MALA NOVA ULICA 1",
      "lat": 46.6560676,
      "lng": 16.1751469,
      "prices": {
        "95": 1.605,
        "dizel": 1.736,
        "98": null,
        "100": 1.899,
        "dizel-premium": 1.925,
        "avtoplin-lpg": null,
        "KOEL": null,
        "hvo": null,
        "cng": null,
        "lng": null
      },
      "distance": null,
      "direction": "",
      "open_hours": "Ponedeljek, Torek, Sreda, Četrtek, Petek, Sobota\n05:00-22:00\n\nNedelja, Praznik\n08:00-20:00\n",
      "zip_code": "9000"
    }
  ],
  "position": null
}
