{
  "count": 551,
  "next": "https://goriva.si/api/v1/search/?format=json&franchise=&name=&o=&page=23&position=&radius=",
  "previous": "https://goriva.si/api/v1/search/?format=json&franchise=&name=&o=&page=21&position=&radius=",
  "results": [
    {
      "pk": 785,
      "franchise": 2,
      "name": "BS MOL TRUCK LENDAVA",
      "address": "Trimlini 65b",
      "lat": 46.54818511,
      "lng": 16.44478697,
      "prices": {
        "95": null,
        "dizel": 1.64,
        "98": null,
        "100": null,
        "dizel-premium": null,
        "avtoplin-lpg": null,
        "KOEL": null,
        "hvo": null,
        "cng": null,
        "lng": null
      },
      "distance": null,
      "direction": "",
      "open_hours": "00:00-23:59\n",
      "zip_code": "9220"
    },
    {
      "pk": 786,
      "franchise": 2,
      "name": "BS MOL TRUCK MARIBOR",
      "address": "Tržaška c. 53a",
      "lat": 46.52543955,
      "lng": 15.65123783,
      "prices": {
        "95": null,
        "dizel": 1.64,
        "98": null,
        "100": null,
        "dizel-premium": null,
        "avtoplin-lpg": null,
        "KOEL": null,
        "hvo": null,
        "cng": null,
        "lng": null
      },
      "distance": null,
      "direction": "",
      "open_hours": "00:00-23:59\n",
      "zip_code": "2000"
    },
    {
      "pk": 788,
      "franchise": 2,
      "name": "BS MOL TRUCK VRTOJBA",
      "address": "Polje 10",
      "lat": 45.92082361,
      "lng": 13.63360622,
      "prices": {
        "95": null,
        "dizel": 1.64,
        "98": null,
        "100": null,
        "dizel-premium": null,
        "avtoplin-lpg": null,
        "KOEL": null,
        "hvo": null,
        "cng": null,
        "lng": null
      },
      "distance": null,
      "direction": "",
      "open_hours": "00:00-23:59\n",
      "zip_code": "5290"
    },
    {
      "pk": 1948,
      "franchise": 1,
      "name": "PETROL MOŠKANJCI",
      "address": "MOŠKANJCI 1G",
      "lat": 46.41689,
      "lng": 15.985636,
      "prices": {
        "95": null,
        "dizel": null,
        "98": null,
        "100": null,
        "dizel-premium": null,
        "avtoplin-lpg": null,
        "KOEL": null,
        "hvo": null,
        "cng": null,
        "lng": null
      },
      "distance": null,
      "direction": "",
      "open_hours": "Začasno zaprto do 26. julij 2026",
      "zip_code": "2272"
    },
    {
      "pk": 1956,
      "franchise": 1,
      "name": "PETROL MARIBOR - PTUJSKA 188",
      "address": "PTUJSKA CESTA 188",
      "lat": 46.52829802,
      "lng": 15.67244913,
      "prices": {
        "95": null,
        "dizel": null,
        "98": null,
        "100": null,
        "dizel-premium": null,
        "avtoplin-lpg": null,
        "KOEL": null,
        "hvo": null,
        "cng": null,
        "lng": null
      },
      "distance": null,
      "direction": "",
      "open_hours": "Začasno zaprto do 26. julij 2026",
      "zip_code": "2000"
    },
    {
      "pk": 2010,
      "franchise": 1,
      "name": "PETROL ORMOŽ",
      "address": "KOLODVORSKA CESTA 5",
      "lat": 46.40764081,
      "lng": 16.15117853,
      "prices": {
        "95": null,
        "dizel": null,
        "98": null,
        "100": null,
        "dizel-premium": null,
        "avtoplin-lpg": null,
        "KOEL": null,
        "hvo": null,
        "cng": null,
        "lng": null
      },
      "distance": null,
      "direction": "",
      "open_hours": "Začasno zaprto do 26. julij 2026",
      "zip_code": "2270"
    },
    {
      "pk": 2035,
      "franchise": 1,
      "name": "PETROL IZOLA MANDRAČ",
      "address": "VELIKI TRG 0N",
      "lat": 45.538539,
      "lng": 13.65634,
      "prices": {
        "95": null,
        "dizel": null,
        "98": null,
        "100": null,
        "dizel-premium": null,
        "avtoplin-lpg": null,
        "KOEL": null,
        "hvo": null,
        "cng": null,
        "lng": null
      },
      "distance": null,
      "direction": "",
      "open_hours": "Začasno zaprto do 23. julij 2026",
      "zip_code": "6310"
    },
    {
      "pk": 2052,
      "franchise": 1,
      "name": "PETROL LJUBLJANA - TRNOVO",
      "address": "RIHARJEVA ULICA 31",
      "lat": 46.03925962,
      "lng": 14.50003317,
      "prices": {
        "95": null,
        "dizel": null,
        "98": null,
        "100": null,
        "dizel-premium": null,
        "avtoplin-lpg": null,
        "KOEL": null,
        "hvo": null,
        "cng": null,
        "lng": null
      },
      "distance": null,
      "direction": "",
      "open_hours": "Začasno zaprto do 26. julij 2026",
      "zip_code": "1000"
    },
    {
      "pk": 2058,
      "franchise": 1,
      "name": "PETROL ZADVOR",
      "address": "CESTA II. GRUPE ODREDOV 48",
      "lat": 46.03588324,
      "lng": 14.59614121,
      "prices": {
        "95": null,
        "dizel": null,
        "98": null,
        "100": null,
        "dizel-premium": null,
        "avtoplin-lpg": null,
        "KOEL": null,
        "hvo": null,
        "cng": null,
        "lng": null
      },
      "distance": null,
      "direction": "",
      "open_hours": "Začasno zaprto do 26. julij 2026",
      "zip_code": "1261"
    },
    {
      "pk": 2097,
      "franchise": 1,
      "name": "PETROL ROVTE",
      "address": "ROVTE 20C",
      "lat": 45.96963904,
      "lng": 14.14181044,
      "prices": {
        "95": null,
        "dizel": null,
        "98": null,
        "100": null,
        "dizel-premium": null,
        "avtoplin-lpg": null,
        "KOEL": null,
        "hvo": null,
        "cng": null,
        "lng": null
      },
      "distance": null,
      "direction": "",
      "open_hours": "Začasno zaprto do 26. julij 2026",
      "zip_code": "1373"
    },
    {
      "pk": 2211,
      "franchise": 1,
      "name": "PETROL MISLINJA",
      "address": "ŠENTLENART 18",
      "lat": 46.44319582,
      "lng": 15.19195307,
      "prices": {
        "95": null,
        "dizel": null,
        "98": null,
        "100": null,
        "dizel-premium": null,
        "avtoplin-lpg": null,
        "KOEL": null,
        "hvo": null,
        "cng": null,
        "lng": null
      },
      "distance": null,
      "direction": "",
      "open_hours": "Začasno zaprto do 26. julij 2026",
      "zip_code": "2382"
    },
    {
      "pk": 2273,
      "franchise": 11,
      "name": "ECO OIL MARIBOR",
      "address": "ZAGREBŠKA CESTA 24",
      "lat": 46.534411,
      "lng": 15.6574563,
      "prices": {
        "95": null,
        "dizel": 1.64,
        "98": null,
        "100": null,
        "dizel-premium": null,
        "avtoplin-lpg": null,
        "KOEL": null,
        "hvo": null,
        "cng": null,
        "lng": null
      },
      "distance": null,
      "direction": "",
      "open_hours": "00:00-23:59\n",
      "zip_code": "2000"
    },
    {
      "pk": 2275,
      "franchise": 11,
      "name": "ECO OIL TURNIŠČE",
      "address": "ULICA ŠTEFANA KOVAČA",
      "lat": 46.6209381,
      "lng": 16.3199527,
      "prices": {
        "95": null,
        "dizel": 1.64,
        "98": null,
        "100": null,
        "dizel-premium": null,
        "avtoplin-lpg": null,
        "KOEL": null,
        "hvo": null,
        "cng": null,
        "lng": null
      },
      "distance": null,
      "direction": "",
      "open_hours": "00:00-23:59\n",
      "zip_code": "9224"
    },
    {
      "pk": 2276,
      "franchise": 11,
      "name": "ECO OIL SEŽANA",
      "address": "PARTIZANSKA CESTA",
      "lat": 45.7047532,
      "lng": 13.855647,
      "prices": {
        "95": null,
        "dizel": 1.64,
        "98": null,
        "100": null,
        "dizel-premium": null,
        "avtoplin-lpg": null,
        "KOEL": null,
        "hvo": null,
        "cng": null,
        "lng": null
      },
      "distance": null,
      "direction": "",
      "open_hours": "00:00-23:59\n",
      "zip_code": "6210"
    },
    {
      "pk": 2311,
      "franchise": 18,
      "name": "BS Merkantil KNEŽAK",
      "address": "KNEŽAK 3",
      "lat": 45.625625,
      "lng": 14.239867,
      "prices": {
        "95": null,
        "dizel": null,
        "98": null,
        "100": null,
        "dizel-premium": null,
        "avtoplin-lpg": null,
        "KOEL": null,
        "hvo": null,
        "cng": null,
        "lng": null
      },
      "distance": null,
      "direction": "",
      "open_hours": "pon - čet: 6,00 - 18,00\r\npet - sob: 6,00 - 20,00\r\nned: 7,00 - 20,00",
      "zip_code": "6253"
    },
    {
      "pk": 2312,
      "franchise": 17,
      "name": "HOJNIK Oil BS Leskovec",
      "address": "Leskovec 15",
      "lat": 46.259264,
      "lng": 15.310556,
      "prices": {
        "95": null,
        "dizel": 1.59,
        "98": null,
        "100": null,
        "dizel-premium": null,
        "avtoplin-lpg": 0.89,
        "KOEL": 1.223,
        "hvo": null,
        "cng": null,
        "lng": null
      },
      "distance": null,
      "direction": "Celje",
      "open_hours": "PON. - PET.      6.00 - 17.00        \r\nSOB.                 7.00 - 12.00\r\nNED., PRAZNIKI   ZAPRTO",
      "zip_code": "3000"
    },
    {
      "pk": 2318,
      "franchise": 24,
      "name": "PRUNK OIL",
      "address": "Mednarodni prehod 1a",
      "lat": 45.9207599,
      "lng": 13.6284418,
      "prices": {
        "95": null,
        "dizel": 1.64,
        "98": null,
        "100": null,
        "dizel-premium": null,
        "avtoplin-lpg": null,
        "KOEL": null,
        "hvo": null,
        "cng": null,
        "lng": null
      },
      "distance": null,
      "direction": "H4, izhod Vrtojba",
      "open_hours": "24/7",
      "zip_code": "5290"
    },
    {
      "pk": 2319,
      "franchise": 26,
      "name": "EKSTRA OLJE",
      "address": "Limbuška cesta 2",
      "lat": 46.559416,
      "lng": 15.597476,
      "prices": {
        "95": null,
        "dizel": 1.64,
        "98": null,
        "100": null,
        "dizel-premium": null,
        "avtoplin-lpg": null,
        "KOEL": 1.231,
        "hvo": null,
        "cng": null,
        "lng": null
      },
      "distance": null,
      "direction": "",
      "open_hours": "",
      "zip_code": "2341"
    },
    {
      "pk": 2320,
      "franchise": 25,
      "name": "URMA D.O.O.",
      "address": "DEKANI 076 E",
      "lat": 1E-15,
      "lng": -1E-15,
      "prices": {
        "95": null,
        "dizel": 1.186,
        "98": null,
        "100": null,
        "dizel-premium": null,
        "avtoplin-lpg": null,
        "KOEL": 0.95,
        "hvo": null,
        "cng": null,
        "lng": null
      },
      "distance": null,
      "direction": "",
      "open_hours": "",
      "zip_code": "6271"
    },
    {
      "pk": 2321,
      "franchise": 29,
      "name": "Mi oskrba d.o.o.",
      "address": "Hrašče 4c",
      "lat": 45.77353972485529,
      "lng": 14.16884039205976,
      "prices": {
        "95": null,
        "dizel": 1.64,
        "98": null,
        "100": null,
        "dizel-premium": null,
        "avtoplin-lpg": null,
        "KOEL": 1.233,
        "hvo": null,
        "cng": null,
        "lng": null
      },
      "distance": null,
      "direction": "",
      "open_hours": "24/7",
      "zip_code": "6230"
    },
    {
      "pk": 2322,
      "franchise": 27,
      "name": "BENCINSKI SERVIS KOVAČIČ",
      "address": "Grm 12",
      "lat": 45.89790647835315,
      "lng": 15.052119626875369,
      "prices": {
        "95": null,
        "dizel": 1.64,
        "98": null,
        "100": null,
        "dizel-premium": null,
        "avtoplin-lpg": null,
        "KOEL": null,
        "hvo": null,
        "cng": null,
        "lng": null
      },
      "distance": null,
      "direction": "",
      "open_hours": "24/7",
      "zip_code": "8210"
    },
    {
      "pk": 2326,
      "franchise": 30,
      "name": "Ka olje d.o.o.",
      "address": "ŠKOJELOŠKA CESTA 16",
      "lat": 46.1845316,
      "lng": 14.47429,
      "prices": {
        "95": null,
        "dizel": 1.64,
        "98": null,
        "100": null,
        "dizel-premium": null,
        "avtoplin-lpg": null,
        "KOEL": 1.233,
        "hvo": null,
        "cng": null,
        "lng": null
      },
      "distance": null,
      "direction": "",
      "open_hours": "pon-pet. 6.00-16.00h\r\nsob 6.00-12.00h\r\nned in prazniki zaprto",
      "zip_code": "1217"
    },
    {
      "pk": 2329,
      "franchise": 31,
      "name": "",
      "address": "Sermin 8A",
      "lat": 45.552372,
      "lng": 13.766288,
      "prices": {
        "95": null,
        "dizel": null,
        "98": null,
        "100": null,
        "dizel-premium": null,
        "avtoplin-lpg": 0.79,
        "KOEL": null,
        "hvo": null,
        "cng": null,
        "lng": null
      },
      "distance": null,
      "direction": "",
      "open_hours": "PON - PET: 7.30 - 15.30\r\n\r\nOb sobotah, nedeljah in praznikih zaprto.",
      "zip_code": "6000"
    },
    {
      "pk": 2330,
      "franchise": 31,
      "name": "",
      "address": "Plinarniška 1",
      "lat": 46.24061,
      "lng": 15.2898,
      "prices": {
        "95": null,
        "dizel": null,
        "98": null,
        "100": null,
        "dizel-premium": null,
        "avtoplin-lpg": 0.79,
        "KOEL": null,
        "hvo": null,
        "cng": null,
        "lng": null
      },
      "distance": null,
      "direction": "",
      "open_hours": "PON - PET: 7,30 - 15.30\r\n\r\nOb sobotah, nedeljah in praznikih zaprto.",
      "zip_code": "3000"
    },
    {
      "pk": 2331,
      "franchise": 11,
      "name": "ECO OIL FRAM",
      "address": "TURNERJEVA ULICA",
      "lat": 46.451048,
      "lng": 15.65166,
      "prices": {
        "95": null,
        "dizel": 1.64,
        "98": null,
        "100": null,
        "dizel-premium": null,
        "avtoplin-lpg": null,
        "KOEL": null,
        "hvo": null,
        "cng": null,
        "lng": null
      },
      "distance": null,
      "direction": "",
      "open_hours": "00:00-23:59\n",
      "zip_code": "2313"
    }
  ],
  "position": null
}
