{
  "count": 548,
  "next": "https://goriva.si/api/v1/search/?format=json&franchise=&name=&o=&page=11&position=&radius=",
  "previous": "https://goriva.si/api/v1/search/?format=json&franchise=&name=&o=&page=9&position=&radius=",
  "results": [
    {
      "pk": 2034,
      "franchise": 1,
      "name": "PETROL KOPER - KOLODVORSKA",
      "address": "KOLODVORSKA CESTA 3A",
      "lat": 45.542714,
      "lng": 13.735513,
      "prices": {
        "95": 1.62,
        "dizel": 1.7,
        "98": null,
        "100": 2.022,
        "dizel-premium": null,
        "avtoplin-lpg": 0.999,
        "KOEL": null
      },
      "distance": null,
      "direction": "",
      "open_hours": "vsak delavnik 06:00-22:00\r\nsobote 06:00-22:00\r\nnedelje in prazniki 07:00-22:00",
      "zip_code": "6000"
    },
    {
      "pk": 2033,
      "franchise": 1,
      "name": "PETROL PIVKA",
      "address": "POSTOJNSKA CESTA 20A",
      "lat": 45.68611881,
      "lng": 14.19717139,
      "prices": {
        "95": 1.62,
        "dizel": 1.7,
        "98": null,
        "100": 2.022,
        "dizel-premium": 2.163,
        "avtoplin-lpg": 0.999,
        "KOEL": null
      },
      "distance": null,
      "direction": "",
      "open_hours": "vsak delavnik 05:00-24:00\r\nsobote 00:00-24:00\r\nnedelje00:00-24:00\r\nprazniki05:00-24:00",
      "zip_code": "6257"
    },
    {
      "pk": 2029,
      "franchise": 1,
      "name": "PETROL MURSKA SOBOTA - PLESE",
      "address": "PANONSKA ULICA 5",
      "lat": 46.656739,
      "lng": 16.178624,
      "prices": {
        "95": 1.62,
        "dizel": 1.7,
        "98": null,
        "100": 2.022,
        "dizel-premium": 2.163,
        "avtoplin-lpg": 0.999,
        "KOEL": null
      },
      "distance": null,
      "direction": "",
      "open_hours": "vsak delavnik 05:00-23:00\r\nsobote 06:00-23:00\r\nnedelje in prazniki 07:00-23:00",
      "zip_code": "9000"
    },
    {
      "pk": 2028,
      "franchise": 1,
      "name": "PETROL SLIVNICA VZHOD",
      "address": "LJUBLJANSKA CESTA 61",
      "lat": 46.493923,
      "lng": 15.652196,
      "prices": {
        "95": 1.62,
        "dizel": 1.7,
        "98": null,
        "100": 2.022,
        "dizel-premium": null,
        "avtoplin-lpg": 0.999,
        "KOEL": null
      },
      "distance": null,
      "direction": "",
      "open_hours": "vsak delavnik 06:00-20:00\r\nsobote 06:00-20:00\r\nnedelje in prazniki 07:00-20:00",
      "zip_code": "2311"
    },
    {
      "pk": 2025,
      "franchise": 1,
      "name": "PETROL MARIBOR - TRŽAŠKA 11",
      "address": "TRŽAŠKA CESTA 11",
      "lat": 46.53817035,
      "lng": 15.64737991,
      "prices": {
        "95": 1.62,
        "dizel": 1.7,
        "98": null,
        "100": null,
        "dizel-premium": null,
        "avtoplin-lpg": 0.999,
        "KOEL": 1.477
      },
      "distance": null,
      "direction": "",
      "open_hours": "vsak delavnik 06:00-21:00\r\nsobote 07:00-20:00\r\nnedelje in prazniki 07:00-20:00",
      "zip_code": "2000"
    },
    {
      "pk": 2024,
      "franchise": 1,
      "name": "PETROL PTUJ - DORNAVSKA",
      "address": "DORNAVSKA CESTA 6B",
      "lat": 46.42336766,
      "lng": 15.88908401,
      "prices": {
        "95": 1.62,
        "dizel": 1.7,
        "98": null,
        "100": 2.022,
        "dizel-premium": null,
        "avtoplin-lpg": null,
        "KOEL": 1.477
      },
      "distance": null,
      "direction": "",
      "open_hours": "vsak delavnik 06:00-21:00\r\nsobote 07:00-20:00\r\nnedelje in prazniki 08:00-20:00",
      "zip_code": "2250"
    },
    {
      "pk": 2023,
      "franchise": 1,
      "name": "PETROL MARIBOR - PUHOVA",
      "address": "PUHOVA ULICA 3",
      "lat": 46.54782826,
      "lng": 15.67767389,
      "prices": {
        "95": 1.62,
        "dizel": 1.7,
        "98": null,
        "100": 2.022,
        "dizel-premium": null,
        "avtoplin-lpg": null,
        "KOEL": null
      },
      "distance": null,
      "direction": "",
      "open_hours": "vsak delavnik 07:00-20:00\r\nsobote 08:00-17:00\r\nnedelje in prazniki 08:00-13:00",
      "zip_code": "2000"
    },
    {
      "pk": 2022,
      "franchise": 1,
      "name": "PETROL PTUJ - ZAGREBŠKA",
      "address": "ZAGREBŠKA CESTA 49B",
      "lat": 46.40705215,
      "lng": 15.866315,
      "prices": {
        "95": 1.62,
        "dizel": 1.7,
        "98": null,
        "100": 2.022,
        "dizel-premium": null,
        "avtoplin-lpg": null,
        "KOEL": 1.477
      },
      "distance": null,
      "direction": "",
      "open_hours": "vsak delavnik 06:00-21:00\r\nsobote 07:00-20:00\r\nnedelje in prazniki 07:00-19:00",
      "zip_code": "2250"
    },
    {
      "pk": 2021,
      "franchise": 1,
      "name": "PETROL SLOVENSKA BISTRICA - LJUBLJANSKA KROŽIŠČE",
      "address": "LJUBLJANSKA CESTA 45",
      "lat": 46.387184,
      "lng": 15.569006,
      "prices": {
        "95": 1.62,
        "dizel": 1.7,
        "98": null,
        "100": 2.022,
        "dizel-premium": null,
        "avtoplin-lpg": 0.999,
        "KOEL": null
      },
      "distance": null,
      "direction": "",
      "open_hours": "vsak delavnik 06:00-22:00\r\nsobote 06:00-22:00\r\nnedelje in prazniki 08:00-21:00",
      "zip_code": "2310"
    },
    {
      "pk": 2020,
      "franchise": 1,
      "name": "PETROL VOSEK",
      "address": "VOSEK 22A",
      "lat": 46.59570289,
      "lng": 15.70616915,
      "prices": {
        "95": 1.62,
        "dizel": 1.7,
        "98": null,
        "100": 2.022,
        "dizel-premium": null,
        "avtoplin-lpg": null,
        "KOEL": 1.477
      },
      "distance": null,
      "direction": "Maribor -> Madžarska",
      "open_hours": "vsak delavnik 06:00-21:00\r\nsobote 06:00-21:00\r\nnedelje in prazniki 08:00-20:00",
      "zip_code": "2231"
    },
    {
      "pk": 2017,
      "franchise": 1,
      "name": "PETROL DOLGA VAS",
      "address": "GLAVNA ULICA 200",
      "lat": 46.59372345,
      "lng": 16.46019878,
      "prices": {
        "95": 1.62,
        "dizel": 1.7,
        "98": null,
        "100": null,
        "dizel-premium": null,
        "avtoplin-lpg": null,
        "KOEL": 1.477
      },
      "distance": null,
      "direction": "",
      "open_hours": "NON-STOP",
      "zip_code": "9220"
    },
    {
      "pk": 2016,
      "franchise": 1,
      "name": "PETROL AJDOVŠČINA - VIPAVSKA",
      "address": "VIPAVSKA CESTA 4C",
      "lat": 45.88288,
      "lng": 13.90989,
      "prices": {
        "95": 1.62,
        "dizel": 1.7,
        "98": null,
        "100": 2.022,
        "dizel-premium": 2.163,
        "avtoplin-lpg": 0.999,
        "KOEL": null
      },
      "distance": null,
      "direction": "",
      "open_hours": "NON-STOP",
      "zip_code": "5270"
    },
    {
      "pk": 2015,
      "franchise": 1,
      "name": "PETROL PTUJ - OSOJNIKOVA",
      "address": "OSOJNIKOVA CESTA 10",
      "lat": 46.42711936,
      "lng": 15.8836554,
      "prices": {
        "95": 1.62,
        "dizel": 1.7,
        "98": null,
        "100": 2.022,
        "dizel-premium": null,
        "avtoplin-lpg": null,
        "KOEL": 1.477
      },
      "distance": null,
      "direction": "",
      "open_hours": "vsak delavnik 06:00-21:00\r\nsobote 06:00-21:00\r\nnedelje in prazniki 07:00-21:00",
      "zip_code": "2250"
    },
    {
      "pk": 2014,
      "franchise": 1,
      "name": "PETROL PTUJ - ORMOŠKA 26/B",
      "address": "ORMOŠKA CESTA 26B",
      "lat": 46.41676013,
      "lng": 15.88049476,
      "prices": {
        "95": 1.62,
        "dizel": 1.7,
        "98": null,
        "100": 2.022,
        "dizel-premium": 2.163,
        "avtoplin-lpg": 0.999,
        "KOEL": 1.477
      },
      "distance": null,
      "direction": "",
      "open_hours": "NON-STOP",
      "zip_code": "2250"
    },
    {
      "pk": 2013,
      "franchise": 1,
      "name": "PETROL MAJŠPERK",
      "address": "MAJŠPERK 55A",
      "lat": 46.3487854,
      "lng": 15.73672014,
      "prices": {
        "95": 1.62,
        "dizel": 1.7,
        "98": null,
        "100": null,
        "dizel-premium": null,
        "avtoplin-lpg": null,
        "KOEL": 1.477
      },
      "distance": null,
      "direction": "",
      "open_hours": "vsak delavnik 07:00-18:00\r\nsobote 07:00-15:00\r\nnedelje in prazniki 08:00-11:30",
      "zip_code": "2322"
    },
    {
      "pk": 2012,
      "franchise": 1,
      "name": "PETROL HAJDOŠE",
      "address": "HAJDOŠE 43D",
      "lat": 46.42559375,
      "lng": 15.82734335,
      "prices": {
        "95": 1.62,
        "dizel": 1.7,
        "98": null,
        "100": null,
        "dizel-premium": null,
        "avtoplin-lpg": null,
        "KOEL": 1.477
      },
      "distance": null,
      "direction": "",
      "open_hours": "vsak delavnik 07:00-20:00\r\nsobote 07:00-19:00",
      "zip_code": "2288"
    },
    {
      "pk": 2011,
      "franchise": 1,
      "name": "PETROL PTUJ - ORMOŠKA 25",
      "address": "ORMOŠKA CESTA 25",
      "lat": 46.41703099,
      "lng": 15.8826979,
      "prices": {
        "95": 1.62,
        "dizel": 1.7,
        "98": null,
        "100": null,
        "dizel-premium": null,
        "avtoplin-lpg": null,
        "KOEL": 1.477
      },
      "distance": null,
      "direction": "",
      "open_hours": "vsak delavnik 07:00-15:00\r\nsobote 07:00-12:00",
      "zip_code": "2250"
    },
    {
      "pk": 2010,
      "franchise": 1,
      "name": "PETROL ORMOŽ",
      "address": "KOLODVORSKA CESTA 5",
      "lat": 46.40764081,
      "lng": 16.15117853,
      "prices": {
        "95": 1.62,
        "dizel": 1.7,
        "98": null,
        "100": 2.022,
        "dizel-premium": null,
        "avtoplin-lpg": null,
        "KOEL": 1.477
      },
      "distance": null,
      "direction": "",
      "open_hours": "vsak delavnik 06:00-20:00\r\nsobote 07:00-20:00\r\nnedelje in prazniki 08:00-20:00",
      "zip_code": "2270"
    },
    {
      "pk": 1556,
      "franchise": 4,
      "name": "BS MOL LOGATEC",
      "address": "TRŽAŠKA 74A",
      "lat": 45.9166669,
      "lng": 14.218824,
      "prices": {
        "95": 1.62,
        "dizel": 1.7,
        "98": null,
        "100": 2.044,
        "dizel-premium": 1.999,
        "avtoplin-lpg": null,
        "KOEL": null
      },
      "distance": null,
      "direction": "",
      "open_hours": "pon - sob 05:00 - 23:00\r\nnedelja in prazniki 08:00 - 20:00",
      "zip_code": "1370"
    },
    {
      "pk": 802,
      "franchise": 2,
      "name": "OMV KOMEN",
      "address": "Komen 119a",
      "lat": 45.816868,
      "lng": 13.745429,
      "prices": {
        "95": 1.62,
        "dizel": 1.7,
        "98": null,
        "100": 1.998,
        "dizel-premium": null,
        "avtoplin-lpg": null,
        "KOEL": null
      },
      "distance": null,
      "direction": "",
      "open_hours": "Okt-Mar: Pon-Ned 07:00-19:00; Apr-Sep: Pon-Ned 07:00-20:00",
      "zip_code": "6223"
    },
    {
      "pk": 1558,
      "franchise": 4,
      "name": "BS MOL MURSKA SOBOTA",
      "address": "LENDAVSKA ULICA 75",
      "lat": 46.6676096,
      "lng": 16.1767565,
      "prices": {
        "95": 1.62,
        "dizel": 1.7,
        "98": null,
        "100": 2.044,
        "dizel-premium": 1.999,
        "avtoplin-lpg": null,
        "KOEL": null
      },
      "distance": null,
      "direction": "",
      "open_hours": "pon. - sob. 06:00 - 22:00\r\nnedelja in prazniki 08:00 - 20:00",
      "zip_code": "9000"
    },
    {
      "pk": 1557,
      "franchise": 4,
      "name": "BS MOL CELJE, MARIBORSKA",
      "address": "MARIBORSKA CESTA 111",
      "lat": 46.2451779,
      "lng": 15.2776158,
      "prices": {
        "95": 1.62,
        "dizel": 1.7,
        "98": null,
        "100": 2.044,
        "dizel-premium": 1.999,
        "avtoplin-lpg": null,
        "KOEL": null
      },
      "distance": null,
      "direction": "",
      "open_hours": "PON - NED 00:00-24:00",
      "zip_code": "3000"
    },
    {
      "pk": 1560,
      "franchise": 4,
      "name": "BS MOL ROŽNA DOLINA",
      "address": "ULICA ANGELA BESEDNJAKA 8A",
      "lat": 45.9404582,
      "lng": 13.6399226,
      "prices": {
        "95": 1.62,
        "dizel": 1.7,
        "98": null,
        "100": 2.044,
        "dizel-premium": 1.999,
        "avtoplin-lpg": 0.999,
        "KOEL": null
      },
      "distance": null,
      "direction": "",
      "open_hours": "pon. - ned. 00:00 - 24:00",
      "zip_code": "5000"
    },
    {
      "pk": 1555,
      "franchise": 4,
      "name": "BS MOL RIBNICA",
      "address": "MERHARJEVA ULICA 13",
      "lat": 45.738688,
      "lng": 14.733154,
      "prices": {
        "95": 1.62,
        "dizel": 1.7,
        "98": null,
        "100": 2.044,
        "dizel-premium": 1.999,
        "avtoplin-lpg": null,
        "KOEL": null
      },
      "distance": null,
      "direction": "",
      "open_hours": "pon. - sob. 05:00 - 23:00\r\nnedelja in prazniki 08:00 - 20:00",
      "zip_code": "1310"
    },
    {
      "pk": 1554,
      "franchise": 4,
      "name": "BS MOL MURSKA SOBOTA",
      "address": "MALA NOVA ULICA 1",
      "lat": 46.6560676,
      "lng": 16.1751469,
      "prices": {
        "95": 1.62,
        "dizel": 1.7,
        "98": null,
        "100": 2.044,
        "dizel-premium": 1.999,
        "avtoplin-lpg": null,
        "KOEL": null
      },
      "distance": null,
      "direction": "",
      "open_hours": "pon. - sob. 05:00 - 22:00\r\nnedelja in prazniki 07:00 - 20:00",
      "zip_code": "9000"
    }
  ],
  "position": null
}
