{
  "count": 551,
  "next": "https://goriva.si/api/v1/search/?format=json&franchise=&name=&o=&page=15&position=&radius=",
  "previous": "https://goriva.si/api/v1/search/?format=json&franchise=&name=&o=&page=13&position=&radius=",
  "results": [
    {
      "pk": 2358,
      "franchise": 5,
      "name": "SHELL BREZOVICA",
      "address": "Tržaška cesta 565",
      "lat": 46.02261874034981,
      "lng": 14.407761204034685,
      "prices": {
        "95": 1.53,
        "dizel": 1.607,
        "98": null,
        "100": 1.819,
        "dizel-premium": 1.859,
        "avtoplin-lpg": null,
        "KOEL": null,
        "hvo": null,
        "cng": null,
        "lng": null
      },
      "distance": null,
      "direction": "",
      "open_hours": "",
      "zip_code": "1351"
    },
    {
      "pk": 2359,
      "franchise": 5,
      "name": "SHELL MARIBOR V",
      "address": "Maribor Ptujska 2",
      "lat": 46.522438503045684,
      "lng": 15.679910715884338,
      "prices": {
        "95": 1.53,
        "dizel": 1.607,
        "98": null,
        "100": 1.819,
        "dizel-premium": 1.859,
        "avtoplin-lpg": null,
        "KOEL": null,
        "hvo": null,
        "cng": null,
        "lng": null
      },
      "distance": null,
      "direction": "",
      "open_hours": "",
      "zip_code": "2000"
    },
    {
      "pk": 2360,
      "franchise": 5,
      "name": "SHELL LOKEV",
      "address": "Lokev 1a",
      "lat": 45.66133077329971,
      "lng": 13.919418145832134,
      "prices": {
        "95": 1.53,
        "dizel": 1.607,
        "98": null,
        "100": 1.819,
        "dizel-premium": 1.859,
        "avtoplin-lpg": null,
        "KOEL": null,
        "hvo": null,
        "cng": null,
        "lng": null
      },
      "distance": null,
      "direction": "",
      "open_hours": "",
      "zip_code": "6219"
    },
    {
      "pk": 2361,
      "franchise": 5,
      "name": "SHELL KOMENDA",
      "address": "Potok pri Komendi 8",
      "lat": 46.20581146877878,
      "lng": 14.523937545251142,
      "prices": {
        "95": 1.53,
        "dizel": 1.607,
        "98": null,
        "100": 1.819,
        "dizel-premium": 1.859,
        "avtoplin-lpg": null,
        "KOEL": null,
        "hvo": null,
        "cng": null,
        "lng": null
      },
      "distance": null,
      "direction": "",
      "open_hours": "",
      "zip_code": "1218"
    },
    {
      "pk": 2362,
      "franchise": 5,
      "name": "SHELL MARIBOR PTUJSKA ZAHOD",
      "address": "Ptujska cesta 104",
      "lat": 46.535127602458296,
      "lng": 15.661573380820581,
      "prices": {
        "95": 1.53,
        "dizel": 1.607,
        "98": null,
        "100": 1.819,
        "dizel-premium": 1.859,
        "avtoplin-lpg": null,
        "KOEL": null,
        "hvo": null,
        "cng": null,
        "lng": null
      },
      "distance": null,
      "direction": "",
      "open_hours": "",
      "zip_code": "2000"
    },
    {
      "pk": 2363,
      "franchise": 5,
      "name": "SHELL TRBOVLJE",
      "address": "Vodenska cesta 28 A",
      "lat": 46.14297981487424,
      "lng": 15.036054161327268,
      "prices": {
        "95": 1.53,
        "dizel": 1.607,
        "98": null,
        "100": 1.819,
        "dizel-premium": 1.859,
        "avtoplin-lpg": null,
        "KOEL": null,
        "hvo": null,
        "cng": null,
        "lng": null
      },
      "distance": null,
      "direction": "",
      "open_hours": "",
      "zip_code": "1420"
    },
    {
      "pk": 2364,
      "franchise": 5,
      "name": "SHELL IZOLA SEVER",
      "address": "Prešernova cesta 2a",
      "lat": 45.53789717461961,
      "lng": 13.66872067047427,
      "prices": {
        "95": 1.53,
        "dizel": 1.607,
        "98": null,
        "100": 1.819,
        "dizel-premium": 1.859,
        "avtoplin-lpg": null,
        "KOEL": null,
        "hvo": null,
        "cng": null,
        "lng": null
      },
      "distance": null,
      "direction": "",
      "open_hours": "",
      "zip_code": "6310"
    },
    {
      "pk": 2365,
      "franchise": 5,
      "name": "SHELL MARIBOR BOHOVA",
      "address": "Tržaška cesta 83",
      "lat": 46.51807271424088,
      "lng": 15.651544379912487,
      "prices": {
        "95": 1.53,
        "dizel": 1.607,
        "98": null,
        "100": 1.819,
        "dizel-premium": 1.859,
        "avtoplin-lpg": null,
        "KOEL": null,
        "hvo": null,
        "cng": null,
        "lng": null
      },
      "distance": null,
      "direction": "",
      "open_hours": "",
      "zip_code": "2000"
    },
    {
      "pk": 2366,
      "franchise": 5,
      "name": "SHELL GEDEROVCI",
      "address": "Gederovci 17a",
      "lat": 46.679179385276846,
      "lng": 16.056043959027516,
      "prices": {
        "95": 1.53,
        "dizel": 1.607,
        "98": null,
        "100": 1.819,
        "dizel-premium": 1.859,
        "avtoplin-lpg": null,
        "KOEL": null,
        "hvo": null,
        "cng": null,
        "lng": null
      },
      "distance": null,
      "direction": "",
      "open_hours": "",
      "zip_code": ""
    },
    {
      "pk": 2367,
      "franchise": 5,
      "name": "SHELL KOČEVJE",
      "address": "Gornje Ložine 1A",
      "lat": 45.68934644998123,
      "lng": 14.799691221318923,
      "prices": {
        "95": 1.53,
        "dizel": 1.607,
        "98": null,
        "100": 1.819,
        "dizel-premium": 1.639,
        "avtoplin-lpg": null,
        "KOEL": null,
        "hvo": null,
        "cng": null,
        "lng": null
      },
      "distance": null,
      "direction": "",
      "open_hours": "",
      "zip_code": "1332"
    },
    {
      "pk": 2368,
      "franchise": 5,
      "name": "SHELL SLOVENSKE KONJICE",
      "address": "Liptovska cesta 32B",
      "lat": 46.34011896303725,
      "lng": 15.418721900923186,
      "prices": {
        "95": 1.53,
        "dizel": 1.607,
        "98": null,
        "100": 1.819,
        "dizel-premium": 1.679,
        "avtoplin-lpg": null,
        "KOEL": null,
        "hvo": null,
        "cng": null,
        "lng": null
      },
      "distance": null,
      "direction": "",
      "open_hours": "",
      "zip_code": "2310"
    },
    {
      "pk": 2369,
      "franchise": 5,
      "name": "SHELL LUCIJA VZHOD",
      "address": "Vinjole 29b",
      "lat": 45.50086689761921,
      "lng": 13.610492852317408,
      "prices": {
        "95": 1.53,
        "dizel": 1.607,
        "98": null,
        "100": 1.819,
        "dizel-premium": null,
        "avtoplin-lpg": null,
        "KOEL": null,
        "hvo": null,
        "cng": null,
        "lng": null
      },
      "distance": null,
      "direction": "",
      "open_hours": "",
      "zip_code": "6320"
    },
    {
      "pk": 2370,
      "franchise": 5,
      "name": "SHELL STOJNCI",
      "address": "Stojnci 24",
      "lat": 46.38048175449777,
      "lng": 15.972530744906699,
      "prices": {
        "95": 1.53,
        "dizel": 1.607,
        "98": null,
        "100": 1.819,
        "dizel-premium": 1.679,
        "avtoplin-lpg": null,
        "KOEL": null,
        "hvo": null,
        "cng": null,
        "lng": null
      },
      "distance": null,
      "direction": "",
      "open_hours": "",
      "zip_code": "2281"
    },
    {
      "pk": 2371,
      "franchise": 5,
      "name": "SHELL AJŠEVICA",
      "address": "Loke 40",
      "lat": 45.953170561531195,
      "lng": 13.691872647114305,
      "prices": {
        "95": 1.53,
        "dizel": 1.607,
        "98": null,
        "100": 1.819,
        "dizel-premium": null,
        "avtoplin-lpg": null,
        "KOEL": null,
        "hvo": null,
        "cng": null,
        "lng": null
      },
      "distance": null,
      "direction": "",
      "open_hours": "",
      "zip_code": "5000"
    },
    {
      "pk": 2372,
      "franchise": 5,
      "name": "SHELL ZG. POLSKAVA",
      "address": "Bukovec 1b",
      "lat": 46.43088480445796,
      "lng": 15.627126931204163,
      "prices": {
        "95": 1.53,
        "dizel": 1.607,
        "98": null,
        "100": 1.819,
        "dizel-premium": 1.569,
        "avtoplin-lpg": null,
        "KOEL": null,
        "hvo": null,
        "cng": null,
        "lng": null
      },
      "distance": null,
      "direction": "",
      "open_hours": "",
      "zip_code": "2314"
    },
    {
      "pk": 2378,
      "franchise": 1,
      "name": "PETROL ARNOVSKI GOZD",
      "address": "MALA PIREŠICA 23",
      "lat": 46.26910159,
      "lng": 15.18931474,
      "prices": {
        "95": 1.53,
        "dizel": 1.607,
        "98": null,
        "100": 1.808,
        "dizel-premium": 1.954,
        "avtoplin-lpg": 1.025,
        "KOEL": null,
        "hvo": null,
        "cng": null,
        "lng": null
      },
      "distance": null,
      "direction": "",
      "open_hours": "Ponedeljek, Torek, Sreda, Četrtek, Petek\n05:00-22:00\n\nSobota\n06:00-22:00\n\nNedelja, Praznik\n06:00-22:00\n",
      "zip_code": "3301"
    },
    {
      "pk": 2314,
      "franchise": 22,
      "name": "BS DEMOL",
      "address": "Mislinjska Dobrava 49",
      "lat": 46.459512,
      "lng": 15.137156,
      "prices": {
        "95": 1.536,
        "dizel": 1.651,
        "98": null,
        "100": null,
        "dizel-premium": null,
        "avtoplin-lpg": null,
        "KOEL": 1.233,
        "hvo": null,
        "cng": null,
        "lng": null
      },
      "distance": null,
      "direction": "",
      "open_hours": "Pondeljek-Petek\r\n06.00-21.00\r\n\r\nSobota \r\n07.00-20.00\r\n\r\nNedelja\r\n07.00-13.00\r\n\r\ndemol.mislinja@gmail.com",
      "zip_code": "2383"
    },
    {
      "pk": 769,
      "franchise": 2,
      "name": "BS MOL BRESTOVICA",
      "address": "Brestovica 116b",
      "lat": 45.81302,
      "lng": 13.62228,
      "prices": {
        "95": 1.592,
        "dizel": 1.718,
        "98": null,
        "100": null,
        "dizel-premium": null,
        "avtoplin-lpg": null,
        "KOEL": null,
        "hvo": null,
        "cng": null,
        "lng": null
      },
      "distance": null,
      "direction": "",
      "open_hours": "Januar / Februar / Marec / Oktober / November / December\n07:00-19:00\n\nApril / Maj / Junij / Julij / Avgust / September\n07:00-20:00\n",
      "zip_code": "6223"
    },
    {
      "pk": 771,
      "franchise": 2,
      "name": "BS MOL BREŽICE",
      "address": "C.Svobode 35",
      "lat": 45.913737,
      "lng": 15.595365,
      "prices": {
        "95": 1.592,
        "dizel": 1.718,
        "98": null,
        "100": 1.863,
        "dizel-premium": 1.889,
        "avtoplin-lpg": null,
        "KOEL": 1.318,
        "hvo": null,
        "cng": null,
        "lng": null
      },
      "distance": null,
      "direction": "",
      "open_hours": "06:00-22:00\n",
      "zip_code": "8250"
    },
    {
      "pk": 773,
      "franchise": 2,
      "name": "BS MOL CELJE MARIBORSKA JUG",
      "address": "Mariborska c. 84",
      "lat": 46.23923,
      "lng": 15.27456,
      "prices": {
        "95": 1.592,
        "dizel": 1.718,
        "98": null,
        "100": 1.863,
        "dizel-premium": null,
        "avtoplin-lpg": null,
        "KOEL": 1.318,
        "hvo": null,
        "cng": null,
        "lng": null
      },
      "distance": null,
      "direction": "",
      "open_hours": "Ponedeljek, Torek, Sreda, Četrtek, Petek\n05:00-22:00\n\nSobota, Nedelja, Praznik\n06:00-22:00\n",
      "zip_code": "3000"
    },
    {
      "pk": 774,
      "franchise": 2,
      "name": "BS MOL CELJE LJUBLJANSKA",
      "address": "Ljubljanska cesta 110",
      "lat": 46.238118,
      "lng": 15.235194,
      "prices": {
        "95": 1.592,
        "dizel": 1.718,
        "98": null,
        "100": 1.863,
        "dizel-premium": null,
        "avtoplin-lpg": null,
        "KOEL": null,
        "hvo": null,
        "cng": null,
        "lng": null
      },
      "distance": null,
      "direction": "",
      "open_hours": "Ponedeljek, Torek, Sreda, Četrtek, Petek\n06:00-22:00\n\nSobota, Nedelja, Praznik\n07:00-21:00\n",
      "zip_code": "3000"
    },
    {
      "pk": 775,
      "franchise": 2,
      "name": "BS MOL ČRNOMELJ",
      "address": "Belokranjska c. 18a",
      "lat": 45.57995,
      "lng": 15.19583,
      "prices": {
        "95": 1.592,
        "dizel": 1.718,
        "98": null,
        "100": 1.863,
        "dizel-premium": 1.889,
        "avtoplin-lpg": null,
        "KOEL": null,
        "hvo": null,
        "cng": null,
        "lng": null
      },
      "distance": null,
      "direction": "",
      "open_hours": "Ponedeljek, Torek, Sreda, Četrtek, Petek, Sobota\n06:00-21:00\n\nNedelja, Praznik\n08:00-20:00\n",
      "zip_code": "8340"
    },
    {
      "pk": 776,
      "franchise": 2,
      "name": "BS MOL DIVAČA",
      "address": "Kolodvorska 1",
      "lat": 45.681494,
      "lng": 13.968687,
      "prices": {
        "95": 1.592,
        "dizel": 1.718,
        "98": null,
        "100": 1.863,
        "dizel-premium": null,
        "avtoplin-lpg": null,
        "KOEL": 1.318,
        "hvo": null,
        "cng": null,
        "lng": null
      },
      "distance": null,
      "direction": "",
      "open_hours": "Ponedeljek, Torek, Sreda, Četrtek, Petek, Sobota\n06:00-20:00\n\nNedelja, Praznik\n09:00-18:00\n",
      "zip_code": "6215"
    },
    {
      "pk": 779,
      "franchise": 2,
      "name": "BS MOL DOL PRI LJUBLJANI",
      "address": "Podgora pri Dolskem 40",
      "lat": 46.090168,
      "lng": 14.650805,
      "prices": {
        "95": 1.592,
        "dizel": 1.718,
        "98": null,
        "100": 1.863,
        "dizel-premium": null,
        "avtoplin-lpg": null,
        "KOEL": 1.318,
        "hvo": null,
        "cng": null,
        "lng": null
      },
      "distance": null,
      "direction": "",
      "open_hours": "Ponedeljek, Torek, Sreda, Četrtek, Petek\n06:00-21:00\n\nSobota\n07:00-20:00\n\nNedelja, Praznik\n08:00-20:00\n\nNedelja, Praznik\n08:00-20:00\n",
      "zip_code": "1262"
    },
    {
      "pk": 780,
      "franchise": 2,
      "name": "BS MOL DRAVOGRAD",
      "address": "Koroška c. 49",
      "lat": 46.59033,
      "lng": 15.01542,
      "prices": {
        "95": 1.592,
        "dizel": 1.718,
        "98": null,
        "100": 1.863,
        "dizel-premium": null,
        "avtoplin-lpg": null,
        "KOEL": 1.318,
        "hvo": null,
        "cng": null,
        "lng": null
      },
      "distance": null,
      "direction": "",
      "open_hours": "Januar / Februar / Marec / April / Oktober / November / December\nPonedeljek, Torek, Sreda, Četrtek, Petek, Sobota\n05:30-20:00\n\nMaj / Junij / Julij / Avgust / September\nPonedeljek, Torek, Sreda, Četrtek, Petek, Sobota\n07:00-21:00\n\nNedelja, Praznik\n07:00-20:00\n",
      "zip_code": "2370"
    }
  ],
  "position": null
}
