{
  "count": 552,
  "next": "https://goriva.si/api/v1/search/?format=json&franchise=&name=&o=&page=13&position=&radius=",
  "previous": "https://goriva.si/api/v1/search/?format=json&franchise=&name=&o=&page=11&position=&radius=",
  "results": [
    {
      "pk": 2094,
      "franchise": 1,
      "name": "PETROL HRASTNIK",
      "address": "PODKRAJ 77B",
      "lat": 46.11937061,
      "lng": 15.08074191,
      "prices": {
        "95": 1.451,
        "dizel": 1.485,
        "98": null,
        "100": 1.673,
        "dizel-premium": null,
        "avtoplin-lpg": 0.819,
        "KOEL": 1.082,
        "hvo": null,
        "cng": null,
        "lng": null
      },
      "distance": null,
      "direction": "",
      "open_hours": "Ponedeljek, Torek, Sreda, Četrtek, Petek\n06:00-21:00\n\nSobota\n08:00-20:00\n\nNedelja, Praznik\n08:00-20:00\n",
      "zip_code": "1430"
    },
    {
      "pk": 2095,
      "franchise": 1,
      "name": "PETROL HRUŠICA AC - JUG",
      "address": "SPODNJI PLAVŽ 24A",
      "lat": 46.440467,
      "lng": 14.026493,
      "prices": {
        "95": 1.451,
        "dizel": 1.485,
        "98": null,
        "100": 1.793,
        "dizel-premium": 1.768,
        "avtoplin-lpg": 0.879,
        "KOEL": null,
        "hvo": null,
        "cng": null,
        "lng": null
      },
      "distance": null,
      "direction": "",
      "open_hours": "00:00-23:59\n",
      "zip_code": "4270"
    },
    {
      "pk": 2096,
      "franchise": 1,
      "name": "PETROL HRUŠICA AC - SEVER",
      "address": "SPODNJI PLAVŽ 24B",
      "lat": 46.440937,
      "lng": 14.028828,
      "prices": {
        "95": 1.451,
        "dizel": 1.485,
        "98": null,
        "100": 1.793,
        "dizel-premium": 1.768,
        "avtoplin-lpg": 0.859,
        "KOEL": null,
        "hvo": null,
        "cng": null,
        "lng": null
      },
      "distance": null,
      "direction": "Ljubljana -> Karavan",
      "open_hours": "00:00-23:59\n",
      "zip_code": "4270"
    },
    {
      "pk": 2098,
      "franchise": 1,
      "name": "PETROL IVANČNA GORICA",
      "address": "VODOTUČINE 14",
      "lat": 45.935276,
      "lng": 14.804536,
      "prices": {
        "95": 1.451,
        "dizel": 1.485,
        "98": null,
        "100": 1.673,
        "dizel-premium": 1.642,
        "avtoplin-lpg": 0.819,
        "KOEL": 1.082,
        "hvo": null,
        "cng": null,
        "lng": null
      },
      "distance": null,
      "direction": "",
      "open_hours": "Ponedeljek, Torek, Sreda, Četrtek, Petek\n05:30-22:00\n\nSobota\n06:00-22:00\n\nNedelja, Praznik\n07:00-22:00\n",
      "zip_code": "1295"
    },
    {
      "pk": 2099,
      "franchise": 1,
      "name": "PETROL ŠENČUR",
      "address": "POSLOVNA CONA A 1",
      "lat": 46.237904,
      "lng": 14.411983,
      "prices": {
        "95": 1.451,
        "dizel": 1.485,
        "98": null,
        "100": 1.673,
        "dizel-premium": null,
        "avtoplin-lpg": null,
        "KOEL": 1.082,
        "hvo": null,
        "cng": null,
        "lng": null
      },
      "distance": null,
      "direction": "",
      "open_hours": "Ponedeljek, Torek, Sreda, Četrtek, Petek\n05:30-21:00\n\nSobota\n05:30-21:00\n\nNedelja, Praznik\n07:00-20:00\n",
      "zip_code": "4208"
    },
    {
      "pk": 2100,
      "franchise": 1,
      "name": "PETROL VOKLO AC - ZAHOD",
      "address": "GASILSKA CESTA 55",
      "lat": 46.22788,
      "lng": 14.419719,
      "prices": {
        "95": 1.451,
        "dizel": 1.485,
        "98": null,
        "100": 1.793,
        "dizel-premium": null,
        "avtoplin-lpg": 0.859,
        "KOEL": null,
        "hvo": null,
        "cng": null,
        "lng": null
      },
      "distance": null,
      "direction": "",
      "open_hours": "00:00-23:59\n",
      "zip_code": "4208"
    },
    {
      "pk": 2101,
      "franchise": 1,
      "name": "PETROL VOKLO AC - VZHOD",
      "address": "GASILSKA CESTA 51",
      "lat": 46.22679,
      "lng": 14.424885,
      "prices": {
        "95": 1.451,
        "dizel": 1.485,
        "98": null,
        "100": 1.793,
        "dizel-premium": null,
        "avtoplin-lpg": 0.859,
        "KOEL": null,
        "hvo": null,
        "cng": null,
        "lng": null
      },
      "distance": null,
      "direction": "",
      "open_hours": "00:00-23:59\n",
      "zip_code": "4208"
    },
    {
      "pk": 2102,
      "franchise": 1,
      "name": "PETROL TRBOVLJE - VODENSKA",
      "address": "VODENSKA CESTA 1B",
      "lat": 46.1372489,
      "lng": 15.03407943,
      "prices": {
        "95": 1.451,
        "dizel": 1.485,
        "98": null,
        "100": null,
        "dizel-premium": null,
        "avtoplin-lpg": null,
        "KOEL": 1.082,
        "hvo": null,
        "cng": null,
        "lng": null
      },
      "distance": null,
      "direction": "",
      "open_hours": "Ponedeljek, Torek, Sreda, Četrtek, Petek\n05:00-16:30\n\nSobota\n06:30-12:00\n",
      "zip_code": "1420"
    },
    {
      "pk": 2104,
      "franchise": 1,
      "name": "PETROL KRANJSKA GORA",
      "address": "SAVSKO NASELJE 8",
      "lat": 46.48650758,
      "lng": 13.79815941,
      "prices": {
        "95": 1.451,
        "dizel": 1.485,
        "98": null,
        "100": 1.673,
        "dizel-premium": null,
        "avtoplin-lpg": null,
        "KOEL": 1.082,
        "hvo": null,
        "cng": null,
        "lng": null
      },
      "distance": null,
      "direction": "",
      "open_hours": "Ponedeljek, Torek, Sreda, Četrtek, Petek\n06:00-22:00\n\nSobota\n06:00-22:00\n\nNedelja, Praznik\n07:00-20:00\n",
      "zip_code": "4280"
    },
    {
      "pk": 2105,
      "franchise": 1,
      "name": "PETROL JESENICE - KOROŠKA BELA",
      "address": "CESTA BORISA KIDRIČA 50",
      "lat": 46.42262407,
      "lng": 14.10274656,
      "prices": {
        "95": 1.451,
        "dizel": 1.485,
        "98": null,
        "100": null,
        "dizel-premium": null,
        "avtoplin-lpg": null,
        "KOEL": 1.082,
        "hvo": null,
        "cng": null,
        "lng": null
      },
      "distance": null,
      "direction": "",
      "open_hours": "Ponedeljek, Torek, Sreda, Četrtek, Petek\n06:00-09:00, 09:30-16:00, 16:30-19:00\n\nSobota\n07:00-09:00, 09:30-13:00\n",
      "zip_code": "4270"
    },
    {
      "pk": 2106,
      "franchise": 1,
      "name": "PETROL IZLAKE",
      "address": "OBREZIJA 6",
      "lat": 46.150311,
      "lng": 14.931488,
      "prices": {
        "95": 1.451,
        "dizel": 1.485,
        "98": null,
        "100": null,
        "dizel-premium": null,
        "avtoplin-lpg": null,
        "KOEL": 1.082,
        "hvo": null,
        "cng": null,
        "lng": null
      },
      "distance": null,
      "direction": "",
      "open_hours": "Ponedeljek, Torek, Sreda, Četrtek, Petek\n05:30-19:00\n\nSobota\n07:00-14:00\n",
      "zip_code": "1411"
    },
    {
      "pk": 2107,
      "franchise": 1,
      "name": "PETROL ČEŠNJICE V TUHINJU",
      "address": "GOLICE 1B",
      "lat": 46.219526,
      "lng": 14.790614,
      "prices": {
        "95": 1.451,
        "dizel": 1.485,
        "98": null,
        "100": null,
        "dizel-premium": null,
        "avtoplin-lpg": null,
        "KOEL": 1.082,
        "hvo": null,
        "cng": null,
        "lng": null
      },
      "distance": null,
      "direction": "",
      "open_hours": "Ponedeljek\n07:00-11:30, 12:00-15:00\n\nTorek\n07:00-11:30, 12:00-15:00\n\nSreda\n07:00-11:30, 12:00-18:00\n\nČetrtek\n07:00-11:30, 12:00-15:00\n\nPetek\n07:00-11:30, 12:00-15:00\n\nSobota\n07:00-11:30, 12:00-15:00\n\nNedelja, Praznik\n07:00-12:00\n",
      "zip_code": "1219"
    },
    {
      "pk": 2108,
      "franchise": 1,
      "name": "PETROL TRŽIČ - ZAHOD",
      "address": "CESTA STE MARIE AUX MINES 13",
      "lat": 46.35378031,
      "lng": 14.29244434,
      "prices": {
        "95": 1.451,
        "dizel": 1.485,
        "98": null,
        "100": 1.673,
        "dizel-premium": null,
        "avtoplin-lpg": null,
        "KOEL": 1.082,
        "hvo": null,
        "cng": null,
        "lng": null
      },
      "distance": null,
      "direction": "",
      "open_hours": "Ponedeljek, Torek, Sreda, Četrtek, Petek\n06:00-21:00\n\nSobota\n06:00-21:00\n\nNedelja, Praznik\n07:00-21:00\n",
      "zip_code": "4290"
    },
    {
      "pk": 2109,
      "franchise": 1,
      "name": "PETROL VRHNIKA - LJUBLJANSKA VZHOD",
      "address": "LJUBLJANSKA CESTA 4",
      "lat": 45.96798994,
      "lng": 14.299624,
      "prices": {
        "95": 1.451,
        "dizel": 1.485,
        "98": null,
        "100": null,
        "dizel-premium": null,
        "avtoplin-lpg": null,
        "KOEL": 1.082,
        "hvo": null,
        "cng": null,
        "lng": null
      },
      "distance": null,
      "direction": "",
      "open_hours": "Ponedeljek, Torek, Sreda, Četrtek, Petek\n05:30-20:30\n\nSobota\n06:00-20:00\n\nNedelja, Praznik\n09:00-19:00\n",
      "zip_code": "1360"
    },
    {
      "pk": 2110,
      "franchise": 1,
      "name": "PETROL LITIJA - BRODARSKA",
      "address": "BRODARSKA ULICA 1",
      "lat": 46.058657,
      "lng": 14.834124,
      "prices": {
        "95": 1.451,
        "dizel": 1.485,
        "98": null,
        "100": 1.673,
        "dizel-premium": 1.642,
        "avtoplin-lpg": 0.819,
        "KOEL": null,
        "hvo": null,
        "cng": null,
        "lng": null
      },
      "distance": null,
      "direction": "",
      "open_hours": "Ponedeljek, Torek, Sreda, Četrtek, Petek\n05:00-22:00\n\nSobota\n06:00-22:00\n\nNedelja, Praznik\n07:00-22:00\n",
      "zip_code": "1270"
    },
    {
      "pk": 2111,
      "franchise": 1,
      "name": "PETROL MOSTE PRI KOMENDI",
      "address": "MOSTE 40F",
      "lat": 46.19157546,
      "lng": 14.55000276,
      "prices": {
        "95": 1.451,
        "dizel": 1.485,
        "98": null,
        "100": 1.673,
        "dizel-premium": null,
        "avtoplin-lpg": null,
        "KOEL": 1.082,
        "hvo": null,
        "cng": null,
        "lng": null
      },
      "distance": null,
      "direction": "",
      "open_hours": "Ponedeljek, Torek, Sreda, Četrtek, Petek\n06:00-20:00\n\nSobota\n07:00-19:00\n\nNedelja, Praznik\n08:30-19:00\n",
      "zip_code": "1218"
    },
    {
      "pk": 2112,
      "franchise": 1,
      "name": "PETROL MEDVODE - GORENJSKA 15",
      "address": "GORENJSKA CESTA 15",
      "lat": 46.14877179,
      "lng": 14.40705025,
      "prices": {
        "95": 1.451,
        "dizel": 1.485,
        "98": null,
        "100": null,
        "dizel-premium": null,
        "avtoplin-lpg": null,
        "KOEL": null,
        "hvo": null,
        "cng": null,
        "lng": null
      },
      "distance": null,
      "direction": "",
      "open_hours": "Ponedeljek, Torek, Sreda, Četrtek, Petek\n05:30-09:30, 10:00-15:00, 15:30-19:00\n\nSobota\n06:00-12:00, 12:30-17:00\n\nNedelja, Praznik\n08:00-12:00, 12:30-17:00\n",
      "zip_code": "1215"
    },
    {
      "pk": 2113,
      "franchise": 1,
      "name": "PETROL KRANJ - STANETA ŽAGARJA 53B",
      "address": "CESTA STANETA ŽAGARJA 53B",
      "lat": 46.24371235,
      "lng": 14.36955351,
      "prices": {
        "95": 1.451,
        "dizel": 1.485,
        "98": null,
        "100": null,
        "dizel-premium": null,
        "avtoplin-lpg": null,
        "KOEL": null,
        "hvo": null,
        "cng": null,
        "lng": null
      },
      "distance": null,
      "direction": "",
      "open_hours": "Ponedeljek, Torek, Sreda, Četrtek, Petek\n06:00-19:00\n\nSobota\n08:00-13:00\n",
      "zip_code": "4000"
    },
    {
      "pk": 2114,
      "franchise": 1,
      "name": "PETROL LESCE",
      "address": "HRAŠKA CESTA 13A",
      "lat": 46.36782569,
      "lng": 14.15376274,
      "prices": {
        "95": 1.451,
        "dizel": 1.485,
        "98": null,
        "100": null,
        "dizel-premium": null,
        "avtoplin-lpg": null,
        "KOEL": 1.082,
        "hvo": null,
        "cng": null,
        "lng": null
      },
      "distance": null,
      "direction": "",
      "open_hours": "Ponedeljek, Torek, Sreda, Četrtek, Petek\n07:00-20:00\n\nSobota\n08:00-19:00\n\nNedelja, Praznik\n08:00-16:00\n",
      "zip_code": "4248"
    },
    {
      "pk": 2115,
      "franchise": 1,
      "name": "PETROL MEDVODE - GORENJSKA 14",
      "address": "GORENJSKA CESTA 14",
      "lat": 46.13700649,
      "lng": 14.4167802,
      "prices": {
        "95": 1.451,
        "dizel": 1.485,
        "98": null,
        "100": 1.673,
        "dizel-premium": 1.642,
        "avtoplin-lpg": 0.819,
        "KOEL": null,
        "hvo": null,
        "cng": null,
        "lng": null
      },
      "distance": null,
      "direction": "",
      "open_hours": "Ponedeljek, Torek, Sreda, Četrtek, Petek\n06:00-22:00\n\nSobota\n06:00-22:00\n\nNedelja, Praznik\n07:00-21:00\n",
      "zip_code": "1215"
    },
    {
      "pk": 2117,
      "franchise": 1,
      "name": "PETROL JESENICE - CESTA ŽELEZARJEV",
      "address": "CESTA ŽELEZARJEV 7B",
      "lat": 46.43218809,
      "lng": 14.06315786,
      "prices": {
        "95": 1.451,
        "dizel": 1.485,
        "98": null,
        "100": 1.673,
        "dizel-premium": null,
        "avtoplin-lpg": null,
        "KOEL": null,
        "hvo": null,
        "cng": null,
        "lng": null
      },
      "distance": null,
      "direction": "",
      "open_hours": "Ponedeljek, Torek, Sreda, Četrtek, Petek\n06:00-22:00\n\nSobota\n07:00-22:00\n\nNedelja, Praznik\n07:00-21:00\n",
      "zip_code": "4270"
    },
    {
      "pk": 2118,
      "franchise": 1,
      "name": "PETROL GABROVKA",
      "address": "KLANEC PRI GABROVKI 12",
      "lat": 45.995845,
      "lng": 14.976083,
      "prices": {
        "95": 1.451,
        "dizel": 1.485,
        "98": null,
        "100": null,
        "dizel-premium": null,
        "avtoplin-lpg": null,
        "KOEL": null,
        "hvo": null,
        "cng": null,
        "lng": null
      },
      "distance": null,
      "direction": "",
      "open_hours": "00:00-00:00\n",
      "zip_code": "1274"
    },
    {
      "pk": 2119,
      "franchise": 1,
      "name": "PETROL GROSUPLJE",
      "address": "LJUBLJANSKA CESTA 16A",
      "lat": 45.958264,
      "lng": 14.657955,
      "prices": {
        "95": 1.451,
        "dizel": 1.485,
        "98": null,
        "100": 1.673,
        "dizel-premium": null,
        "avtoplin-lpg": 0.819,
        "KOEL": 1.082,
        "hvo": null,
        "cng": null,
        "lng": null
      },
      "distance": null,
      "direction": "",
      "open_hours": "Ponedeljek, Torek, Sreda, Četrtek, Petek\n06:00-22:00\n\nSobota\n06:00-22:00\n\nNedelja, Praznik\n07:00-21:00\n",
      "zip_code": "1290"
    },
    {
      "pk": 2120,
      "franchise": 1,
      "name": "PETROL PODSMREKA AC - SEVER",
      "address": "PODSMREKA PRI VIŠNJI GORI 15",
      "lat": 45.947759,
      "lng": 14.771093,
      "prices": {
        "95": 1.451,
        "dizel": 1.485,
        "98": null,
        "100": 1.793,
        "dizel-premium": null,
        "avtoplin-lpg": 0.859,
        "KOEL": null,
        "hvo": null,
        "cng": null,
        "lng": null
      },
      "distance": null,
      "direction": "",
      "open_hours": "00:00-23:59\n",
      "zip_code": "1294"
    },
    {
      "pk": 2121,
      "franchise": 1,
      "name": "PETROL KAMNIK - PEROVO",
      "address": "PEROVO 24",
      "lat": 46.20908766,
      "lng": 14.60717566,
      "prices": {
        "95": 1.451,
        "dizel": 1.485,
        "98": null,
        "100": 1.673,
        "dizel-premium": 1.642,
        "avtoplin-lpg": null,
        "KOEL": 1.082,
        "hvo": null,
        "cng": null,
        "lng": null
      },
      "distance": null,
      "direction": "",
      "open_hours": "05:00-22:00\n",
      "zip_code": "1241"
    }
  ],
  "position": null
}
