{
  "count": 551,
  "next": "https://goriva.si/api/v1/search/?format=json&franchise=&name=&o=&page=22&position=&radius=",
  "previous": "https://goriva.si/api/v1/search/?format=json&franchise=&name=&o=&page=20&position=&radius=",
  "results": [
    {
      "pk": 2123,
      "franchise": 1,
      "name": "PETROL LUKOVICA AC - JUG",
      "address": "KOSESKEGA CESTA 1",
      "lat": 46.166803,
      "lng": 14.693314,
      "prices": {
        "95": 1.759,
        "dizel": 1.808,
        "98": null,
        "100": 2.019,
        "dizel-premium": 2.128,
        "avtoplin-lpg": 0.993,
        "KOEL": null,
        "hvo": null,
        "cng": null,
        "lng": null
      },
      "distance": null,
      "direction": "Ljubljana -> Maribor",
      "open_hours": "00:00-23:59\n",
      "zip_code": "1225"
    },
    {
      "pk": 2175,
      "franchise": 1,
      "name": "PETROL TEPANJE AC - ZAHOD",
      "address": "SPODNJE GRUŠOVJE 10C",
      "lat": 46.348824,
      "lng": 15.487582,
      "prices": {
        "95": 1.759,
        "dizel": 1.808,
        "98": null,
        "100": 2.019,
        "dizel-premium": null,
        "avtoplin-lpg": 0.993,
        "KOEL": null,
        "hvo": null,
        "cng": null,
        "lng": null
      },
      "distance": null,
      "direction": "Maribor -> Ljubljana",
      "open_hours": "00:00-23:59\n",
      "zip_code": "3210"
    },
    {
      "pk": 2176,
      "franchise": 1,
      "name": "PETROL TEPANJE AC - VZHOD",
      "address": "SPODNJE GRUŠOVJE 10B",
      "lat": 46.347484,
      "lng": 15.48757,
      "prices": {
        "95": 1.759,
        "dizel": 1.808,
        "98": null,
        "100": 2.019,
        "dizel-premium": null,
        "avtoplin-lpg": 0.993,
        "KOEL": null,
        "hvo": null,
        "cng": null,
        "lng": null
      },
      "distance": null,
      "direction": "Ljubljana -> Maribor",
      "open_hours": "00:00-23:59\n",
      "zip_code": "3210"
    },
    {
      "pk": 2216,
      "franchise": 1,
      "name": "PETROL LOPATA AC - SEVER",
      "address": "LOPATA 81",
      "lat": 46.262458,
      "lng": 15.222118,
      "prices": {
        "95": 1.759,
        "dizel": 1.808,
        "98": null,
        "100": 2.019,
        "dizel-premium": 2.128,
        "avtoplin-lpg": 0.993,
        "KOEL": null,
        "hvo": null,
        "cng": null,
        "lng": null
      },
      "distance": null,
      "direction": "Maribor -> Ljubljana",
      "open_hours": "00:00-23:59\n",
      "zip_code": "3000"
    },
    {
      "pk": 1923,
      "franchise": 1,
      "name": "PETROL ŠENTILJ AC - ZAHOD",
      "address": "CESTA 2. JULIJA 19",
      "lat": 46.68509786,
      "lng": 15.64986497,
      "prices": {
        "95": 1.764,
        "dizel": 1.813,
        "98": null,
        "100": 2.019,
        "dizel-premium": null,
        "avtoplin-lpg": 0.993,
        "KOEL": null,
        "hvo": null,
        "cng": null,
        "lng": null
      },
      "distance": null,
      "direction": "Maribor -> Ljubljana",
      "open_hours": "00:00-23:59\n",
      "zip_code": "2212"
    },
    {
      "pk": 1977,
      "franchise": 1,
      "name": "PETROL MARIBOR - AC ZAHOD",
      "address": "NA POLJU 24",
      "lat": 46.532935,
      "lng": 15.699297,
      "prices": {
        "95": 1.764,
        "dizel": 1.813,
        "98": null,
        "100": 2.019,
        "dizel-premium": 2.128,
        "avtoplin-lpg": 0.993,
        "KOEL": null,
        "hvo": null,
        "cng": null,
        "lng": null
      },
      "distance": null,
      "direction": "Maribor -> Ljubljana",
      "open_hours": "00:00-23:59\n",
      "zip_code": "2000"
    },
    {
      "pk": 2060,
      "franchise": 1,
      "name": "PETROL LJUBLJANA AC - BARJE JUG",
      "address": "CESTA DVEH CESARJEV 73",
      "lat": 46.028806,
      "lng": 14.478422,
      "prices": {
        "95": 1.764,
        "dizel": 1.813,
        "98": null,
        "100": 2.019,
        "dizel-premium": 2.128,
        "avtoplin-lpg": 0.993,
        "KOEL": null,
        "hvo": 3.078,
        "cng": 1.375,
        "lng": null
      },
      "distance": null,
      "direction": "",
      "open_hours": "00:00-23:59\n",
      "zip_code": "1000"
    },
    {
      "pk": 2095,
      "franchise": 1,
      "name": "PETROL HRUŠICA AC - JUG",
      "address": "SPODNJI PLAVŽ 24A",
      "lat": 46.440467,
      "lng": 14.026493,
      "prices": {
        "95": 1.764,
        "dizel": 1.813,
        "98": null,
        "100": 2.019,
        "dizel-premium": 2.128,
        "avtoplin-lpg": null,
        "KOEL": null,
        "hvo": null,
        "cng": null,
        "lng": null
      },
      "distance": null,
      "direction": "",
      "open_hours": "00:00-23:59\n",
      "zip_code": "4270"
    },
    {
      "pk": 2100,
      "franchise": 1,
      "name": "PETROL VOKLO AC - ZAHOD",
      "address": "GASILSKA CESTA 55",
      "lat": 46.22788,
      "lng": 14.419719,
      "prices": {
        "95": 1.764,
        "dizel": 1.813,
        "98": null,
        "100": 2.019,
        "dizel-premium": null,
        "avtoplin-lpg": 0.993,
        "KOEL": null,
        "hvo": null,
        "cng": null,
        "lng": null
      },
      "distance": null,
      "direction": "",
      "open_hours": "00:00-23:59\n",
      "zip_code": "4208"
    },
    {
      "pk": 2141,
      "franchise": 1,
      "name": "PETROL ČATEŽ AC - JUG",
      "address": "RIMSKA CESTA 11",
      "lat": 45.891904,
      "lng": 15.597607,
      "prices": {
        "95": 1.764,
        "dizel": 1.813,
        "98": null,
        "100": 2.019,
        "dizel-premium": 2.128,
        "avtoplin-lpg": null,
        "KOEL": null,
        "hvo": null,
        "cng": null,
        "lng": null
      },
      "distance": null,
      "direction": "",
      "open_hours": "00:00-23:59\n",
      "zip_code": "8250"
    },
    {
      "pk": 2201,
      "franchise": 1,
      "name": "PETROL ZALOKE AC - JUG",
      "address": "ZALOKE 16",
      "lat": 45.908304,
      "lng": 15.400616,
      "prices": {
        "95": 1.764,
        "dizel": 1.813,
        "98": null,
        "100": 2.019,
        "dizel-premium": null,
        "avtoplin-lpg": 0.993,
        "KOEL": null,
        "hvo": null,
        "cng": null,
        "lng": null
      },
      "distance": null,
      "direction": "",
      "open_hours": "00:00-23:59\n",
      "zip_code": "8274"
    },
    {
      "pk": 2229,
      "franchise": 1,
      "name": "PETROL STARINE AC - JUG",
      "address": "ZAGRAD PRI OTOČCU 111",
      "lat": 45.841312,
      "lng": 15.217206,
      "prices": {
        "95": 1.764,
        "dizel": 1.813,
        "98": null,
        "100": 2.019,
        "dizel-premium": 2.128,
        "avtoplin-lpg": 0.993,
        "KOEL": null,
        "hvo": null,
        "cng": null,
        "lng": null
      },
      "distance": null,
      "direction": "",
      "open_hours": "00:00-23:59\n",
      "zip_code": "8222"
    },
    {
      "pk": 2231,
      "franchise": 1,
      "name": "PETROL DUL AC - JUG",
      "address": "DOLENJI PODBORŠT PRI TREB. 50",
      "lat": 45.898858,
      "lng": 15.026398,
      "prices": {
        "95": 1.764,
        "dizel": 1.813,
        "98": null,
        "100": 2.019,
        "dizel-premium": 2.128,
        "avtoplin-lpg": 0.993,
        "KOEL": null,
        "hvo": null,
        "cng": null,
        "lng": null
      },
      "distance": null,
      "direction": "Ljubljana -> Novo Me",
      "open_hours": "00:00-23:59\n",
      "zip_code": "8210"
    },
    {
      "pk": 2232,
      "franchise": 1,
      "name": "PETROL PODLEHNIK AC - ZAHOD",
      "address": "DEŽNO PRI PODLEHNIKU 2",
      "lat": 46.329098,
      "lng": 15.878359,
      "prices": {
        "95": 1.764,
        "dizel": 1.813,
        "98": null,
        "100": 2.019,
        "dizel-premium": 2.128,
        "avtoplin-lpg": 0.993,
        "KOEL": null,
        "hvo": null,
        "cng": null,
        "lng": null
      },
      "distance": null,
      "direction": "",
      "open_hours": "00:00-23:59\n",
      "zip_code": "2286"
    },
    {
      "pk": 1945,
      "franchise": 1,
      "name": "PETROL ŠENTILJ AC - VZHOD",
      "address": "CESTA 2. JULIJA 22",
      "lat": 46.6859127,
      "lng": 15.65055471,
      "prices": {
        "95": 1.769,
        "dizel": 1.818,
        "98": null,
        "100": 2.019,
        "dizel-premium": null,
        "avtoplin-lpg": 0.993,
        "KOEL": null,
        "hvo": null,
        "cng": null,
        "lng": null
      },
      "distance": null,
      "direction": "",
      "open_hours": "00:00-23:59\n",
      "zip_code": "2212"
    },
    {
      "pk": 1949,
      "franchise": 1,
      "name": "PETROL PODLEHNIK AC - VZHOD",
      "address": "STANOŠINA 35",
      "lat": 46.326604,
      "lng": 15.880214,
      "prices": {
        "95": 1.769,
        "dizel": 1.818,
        "98": null,
        "100": 2.019,
        "dizel-premium": 2.128,
        "avtoplin-lpg": 0.993,
        "KOEL": null,
        "hvo": null,
        "cng": null,
        "lng": null
      },
      "distance": null,
      "direction": "",
      "open_hours": "00:00-23:59\n",
      "zip_code": "2286"
    },
    {
      "pk": 1978,
      "franchise": 1,
      "name": "PETROL MARIBOR - AC VZHOD",
      "address": "NA POLJU 20",
      "lat": 46.531265,
      "lng": 15.701209,
      "prices": {
        "95": 1.769,
        "dizel": 1.818,
        "98": null,
        "100": 2.019,
        "dizel-premium": 2.128,
        "avtoplin-lpg": 0.993,
        "KOEL": null,
        "hvo": null,
        "cng": null,
        "lng": null
      },
      "distance": null,
      "direction": "Maribor -> Pince",
      "open_hours": "00:00-23:59\n",
      "zip_code": "2000"
    },
    {
      "pk": 2059,
      "franchise": 1,
      "name": "PETROL LJUBLJANA AC - BARJE SEVER",
      "address": "CESTA DVEH CESARJEV 71",
      "lat": 46.029136,
      "lng": 14.481739,
      "prices": {
        "95": 1.769,
        "dizel": 1.818,
        "98": null,
        "100": 2.019,
        "dizel-premium": 2.128,
        "avtoplin-lpg": 0.993,
        "KOEL": null,
        "hvo": 3.078,
        "cng": 1.375,
        "lng": null
      },
      "distance": null,
      "direction": "",
      "open_hours": "00:00-23:59\n",
      "zip_code": "1000"
    },
    {
      "pk": 2096,
      "franchise": 1,
      "name": "PETROL HRUŠICA AC - SEVER",
      "address": "SPODNJI PLAVŽ 24B",
      "lat": 46.440937,
      "lng": 14.028828,
      "prices": {
        "95": 1.769,
        "dizel": 1.818,
        "98": null,
        "100": 2.019,
        "dizel-premium": 2.128,
        "avtoplin-lpg": 0.993,
        "KOEL": null,
        "hvo": null,
        "cng": null,
        "lng": null
      },
      "distance": null,
      "direction": "Ljubljana -> Karavan",
      "open_hours": "00:00-23:59\n",
      "zip_code": "4270"
    },
    {
      "pk": 2101,
      "franchise": 1,
      "name": "PETROL VOKLO AC - VZHOD",
      "address": "GASILSKA CESTA 51",
      "lat": 46.22679,
      "lng": 14.424885,
      "prices": {
        "95": 1.769,
        "dizel": 1.818,
        "98": null,
        "100": 2.019,
        "dizel-premium": null,
        "avtoplin-lpg": 0.993,
        "KOEL": null,
        "hvo": null,
        "cng": null,
        "lng": null
      },
      "distance": null,
      "direction": "",
      "open_hours": "00:00-23:59\n",
      "zip_code": "4208"
    },
    {
      "pk": 2120,
      "franchise": 1,
      "name": "PETROL PODSMREKA AC - SEVER",
      "address": "PODSMREKA PRI VIŠNJI GORI 15",
      "lat": 45.947759,
      "lng": 14.771093,
      "prices": {
        "95": 1.769,
        "dizel": 1.818,
        "98": null,
        "100": 2.019,
        "dizel-premium": null,
        "avtoplin-lpg": 0.993,
        "KOEL": null,
        "hvo": null,
        "cng": null,
        "lng": null
      },
      "distance": null,
      "direction": "",
      "open_hours": "00:00-23:59\n",
      "zip_code": "1294"
    },
    {
      "pk": 2162,
      "franchise": 1,
      "name": "PETROL OBREŽJE AC - VZHOD",
      "address": "JESENICE 32A",
      "lat": 45.85448,
      "lng": 15.686297,
      "prices": {
        "95": 1.769,
        "dizel": 1.818,
        "98": null,
        "100": 2.019,
        "dizel-premium": 2.128,
        "avtoplin-lpg": null,
        "KOEL": null,
        "hvo": null,
        "cng": null,
        "lng": null
      },
      "distance": null,
      "direction": "",
      "open_hours": "00:00-23:59\n",
      "zip_code": "8261"
    },
    {
      "pk": 2202,
      "franchise": 1,
      "name": "PETROL ZALOKE AC - SEVER",
      "address": "ZALOKE 15",
      "lat": 45.909601,
      "lng": 15.400316,
      "prices": {
        "95": 1.769,
        "dizel": 1.818,
        "98": null,
        "100": 2.019,
        "dizel-premium": null,
        "avtoplin-lpg": 0.993,
        "KOEL": null,
        "hvo": null,
        "cng": null,
        "lng": null
      },
      "distance": null,
      "direction": "",
      "open_hours": "00:00-23:59\n",
      "zip_code": "8274"
    },
    {
      "pk": 2230,
      "franchise": 1,
      "name": "PETROL STARINE AC - SEVER",
      "address": "ZAGRAD PRI OTOČCU 110",
      "lat": 45.841967,
      "lng": 15.216726,
      "prices": {
        "95": 1.769,
        "dizel": 1.818,
        "98": null,
        "100": 2.019,
        "dizel-premium": 2.128,
        "avtoplin-lpg": 0.993,
        "KOEL": null,
        "hvo": null,
        "cng": null,
        "lng": null
      },
      "distance": null,
      "direction": "",
      "open_hours": "00:00-23:59\n",
      "zip_code": "8222"
    },
    {
      "pk": 784,
      "franchise": 2,
      "name": "BS MOL TRUCK SEŽANA",
      "address": "Partizanska 77",
      "lat": 45.70387478,
      "lng": 13.8514001,
      "prices": {
        "95": null,
        "dizel": 1.64,
        "98": null,
        "100": null,
        "dizel-premium": null,
        "avtoplin-lpg": null,
        "KOEL": null,
        "hvo": null,
        "cng": null,
        "lng": null
      },
      "distance": null,
      "direction": "",
      "open_hours": "00:00-23:59\n",
      "zip_code": "6210"
    }
  ],
  "position": null
}
