{
  "count": 552,
  "next": "https://goriva.si/api/v1/search/?format=json&franchise=&name=&o=&page=9&position=&radius=",
  "previous": "https://goriva.si/api/v1/search/?format=json&franchise=&name=&o=&page=7&position=&radius=",
  "results": [
    {
      "pk": 1983,
      "franchise": 1,
      "name": "PETROL GOLO BRDO V BRDIH",
      "address": "GOLO BRDO 10B",
      "lat": 46.054382,
      "lng": 13.497999,
      "prices": {
        "95": 1.436,
        "dizel": 1.465,
        "98": null,
        "100": null,
        "dizel-premium": null,
        "avtoplin-lpg": null,
        "KOEL": null,
        "hvo": null,
        "cng": null,
        "lng": null
      },
      "distance": null,
      "direction": "",
      "open_hours": "Ponedeljek, Torek, Sreda, Četrtek, Petek\n07:00-10:00, 10:30-17:00, 17:30-20:00\n\nSobota\n07:00-10:00, 10:30-17:00, 17:30-20:00\n\nNedelja, Praznik\n08:00-12:00, 12:45-20:00\n",
      "zip_code": "5212"
    },
    {
      "pk": 1984,
      "franchise": 1,
      "name": "PETROL NOVA GORICA - VOJKOVA ZAHOD",
      "address": "VOJKOVA CESTA 52",
      "lat": 45.96223076,
      "lng": 13.64898236,
      "prices": {
        "95": 1.436,
        "dizel": 1.465,
        "98": null,
        "100": 1.671,
        "dizel-premium": null,
        "avtoplin-lpg": null,
        "KOEL": null,
        "hvo": null,
        "cng": null,
        "lng": null
      },
      "distance": null,
      "direction": "",
      "open_hours": "Ponedeljek, Torek, Sreda, Četrtek, Petek\n07:00-20:00\n\nSobota\n07:00-20:00\n",
      "zip_code": "5000"
    },
    {
      "pk": 1985,
      "franchise": 1,
      "name": "PETROL ŠEMPAS",
      "address": "ŠEMPAS 161A",
      "lat": 45.93039187,
      "lng": 13.73978149,
      "prices": {
        "95": 1.436,
        "dizel": 1.465,
        "98": null,
        "100": null,
        "dizel-premium": null,
        "avtoplin-lpg": null,
        "KOEL": 1.071,
        "hvo": null,
        "cng": null,
        "lng": null
      },
      "distance": null,
      "direction": "",
      "open_hours": "Ponedeljek, Torek, Sreda, Četrtek, Petek\n07:00-10:00, 10:30-17:00, 17:30-19:00\n\nSobota\n08:00-10:00, 10:30-17:00, 17:30-19:00\n\nNedelja, Praznik\n08:00-12:00, 12:30-15:00\n",
      "zip_code": "5261"
    },
    {
      "pk": 1986,
      "franchise": 1,
      "name": "PETROL BOVEC",
      "address": "DVOR 44",
      "lat": 46.33279417,
      "lng": 13.54135681,
      "prices": {
        "95": 1.436,
        "dizel": 1.465,
        "98": null,
        "100": 1.671,
        "dizel-premium": null,
        "avtoplin-lpg": null,
        "KOEL": 1.071,
        "hvo": null,
        "cng": null,
        "lng": null
      },
      "distance": null,
      "direction": "",
      "open_hours": "Ponedeljek, Torek, Sreda, Četrtek, Petek\n07:00-20:00\n\nSobota\n07:00-20:00\n\nNedelja, Praznik\n07:00-18:00\n",
      "zip_code": "5230"
    },
    {
      "pk": 1987,
      "franchise": 1,
      "name": "PETROL ČRNI VRH",
      "address": "ČRNI VRH 121",
      "lat": 45.92556913,
      "lng": 14.05336933,
      "prices": {
        "95": 1.436,
        "dizel": 1.465,
        "98": null,
        "100": null,
        "dizel-premium": null,
        "avtoplin-lpg": null,
        "KOEL": 1.071,
        "hvo": null,
        "cng": null,
        "lng": null
      },
      "distance": null,
      "direction": "",
      "open_hours": "Ponedeljek\n07:00-12:00, 12:30-17:00\n\nTorek\n07:00-12:00, 12:30-17:00\n\nSreda\n07:00-12:00, 12:30-18:00\n\nČetrtek\n07:00-12:00, 12:30-17:00\n\nPetek\n07:00-12:00, 12:30-17:00\n\nSobota\n08:00-12:00, 12:30-16:00\n",
      "zip_code": "5274"
    },
    {
      "pk": 1988,
      "franchise": 1,
      "name": "PETROL DESKLE",
      "address": "SREBRNIČEVA ULICA 4",
      "lat": 46.05406598,
      "lng": 13.61904093,
      "prices": {
        "95": 1.436,
        "dizel": 1.465,
        "98": null,
        "100": null,
        "dizel-premium": null,
        "avtoplin-lpg": null,
        "KOEL": 1.071,
        "hvo": null,
        "cng": null,
        "lng": null
      },
      "distance": null,
      "direction": "",
      "open_hours": "Ponedeljek, Torek, Sreda, Četrtek, Petek\n07:00-20:00\n\nSobota\n07:00-20:00\n\nNedelja, Praznik\n08:00-20:00\n",
      "zip_code": "5210"
    },
    {
      "pk": 1989,
      "franchise": 1,
      "name": "PETROL TOLMIN",
      "address": "TRG MARŠALA TITA 18",
      "lat": 46.18282816,
      "lng": 13.73383929,
      "prices": {
        "95": 1.436,
        "dizel": 1.465,
        "98": null,
        "100": null,
        "dizel-premium": null,
        "avtoplin-lpg": null,
        "KOEL": 1.071,
        "hvo": null,
        "cng": null,
        "lng": null
      },
      "distance": null,
      "direction": "",
      "open_hours": "Ponedeljek, Torek, Sreda, Četrtek, Petek\n06:00-20:00\n\nSobota\n07:00-20:00\n\nNedelja, Praznik\n08:00-20:00\n",
      "zip_code": "5220"
    },
    {
      "pk": 1990,
      "franchise": 1,
      "name": "PETROL KOPER, SERMIN",
      "address": "SERMIN 7D",
      "lat": 45.55178982,
      "lng": 13.76037054,
      "prices": {
        "95": 1.436,
        "dizel": 1.465,
        "98": null,
        "100": 1.671,
        "dizel-premium": null,
        "avtoplin-lpg": 0.849,
        "KOEL": null,
        "hvo": null,
        "cng": null,
        "lng": null
      },
      "distance": null,
      "direction": "",
      "open_hours": "Ponedeljek, Torek, Sreda, Četrtek, Petek\n05:00-21:00\n\nSobota\n06:00-21:00\n\nNedelja, Praznik\n08:00-20:00\n",
      "zip_code": "6000"
    },
    {
      "pk": 1991,
      "franchise": 1,
      "name": "PETROL PODBRDO",
      "address": "PODBRDO 60C",
      "lat": 46.206127,
      "lng": 13.959792,
      "prices": {
        "95": 1.436,
        "dizel": 1.465,
        "98": null,
        "100": null,
        "dizel-premium": null,
        "avtoplin-lpg": null,
        "KOEL": 1.071,
        "hvo": null,
        "cng": null,
        "lng": null
      },
      "distance": null,
      "direction": "",
      "open_hours": "Ponedeljek, Torek, Sreda, Četrtek, Petek\n08:00-16:00\n\nSobota\n08:00-15:00\n",
      "zip_code": "5243"
    },
    {
      "pk": 1992,
      "franchise": 1,
      "name": "PETROL LIPICA",
      "address": "LIPICA 26",
      "lat": 45.6554886,
      "lng": 13.88112209,
      "prices": {
        "95": 1.436,
        "dizel": 1.465,
        "98": null,
        "100": 1.671,
        "dizel-premium": null,
        "avtoplin-lpg": 0.849,
        "KOEL": 1.071,
        "hvo": null,
        "cng": null,
        "lng": null
      },
      "distance": null,
      "direction": "",
      "open_hours": "Ponedeljek, Torek, Sreda, Četrtek, Petek\n07:00-21:00\n\nSobota\n07:00-20:00\n\nNedelja, Praznik\n07:00-20:00\n",
      "zip_code": "6210"
    },
    {
      "pk": 1993,
      "franchise": 1,
      "name": "PETROL SEŽANA",
      "address": "PARTIZANSKA CESTA 147",
      "lat": 45.702385,
      "lng": 13.84361,
      "prices": {
        "95": 1.436,
        "dizel": 1.465,
        "98": null,
        "100": 1.671,
        "dizel-premium": null,
        "avtoplin-lpg": 0.849,
        "KOEL": 1.071,
        "hvo": null,
        "cng": null,
        "lng": null
      },
      "distance": null,
      "direction": "",
      "open_hours": "Ponedeljek, Torek, Sreda, Četrtek, Petek\n06:00-21:00\n\nSobota\n07:00-21:00\n\nNedelja, Praznik\n07:00-21:00\n",
      "zip_code": "6210"
    },
    {
      "pk": 1994,
      "franchise": 1,
      "name": "PETROL JAGODJE - JUG",
      "address": "JAGODJE 10",
      "lat": 45.52451738,
      "lng": 13.6508096,
      "prices": {
        "95": 1.436,
        "dizel": 1.465,
        "98": null,
        "100": 1.671,
        "dizel-premium": null,
        "avtoplin-lpg": 0.849,
        "KOEL": 1.071,
        "hvo": null,
        "cng": null,
        "lng": null
      },
      "distance": null,
      "direction": "",
      "open_hours": "Ponedeljek, Torek, Sreda, Četrtek, Petek\n06:00-22:00\n\nSobota\n06:00-22:00\n\nNedelja, Praznik\n07:00-22:00\n",
      "zip_code": "6310"
    },
    {
      "pk": 1995,
      "franchise": 1,
      "name": "PETROL ILIRSKA BISTRICA",
      "address": "VILHARJEVA CESTA 33C",
      "lat": 45.575503,
      "lng": 14.23202,
      "prices": {
        "95": 1.436,
        "dizel": 1.465,
        "98": null,
        "100": 1.671,
        "dizel-premium": null,
        "avtoplin-lpg": 0.849,
        "KOEL": 1.071,
        "hvo": null,
        "cng": null,
        "lng": null
      },
      "distance": null,
      "direction": "",
      "open_hours": "Ponedeljek, Torek, Sreda, Četrtek, Petek\n06:00-21:00\n\nSobota\n06:00-21:00\n\nNedelja, Praznik\n07:00-21:00\n",
      "zip_code": "6250"
    },
    {
      "pk": 1996,
      "franchise": 1,
      "name": "PETROL POSTOJNA",
      "address": "REŠKA CESTA 5",
      "lat": 45.76695944,
      "lng": 14.19834697,
      "prices": {
        "95": 1.436,
        "dizel": 1.465,
        "98": null,
        "100": 1.671,
        "dizel-premium": null,
        "avtoplin-lpg": 0.849,
        "KOEL": 1.071,
        "hvo": null,
        "cng": null,
        "lng": null
      },
      "distance": null,
      "direction": "",
      "open_hours": "Ponedeljek, Torek, Sreda, Četrtek, Petek\n06:00-22:00\n\nSobota\n06:00-22:00\n\nNedelja, Praznik\n06:00-21:00\n",
      "zip_code": "6230"
    },
    {
      "pk": 1997,
      "franchise": 1,
      "name": "PETROL VRTOJBA AC - SEVER",
      "address": "MEDNARODNI PREHOD 1A",
      "lat": 45.920547,
      "lng": 13.628483,
      "prices": {
        "95": 1.436,
        "dizel": 1.465,
        "98": null,
        "100": 1.791,
        "dizel-premium": 1.983,
        "avtoplin-lpg": 0.879,
        "KOEL": null,
        "hvo": null,
        "cng": null,
        "lng": null
      },
      "distance": null,
      "direction": "",
      "open_hours": "00:00-23:59\n",
      "zip_code": "5290"
    },
    {
      "pk": 1998,
      "franchise": 1,
      "name": "PETROL JAGODJE - SEVER",
      "address": "JAGODJE 9",
      "lat": 45.52595915,
      "lng": 13.64867549,
      "prices": {
        "95": 1.436,
        "dizel": 1.465,
        "98": null,
        "100": 1.671,
        "dizel-premium": null,
        "avtoplin-lpg": null,
        "KOEL": null,
        "hvo": null,
        "cng": null,
        "lng": null
      },
      "distance": null,
      "direction": "",
      "open_hours": "Ponedeljek, Torek, Sreda, Četrtek, Petek\n07:00-21:00\n\nSobota\n07:00-21:00\n\nNedelja, Praznik\n08:00-20:00\n",
      "zip_code": "6310"
    },
    {
      "pk": 1999,
      "franchise": 1,
      "name": "PETROL CERKNO",
      "address": "GORIŠKA CESTA 37",
      "lat": 46.11808413,
      "lng": 13.97148427,
      "prices": {
        "95": 1.436,
        "dizel": 1.465,
        "98": null,
        "100": 1.671,
        "dizel-premium": null,
        "avtoplin-lpg": null,
        "KOEL": 1.071,
        "hvo": null,
        "cng": null,
        "lng": null
      },
      "distance": null,
      "direction": "",
      "open_hours": "Ponedeljek, Torek, Sreda, Četrtek, Petek\n07:00-20:00\n\nSobota\n07:00-20:00\n\nNedelja, Praznik\n08:00-19:00\n",
      "zip_code": "5282"
    },
    {
      "pk": 2000,
      "franchise": 1,
      "name": "PETROL VRTOJBA AC - JUG",
      "address": "MEDNARODNI PREHOD 4A",
      "lat": 45.91934,
      "lng": 13.627636,
      "prices": {
        "95": 1.436,
        "dizel": 1.465,
        "98": null,
        "100": 1.791,
        "dizel-premium": 1.983,
        "avtoplin-lpg": 0.879,
        "KOEL": null,
        "hvo": null,
        "cng": null,
        "lng": null
      },
      "distance": null,
      "direction": "",
      "open_hours": "Ponedeljek, Torek, Sreda, Četrtek, Petek\n06:00-23:00\n\nSobota\n06:00-23:00\n\nNedelja, Praznik\n08:00-21:00\n",
      "zip_code": "5290"
    },
    {
      "pk": 2001,
      "franchise": 1,
      "name": "PETROL VIPAVA",
      "address": "GORIŠKA CESTA 41",
      "lat": 45.8488706,
      "lng": 13.95468545,
      "prices": {
        "95": 1.436,
        "dizel": 1.465,
        "98": null,
        "100": 1.671,
        "dizel-premium": null,
        "avtoplin-lpg": null,
        "KOEL": 1.071,
        "hvo": null,
        "cng": null,
        "lng": null
      },
      "distance": null,
      "direction": "",
      "open_hours": "Ponedeljek, Torek, Sreda, Četrtek, Petek\n06:00-20:00\n\nSobota\n06:00-20:00\n\nNedelja, Praznik\n08:00-20:00\n",
      "zip_code": "5271"
    },
    {
      "pk": 2002,
      "franchise": 1,
      "name": "PETROL AJŠEVICA",
      "address": "AJŠEVICA 19",
      "lat": 45.9530272,
      "lng": 13.69107053,
      "prices": {
        "95": 1.436,
        "dizel": 1.465,
        "98": null,
        "100": 1.671,
        "dizel-premium": null,
        "avtoplin-lpg": 0.849,
        "KOEL": null,
        "hvo": null,
        "cng": null,
        "lng": null
      },
      "distance": null,
      "direction": "",
      "open_hours": "Ponedeljek, Torek, Sreda, Četrtek, Petek\n06:00-21:00\n\nSobota\n06:00-21:00\n\nNedelja, Praznik\n08:00-20:00\n",
      "zip_code": "5000"
    },
    {
      "pk": 2003,
      "franchise": 1,
      "name": "PETROL CERKNICA",
      "address": "CESTA 4. MAJA 3A",
      "lat": 45.78853568,
      "lng": 14.36984285,
      "prices": {
        "95": 1.436,
        "dizel": 1.465,
        "98": null,
        "100": 1.671,
        "dizel-premium": null,
        "avtoplin-lpg": 0.849,
        "KOEL": 1.071,
        "hvo": null,
        "cng": null,
        "lng": null
      },
      "distance": null,
      "direction": "",
      "open_hours": "Ponedeljek, Torek, Sreda, Četrtek, Petek\n06:00-22:00\n\nSobota\n06:00-22:00\n\nNedelja, Praznik\n07:00-21:00\n",
      "zip_code": "1380"
    },
    {
      "pk": 2004,
      "franchise": 1,
      "name": "PETROL KOPER - ŠMARSKA",
      "address": "ŠMARSKA CESTA 5F",
      "lat": 45.53250448,
      "lng": 13.73568232,
      "prices": {
        "95": 1.436,
        "dizel": 1.465,
        "98": null,
        "100": 1.671,
        "dizel-premium": 1.861,
        "avtoplin-lpg": 0.849,
        "KOEL": null,
        "hvo": null,
        "cng": null,
        "lng": null
      },
      "distance": null,
      "direction": "",
      "open_hours": "05:00-00:00\n",
      "zip_code": "6000"
    },
    {
      "pk": 2005,
      "franchise": 1,
      "name": "PETROL IZOLA, INDUSTRIJSKA",
      "address": "INDUSTRIJSKA CESTA 9B",
      "lat": 45.535631,
      "lng": 13.671735,
      "prices": {
        "95": 1.436,
        "dizel": 1.465,
        "98": null,
        "100": 1.671,
        "dizel-premium": 1.861,
        "avtoplin-lpg": 0.849,
        "KOEL": null,
        "hvo": null,
        "cng": null,
        "lng": null
      },
      "distance": null,
      "direction": "",
      "open_hours": "Ponedeljek, Torek, Sreda, Četrtek, Petek\n06:00-22:00\n\nSobota\n06:00-22:00\n\nNedelja, Praznik\n07:00-21:00\n",
      "zip_code": "6310"
    },
    {
      "pk": 2006,
      "franchise": 1,
      "name": "PETROL HRPELJE",
      "address": "REŠKA CESTA 51",
      "lat": 45.604489,
      "lng": 13.949959,
      "prices": {
        "95": 1.436,
        "dizel": 1.465,
        "98": null,
        "100": 1.671,
        "dizel-premium": 1.861,
        "avtoplin-lpg": 0.849,
        "KOEL": null,
        "hvo": null,
        "cng": null,
        "lng": null
      },
      "distance": null,
      "direction": "",
      "open_hours": "Ponedeljek, Torek, Sreda, Četrtek, Petek\n06:00-21:00\n\nSobota\n06:00-21:00\n\nNedelja, Praznik\n08:00-20:00\n",
      "zip_code": "6240"
    },
    {
      "pk": 2007,
      "franchise": 1,
      "name": "PETROL ŠTALONI",
      "address": "KOZARNO 1B",
      "lat": 46.00171653,
      "lng": 13.51782499,
      "prices": {
        "95": 1.436,
        "dizel": 1.465,
        "98": null,
        "100": 1.671,
        "dizel-premium": null,
        "avtoplin-lpg": 0.849,
        "KOEL": 1.071,
        "hvo": null,
        "cng": null,
        "lng": null
      },
      "distance": null,
      "direction": "",
      "open_hours": "07:00-22:00\n",
      "zip_code": "5212"
    }
  ],
  "position": null
}
